{
  "埼玉_久喜_久喜": {
    "http://tabelog.com/saitama/A1104/A110402/11001742/": {
      "Category": [
        "創作料理", 
        "和食（その他）", 
        "串揚げ・串かつ"
      ], 
      "Homepage": "none", 
      "Lat": "36.0675228818389", 
      "Lon": "139.676921732047", 
      "Region": [
        "埼玉県", 
        "久喜市中央1-3-14", 
        ""
      ], 
      "Reserve": "none", 
      "RestName": "てつ焼き 田や（テツヤキタヤ）", 
      "Tell": "0480-23-0005", 
      "locality": "久喜市中央1-3-14", 
      "region": "埼玉県", 
      "street-address": "", 
      "tellMain": "none", 
      "tellSub": "none"
    }, 
    "http://tabelog.com/saitama/A1104/A110402/11001963/": {
      "Category": [
        "カフェ"
      ], 
      "Homepage": "none", 
      "Lat": "36.0655633791831", 
      "Lon": "139.677492885942", 
      "Region": [
        "埼玉県", 
        "久喜市中央2-1-1", 
        ""
      ], 
      "Reserve": "none", 
      "RestName": "スターバックス・コーヒー 東武久喜駅店", 
      "Tell": "0480-29-1550", 
      "locality": "久喜市中央2-1-1", 
      "region": "埼玉県", 
      "street-address": "", 
      "tellMain": "none", 
      "tellSub": "none"
    }, 
    "http://tabelog.com/saitama/A1104/A110402/11002087/": {
      "Category": [
        "ダイニングバー"
      ], 
      "Homepage": "http://r.gnavi.co.jp/a861300/", 
      "Lat": "36.0662396760077", 
      "Lon": "139.676363504149", 
      "Region": [
        "埼玉県", 
        "久喜市中央1-1-15", 
        "２Ｆ"
      ], 
      "Reserve": "none", 
      "RestName": "どもん", 
      "Tell": "0480-25-0371", 
      "locality": "久喜市中央1-1-15", 
      "region": "埼玉県", 
      "street-address": "２Ｆ", 
      "tellMain": "none", 
      "tellSub": "none"
    }, 
    "http://tabelog.com/saitama/A1104/A110402/11002929/": {
      "Category": [
        "ダイニングバー", 
        "無国籍料理"
      ], 
      "Homepage": "none", 
      "Lat": "36.0671395355105", 
      "Lon": "139.673830339767", 
      "Region": [
        "埼玉県", 
        "久喜市中央4-1-2", 
        ""
      ], 
      "Reserve": "none", 
      "RestName": "無国籍料理 燦だらぼち（ムコクセキリョウリ サンダラボチ）", 
      "Tell": "050-5570-4598", 
      "locality": "久喜市中央4-1-2", 
      "region": "埼玉県", 
      "street-address": "", 
      "tellMain": "050-5570-4598（予約専用番号）", 
      "tellSub": "0480-24-0111（お問い合わせ専用番号）"
    }, 
    "http://tabelog.com/saitama/A1104/A110402/11004983/": {
      "Category": [
        "居酒屋", 
        "ラーメン"
      ], 
      "Homepage": "none", 
      "Lat": "36.0670260926221", 
      "Lon": "139.679585866994", 
      "Region": [
        "埼玉県", 
        "久喜市東2-3-2", 
        ""
      ], 
      "Reserve": "none", 
      "RestName": "めんくい家 久喜店（メンクイヤクキテン）", 
      "Tell": "080-6586-4745", 
      "locality": "久喜市東2-3-2", 
      "region": "埼玉県", 
      "street-address": "", 
      "tellMain": "none", 
      "tellSub": "none"
    }, 
    "http://tabelog.com/saitama/A1104/A110402/11004996/": {
      "Category": [
        "居酒屋", 
        "割烹・小料理"
      ], 
      "Homepage": "none", 
      "Lat": "36.0662981006257", 
      "Lon": "139.675586232681", 
      "Region": [
        "埼玉県", 
        "久喜市中央1-2-5", 
        ""
      ], 
      "Reserve": "none", 
      "RestName": "居酒屋 粋マス（イザカヤイキマス）", 
      "Tell": "0480-22-8883", 
      "locality": "久喜市中央1-2-5", 
      "region": "埼玉県", 
      "street-address": "", 
      "tellMain": "none", 
      "tellSub": "none"
    }, 
    "http://tabelog.com/saitama/A1104/A110402/11005034/": {
      "Category": [
        "居酒屋", 
        "魚介料理・海鮮料理", 
        "ダイニングバー"
      ], 
      "Homepage": "http://www.watamifoodservice.jp/watami/", 
      "Lat": "36.0660819118827", 
      "Lon": "139.676179082288", 
      "Region": [
        "埼玉県", 
        "久喜市中央1-1-8", 
        "ゴガミビル 2F"
      ], 
      "Reserve": "予約可", 
      "RestName": "和民 久喜駅前店（わたみ）", 
      "Tell": "050-5872-0218", 
      "locality": "久喜市中央1-1-8", 
      "region": "埼玉県", 
      "street-address": "ゴガミビル 2F", 
      "tellMain": "050-5872-0218（予約専用番号）", 
      "tellSub": "0480-25-5290（お問い合わせ専用番号）"
    }, 
    "http://tabelog.com/saitama/A1104/A110402/11005035/": {
      "Category": [
        "居酒屋", 
        "魚介料理・海鮮料理", 
        "定食・食堂"
      ], 
      "Homepage": "http://www.teraken.co.jp", 
      "Lat": "36.0651692381445", 
      "Lon": "139.676546593787", 
      "Region": [
        "埼玉県", 
        "久喜市中央2-2-5", 
        "尾崎ビル 1F"
      ], 
      "Reserve": "予約可", 
      "RestName": "さくら水産 久喜西口店", 
      "Tell": "050-5890-5413", 
      "locality": "久喜市中央2-2-5", 
      "region": "埼玉県", 
      "street-address": "尾崎ビル 1F", 
      "tellMain": "050-5890-5413（予約専用番号）", 
      "tellSub": "0480-26-1630（お問い合わせ専用番号）"
    }, 
    "http://tabelog.com/saitama/A1104/A110402/11005220/": {
      "Category": [
        "居酒屋", 
        "魚介料理・海鮮料理", 
        "創作和食"
      ], 
      "Homepage": "http://www.monteroza.co.jp/index.html", 
      "Lat": "36.0661027161515", 
      "Lon": "139.674642542273", 
      "Region": [
        "埼玉県", 
        "久喜市久喜中央3-1-5", 
        "大島ビル　２Ｆ"
      ], 
      "Reserve": "予約可", 
      "RestName": "魚民 久喜西口駅前店", 
      "Tell": "0480-21-9488", 
      "locality": "久喜市久喜中央3-1-5", 
      "region": "埼玉県", 
      "street-address": "大島ビル　２Ｆ", 
      "tellMain": "none", 
      "tellSub": "none"
    }, 
    "http://tabelog.com/saitama/A1104/A110402/11005221/": {
      "Category": [
        "居酒屋", 
        "焼鳥", 
        "すき焼き"
      ], 
      "Homepage": "http://r.gnavi.co.jp/b868529/", 
      "Lat": "36.0710226182172", 
      "Lon": "139.676898906139", 
      "Region": [
        "埼玉県", 
        "久喜市中央4-10-58", 
        ""
      ], 
      "Reserve": "予約可", 
      "RestName": "旬鮮だいにんぐ天狗久喜店（シュンセンダイニングテングクキテン）", 
      "Tell": "0480-22-7201", 
      "locality": "久喜市中央4-10-58", 
      "region": "埼玉県", 
      "street-address": "", 
      "tellMain": "none", 
      "tellSub": "none"
    }, 
    "http://tabelog.com/saitama/A1104/A110402/11005222/": {
      "Category": [
        "居酒屋", 
        "魚介料理・海鮮料理", 
        "創作和食"
      ], 
      "Homepage": "http://www.monteroza.co.jp/index.html", 
      "Lat": "36.0654436881941", 
      "Lon": "139.678548081595", 
      "Region": [
        "埼玉県", 
        "久喜市久喜東1-2-2", 
        "フジタ第１２ビル　２Ｆ"
      ], 
      "Reserve": "予約可", 
      "RestName": "笑笑 久喜東口駅前店", 
      "Tell": "0480-24-4188", 
      "locality": "久喜市久喜東1-2-2", 
      "region": "埼玉県", 
      "street-address": "フジタ第１２ビル　２Ｆ", 
      "tellMain": "none", 
      "tellSub": "none"
    }, 
    "http://tabelog.com/saitama/A1104/A110402/11005393/": {
      "Category": [
        "うなぎ", 
        "割烹・小料理", 
        "和食（その他）"
      ], 
      "Homepage": "http://www.29moto.jp", 
      "Lat": "36.0657022159076", 
      "Lon": "139.675356668071", 
      "Region": [
        "埼玉県", 
        "久喜市久喜中央2-9-51", 
        ""
      ], 
      "Reserve": "予約可", 
      "RestName": "うなぎ福本", 
      "Tell": "0480-21-0258", 
      "locality": "久喜市久喜中央2-9-51", 
      "region": "埼玉県", 
      "street-address": "", 
      "tellMain": "none", 
      "tellSub": "none"
    }, 
    "http://tabelog.com/saitama/A1104/A110402/11005440/": {
      "Category": [
        "レストラン（その他）", 
        "鳥料理"
      ], 
      "Homepage": "none", 
      "Lat": "36.0656277444032", 
      "Lon": "139.677549675283", 
      "Region": [
        "埼玉県", 
        "久喜市中央2-1-1", 
        ""
      ], 
      "Reserve": "none", 
      "RestName": "ケンタッキーフライドチキン 久喜店", 
      "Tell": "0480-29-1218", 
      "locality": "久喜市中央2-1-1", 
      "region": "埼玉県", 
      "street-address": "", 
      "tellMain": "none", 
      "tellSub": "none"
    }, 
    "http://tabelog.com/saitama/A1104/A110402/11005546/": {
      "Category": [
        "居酒屋", 
        "焼鳥"
      ], 
      "Homepage": "none", 
      "Lat": "36.0661132768869", 
      "Lon": "139.678197776668", 
      "Region": [
        "埼玉県", 
        "久喜市東1丁目1-4", 
        ""
      ], 
      "Reserve": "none", 
      "RestName": "焼とりけんちゃん", 
      "Tell": "0480-22-4014", 
      "locality": "久喜市東1丁目1-4", 
      "region": "埼玉県", 
      "street-address": "", 
      "tellMain": "none", 
      "tellSub": "none"
    }, 
    "http://tabelog.com/saitama/A1104/A110402/11007471/": {
      "Category": [
        "中華料理"
      ], 
      "Homepage": "none", 
      "Lat": "36.0662674351598", 
      "Lon": "139.675658028131", 
      "Region": [
        "埼玉県", 
        "久喜市中央1-2-3", 
        ""
      ], 
      "Reserve": "予約可", 
      "RestName": "菜香", 
      "Tell": "0480-22-8837", 
      "locality": "久喜市中央1-2-3", 
      "region": "埼玉県", 
      "street-address": "", 
      "tellMain": "none", 
      "tellSub": "none"
    }, 
    "http://tabelog.com/saitama/A1104/A110402/11007475/": {
      "Category": [
        "中華料理"
      ], 
      "Homepage": "none", 
      "Lat": "36.0673865458459", 
      "Lon": "139.679115167268", 
      "Region": [
        "埼玉県", 
        "久喜市久喜東2-2-52", 
        ""
      ], 
      "Reserve": "none", 
      "RestName": "弘園", 
      "Tell": "0480-23-1886", 
      "locality": "久喜市久喜東2-2-52", 
      "region": "埼玉県", 
      "street-address": "", 
      "tellMain": "none", 
      "tellSub": "none"
    }, 
    "http://tabelog.com/saitama/A1104/A110402/11008602/": {
      "Category": [
        "焼鳥"
      ], 
      "Homepage": "none", 
      "Lat": "36.0660257972354", 
      "Lon": "139.675633019111", 
      "Region": [
        "埼玉県", 
        "久喜市中央2-9-43", 
        ""
      ], 
      "Reserve": "none", 
      "RestName": "風林火山", 
      "Tell": "0480-22-5169", 
      "locality": "久喜市中央2-9-43", 
      "region": "埼玉県", 
      "street-address": "", 
      "tellMain": "none", 
      "tellSub": "none"
    }, 
    "http://tabelog.com/saitama/A1104/A110402/11010577/": {
      "Category": [
        "そば", 
        "うどん"
      ], 
      "Homepage": "none", 
      "Lat": "36.0660202565847", 
      "Lon": "139.676452395761", 
      "Region": [
        "埼玉県", 
        "久喜市中央1-1-1", 
        ""
      ], 
      "Reserve": "none", 
      "RestName": "柳屋", 
      "Tell": "0480-21-0047", 
      "locality": "久喜市中央1-1-1", 
      "region": "埼玉県", 
      "street-address": "", 
      "tellMain": "none", 
      "tellSub": "none"
    }, 
    "http://tabelog.com/saitama/A1104/A110402/11011019/": {
      "Category": [
        "懐石・会席料理", 
        "割烹・小料理"
      ], 
      "Homepage": "none", 
      "Lat": "36.0642754777475", 
      "Lon": "139.67842981187", 
      "Region": [
        "埼玉県", 
        "久喜市東1-5-4", 
        ""
      ], 
      "Reserve": "none", 
      "RestName": "まつえ", 
      "Tell": "0480-22-8899", 
      "locality": "久喜市東1-5-4", 
      "region": "埼玉県", 
      "street-address": "", 
      "tellMain": "none", 
      "tellSub": "none"
    }, 
    "http://tabelog.com/saitama/A1104/A110402/11011238/": {
      "Category": [
        "寿司"
      ], 
      "Homepage": "none", 
      "Lat": "36.0681422673588", 
      "Lon": "139.677341113141", 
      "Region": [
        "埼玉県", 
        "久喜市中央1-10-21", 
        ""
      ], 
      "Reserve": "none", 
      "RestName": "むさし家", 
      "Tell": "0480-21-1665", 
      "locality": "久喜市中央1-10-21", 
      "region": "埼玉県", 
      "street-address": "", 
      "tellMain": "none", 
      "tellSub": "none"
    }, 
    "http://tabelog.com/saitama/A1104/A110402/11011742/": {
      "Category": [
        "寿司"
      ], 
      "Homepage": "none", 
      "Lat": "36.0644704851791", 
      "Lon": "139.680049390607", 
      "Region": [
        "埼玉県", 
        "久喜市東1-11-27", 
        ""
      ], 
      "Reserve": "none", 
      "RestName": "双葉", 
      "Tell": "0480-21-2755", 
      "locality": "久喜市東1-11-27", 
      "region": "埼玉県", 
      "street-address": "", 
      "tellMain": "none", 
      "tellSub": "none"
    }, 
    "http://tabelog.com/saitama/A1104/A110402/11012136/": {
      "Category": [
        "居酒屋", 
        "寿司", 
        "魚介料理・海鮮料理"
      ], 
      "Homepage": "none", 
      "Lat": "36.0656369644915", 
      "Lon": "139.676466301143", 
      "Region": [
        "埼玉県", 
        "久喜市中央2-10-28", 
        ""
      ], 
      "Reserve": "予約可", 
      "RestName": "庄や 久喜店（しょうや）", 
      "Tell": "050-5872-7187", 
      "locality": "久喜市中央2-10-28", 
      "region": "埼玉県", 
      "street-address": "", 
      "tellMain": "050-5872-7187（予約専用番号）", 
      "tellSub": "0480-21-8593（お問い合わせ専用番号）"
    }, 
    "http://tabelog.com/saitama/A1104/A110402/11013643/": {
      "Category": [
        "喫茶店"
      ], 
      "Homepage": "none", 
      "Lat": "36.0657836015445", 
      "Lon": "139.675668860619", 
      "Region": [
        "埼玉県", 
        "久喜市中央2-10-23", 
        "2F"
      ], 
      "Reserve": "none", 
      "RestName": "珀欧亭", 
      "Tell": "0480-23-3641", 
      "locality": "久喜市中央2-10-23", 
      "region": "埼玉県", 
      "street-address": "2F", 
      "tellMain": "none", 
      "tellSub": "none"
    }, 
    "http://tabelog.com/saitama/A1104/A110402/11014061/": {
      "Category": [
        "レストラン（その他）"
      ], 
      "Homepage": "none", 
      "Lat": "36.0646315058175", 
      "Lon": "139.675983076457", 
      "Region": [
        "埼玉県", 
        "久喜市東2-2-13", 
        ""
      ], 
      "Reserve": "none", 
      "RestName": "おけや", 
      "Tell": "0480-23-3232", 
      "locality": "久喜市東2-2-13", 
      "region": "埼玉県", 
      "street-address": "", 
      "tellMain": "none", 
      "tellSub": "none"
    }, 
    "http://tabelog.com/saitama/A1104/A110402/11015569/": {
      "Category": [
        "お好み焼き"
      ], 
      "Homepage": "none", 
      "Lat": "36.0662535397086", 
      "Lon": "139.675260861755", 
      "Region": [
        "埼玉県", 
        "久喜市中央2-9-38", 
        ""
      ], 
      "Reserve": "none", 
      "RestName": "はーとふる", 
      "Tell": "0480-21-0018", 
      "locality": "久喜市中央2-9-38", 
      "region": "埼玉県", 
      "street-address": "", 
      "tellMain": "none", 
      "tellSub": "none"
    }, 
    "http://tabelog.com/saitama/A1104/A110402/11017410/": {
      "Category": [
        "イタリアン"
      ], 
      "Homepage": "none", 
      "Lat": "36.067583419707", 
      "Lon": "139.676279838121", 
      "Region": [
        "埼玉県", 
        "久喜市中央1-4-43", 
        ""
      ], 
      "Reserve": "予約可", 
      "RestName": "気らく亭", 
      "Tell": "0480-24-3618", 
      "locality": "久喜市中央1-4-43", 
      "region": "埼玉県", 
      "street-address": "", 
      "tellMain": "none", 
      "tellSub": "none"
    }, 
    "http://tabelog.com/saitama/A1104/A110402/11017411/": {
      "Category": [
        "居酒屋"
      ], 
      "Homepage": "none", 
      "Lat": "36.0647064863958", 
      "Lon": "139.675330327215", 
      "Region": [
        "埼玉県", 
        "久喜市中央2-3-37", 
        ""
      ], 
      "Reserve": "none", 
      "RestName": "新井屋", 
      "Tell": "0480-21-0348", 
      "locality": "久喜市中央2-3-37", 
      "region": "埼玉県", 
      "street-address": "", 
      "tellMain": "none", 
      "tellSub": "none"
    }, 
    "http://tabelog.com/saitama/A1104/A110402/11017413/": {
      "Category": [
        "居酒屋"
      ], 
      "Homepage": "none", 
      "Lat": "36.063770520901", 
      "Lon": "139.677871859235", 
      "Region": [
        "埼玉県", 
        "久喜市東1-5-13", 
        ""
      ], 
      "Reserve": "none", 
      "RestName": "愛ちゃんの店", 
      "Tell": "0480-22-2029", 
      "locality": "久喜市東1-5-13", 
      "region": "埼玉県", 
      "street-address": "", 
      "tellMain": "none", 
      "tellSub": "none"
    }, 
    "http://tabelog.com/saitama/A1104/A110402/11017414/": {
      "Category": [
        "居酒屋"
      ], 
      "Homepage": "none", 
      "Lat": "36.0649093301843", 
      "Lon": "139.680224311431", 
      "Region": [
        "埼玉県", 
        "久喜市東3-1-5", 
        ""
      ], 
      "Reserve": "none", 
      "RestName": "居酒屋染ちゃん", 
      "Tell": "0480-23-6867", 
      "locality": "久喜市東3-1-5", 
      "region": "埼玉県", 
      "street-address": "", 
      "tellMain": "none", 
      "tellSub": "none"
    }, 
    "http://tabelog.com/saitama/A1104/A110402/11017631/": {
      "Category": [
        "カレーライス", 
        "洋食", 
        "定食・食堂"
      ], 
      "Homepage": "none", 
      "Lat": "36.065457541601", 
      "Lon": "139.676601575947", 
      "Region": [
        "埼玉県", 
        "久喜市久喜中央2-2-34", 
        ""
      ], 
      "Reserve": "予約不可", 
      "RestName": "CoCo壱番屋 ＪＲ久喜駅西口店（ココイチバンヤ）", 
      "Tell": "050-5872-8291", 
      "locality": "久喜市久喜中央2-2-34", 
      "region": "埼玉県", 
      "street-address": "", 
      "tellMain": "050-5872-8291（予約専用番号）", 
      "tellSub": "0480-26-5400（お問い合わせ専用番号）"
    }, 
    "http://tabelog.com/saitama/A1104/A110402/11018811/": {
      "Category": [
        "喫茶店"
      ], 
      "Homepage": "none", 
      "Lat": "36.0662535397086", 
      "Lon": "139.675260861755", 
      "Region": [
        "埼玉県", 
        "久喜市中央2-9-38", 
        ""
      ], 
      "Reserve": "none", 
      "RestName": "ポ、ポ", 
      "Tell": "0480-21-0133", 
      "locality": "久喜市中央2-9-38", 
      "region": "埼玉県", 
      "street-address": "", 
      "tellMain": "none", 
      "tellSub": "none"
    }, 
    "http://tabelog.com/saitama/A1104/A110402/11019556/": {
      "Category": [
        "ケーキ", 
        "洋菓子（その他）"
      ], 
      "Homepage": "none", 
      "Lat": "36.0672193384424", 
      "Lon": "139.676936788346", 
      "Region": [
        "埼玉県", 
        "久喜市中央1丁目3-24", 
        ""
      ], 
      "Reserve": "none", 
      "RestName": "菓子工房　Présents　Passés（菓子工房　プレザン・パッセ）", 
      "Tell": "0480-24-4211", 
      "locality": "久喜市中央1丁目3-24", 
      "region": "埼玉県", 
      "street-address": "", 
      "tellMain": "none", 
      "tellSub": "none"
    }, 
    "http://tabelog.com/saitama/A1104/A110402/11020029/": {
      "Category": [
        "割烹・小料理", 
        "創作料理"
      ], 
      "Homepage": "http://r.gnavi.co.jp/b648501/", 
      "Lat": "36.0671075153263", 
      "Lon": "139.675883865036", 
      "Region": [
        "埼玉県", 
        "久喜市中央1-4-48", 
        "フローレスビル1F"
      ], 
      "Reserve": "予約可", 
      "RestName": "りょんどる", 
      "Tell": "050-5570-4604", 
      "locality": "久喜市中央1-4-48", 
      "region": "埼玉県", 
      "street-address": "フローレスビル1F", 
      "tellMain": "050-5570-4604（予約専用番号）", 
      "tellSub": "0480-24-3611（お問い合わせ専用番号）"
    }, 
    "http://tabelog.com/saitama/A1104/A110402/11020033/": {
      "Category": [
        "ダイニングバー", 
        "バー"
      ], 
      "Homepage": "none", 
      "Lat": "36.0665598940241", 
      "Lon": "139.674903055144", 
      "Region": [
        "埼玉県", 
        "久喜市中央1-5-4", 
        ""
      ], 
      "Reserve": "予約可", 
      "RestName": "シェルター（Sheltter）", 
      "Tell": "0480-22-0900", 
      "locality": "久喜市中央1-5-4", 
      "region": "埼玉県", 
      "street-address": "", 
      "tellMain": "none", 
      "tellSub": "none"
    }, 
    "http://tabelog.com/saitama/A1104/A110402/11022640/": {
      "Category": [
        "居酒屋"
      ], 
      "Homepage": "none", 
      "Lat": "36.0670868018367", 
      "Lon": "139.67590516988", 
      "Region": [
        "埼玉県", 
        "久喜市中央1-4-48", 
        ""
      ], 
      "Reserve": "none", 
      "RestName": "えんぽぉ", 
      "Tell": "0480-22-2802", 
      "locality": "久喜市中央1-4-48", 
      "region": "埼玉県", 
      "street-address": "", 
      "tellMain": "none", 
      "tellSub": "none"
    }, 
    "http://tabelog.com/saitama/A1104/A110402/11023124/": {
      "Category": [
        "居酒屋", 
        "焼鳥", 
        "おでん"
      ], 
      "Homepage": "none", 
      "Lat": "36.0673339608562", 
      "Lon": "139.673927522744", 
      "Region": [
        "埼玉県", 
        "久喜市中央4-1-4", 
        ""
      ], 
      "Reserve": "予約可", 
      "RestName": "あな蔵", 
      "Tell": "050-5872-8296", 
      "locality": "久喜市中央4-1-4", 
      "region": "埼玉県", 
      "street-address": "", 
      "tellMain": "050-5872-8296（予約専用番号）", 
      "tellSub": "0480-23-1505（お問い合わせ専用番号）"
    }, 
    "http://tabelog.com/saitama/A1104/A110402/11023802/": {
      "Category": [
        "インド料理", 
        "インドカレー", 
        "レストラン（その他）"
      ], 
      "Homepage": "http://www.wasimiya.org/spicychef/", 
      "Lat": "36.0669828236107", 
      "Lon": "139.679682031475", 
      "Region": [
        "埼玉県", 
        "久喜市久喜東2-3-2", 
        ""
      ], 
      "Reserve": "予約可", 
      "RestName": "スパイシーシェフ（Spicy　Chef）", 
      "Tell": "050-5890-7150", 
      "locality": "久喜市久喜東2-3-2", 
      "region": "埼玉県", 
      "street-address": "", 
      "tellMain": "050-5890-7150（予約専用番号）", 
      "tellSub": "0480-24-5517（お問い合わせ専用番号）"
    }, 
    "http://tabelog.com/saitama/A1104/A110402/11024296/": {
      "Category": [
        "ホルモン"
      ], 
      "Homepage": "http://r.gnavi.co.jp/ga79900/", 
      "Lat": "36.0666443248336", 
      "Lon": "139.674639462037", 
      "Region": [
        "埼玉県", 
        "久喜市久喜中央1-5-6", 
        "TSビル 1F"
      ], 
      "Reserve": "予約可", 
      "RestName": "天才ホルモン", 
      "Tell": "0480-24-7007", 
      "locality": "久喜市久喜中央1-5-6", 
      "region": "埼玉県", 
      "street-address": "TSビル 1F", 
      "tellMain": "none", 
      "tellSub": "none"
    }, 
    "http://tabelog.com/saitama/A1104/A110402/11025030/": {
      "Category": [
        "その他"
      ], 
      "Homepage": "http://www.karaoke-rainbow.com/", 
      "Lat": "36.0665721384428", 
      "Lon": "139.67712568834", 
      "Region": [
        "埼玉県", 
        "久喜市中央1-1-20", 
        "サリアビルＢ１階"
      ], 
      "Reserve": "予約可", 
      "RestName": "カラオケレインボー 久喜店", 
      "Tell": "0480-24-2925", 
      "locality": "久喜市中央1-1-20", 
      "region": "埼玉県", 
      "street-address": "サリアビルＢ１階", 
      "tellMain": "none", 
      "tellSub": "none"
    }, 
    "http://tabelog.com/saitama/A1104/A110402/11025346/": {
      "Category": [
        "居酒屋", 
        "魚介料理・海鮮料理", 
        "創作和食"
      ], 
      "Homepage": "http://www.monteroza.co.jp/index.html", 
      "Lat": "36.0665682657554", 
      "Lon": "139.677152590157", 
      "Region": [
        "埼玉県", 
        "久喜市久喜中央1-1-20", 
        "クッキープラザ Ｂ１Ｆ"
      ], 
      "Reserve": "予約可", 
      "RestName": "千年の宴 久喜西口駅前店", 
      "Tell": "0480-25-2088", 
      "locality": "久喜市久喜中央1-1-20", 
      "region": "埼玉県", 
      "street-address": "クッキープラザ Ｂ１Ｆ", 
      "tellMain": "none", 
      "tellSub": "none"
    }, 
    "http://tabelog.com/saitama/A1104/A110402/11025410/": {
      "Category": [
        "ホルモン", 
        "焼肉", 
        "居酒屋"
      ], 
      "Homepage": "http://www.monteroza.co.jp/index.html", 
      "Lat": "36.0665135480079", 
      "Lon": "139.677073710338", 
      "Region": [
        "埼玉県", 
        "久喜市久喜中央1-1-20", 
        "クッキープラザ　Ｂ１Ｆ"
      ], 
      "Reserve": "予約可", 
      "RestName": "久喜ホルモン　おいで屋", 
      "Tell": "0480-25-2788", 
      "locality": "久喜市久喜中央1-1-20", 
      "region": "埼玉県", 
      "street-address": "クッキープラザ　Ｂ１Ｆ", 
      "tellMain": "none", 
      "tellSub": "none"
    }, 
    "http://tabelog.com/saitama/A1104/A110402/11025762/": {
      "Category": [
        "和食（その他）", 
        "居酒屋"
      ], 
      "Homepage": "none", 
      "Lat": "36.0704705537596", 
      "Lon": "139.675600353518", 
      "Region": [
        "埼玉県", 
        "久喜市中央4-9-83", 
        ""
      ], 
      "Reserve": "予約可", 
      "RestName": "徳樹庵 久喜テラレス店", 
      "Tell": "048-026-5353", 
      "locality": "久喜市中央4-9-83", 
      "region": "埼玉県", 
      "street-address": "", 
      "tellMain": "none", 
      "tellSub": "none"
    }, 
    "http://tabelog.com/saitama/A1104/A110402/11025913/": {
      "Category": [
        "イタリアン"
      ], 
      "Homepage": "none", 
      "Lat": "36.0665693767574", 
      "Lon": "139.677153145615", 
      "Region": [
        "埼玉県", 
        "久喜市久喜中央1-1-20", 
        "クッキープラザ B1F"
      ], 
      "Reserve": "none", 
      "RestName": "サイゼリヤ 久喜西口店", 
      "Tell": "0480-26-5855", 
      "locality": "久喜市久喜中央1-1-20", 
      "region": "埼玉県", 
      "street-address": "クッキープラザ B1F", 
      "tellMain": "none", 
      "tellSub": "none"
    }, 
    "http://tabelog.com/saitama/A1104/A110402/11025955/": {
      "Category": [
        "ハンバーガー"
      ], 
      "Homepage": "none", 
      "Lat": "36.0661555384428", 
      "Lon": "139.676386888336", 
      "Region": [
        "埼玉県", 
        "久喜市中央1-1-3", 
        ""
      ], 
      "Reserve": "none", 
      "RestName": "マクドナルド 久喜駅前店", 
      "Tell": "0480-29-2603", 
      "locality": "久喜市中央1-1-3", 
      "region": "埼玉県", 
      "street-address": "", 
      "tellMain": "none", 
      "tellSub": "none"
    }, 
    "http://tabelog.com/saitama/A1104/A110402/11026081/": {
      "Category": [
        "中華料理"
      ], 
      "Homepage": "none", 
      "Lat": "36.0653385768874", 
      "Lon": "139.677389576654", 
      "Region": [
        "埼玉県", 
        "久喜市久喜中央2-1-1", 
        ""
      ], 
      "Reserve": "none", 
      "RestName": "上海菜館 久喜駅東口店", 
      "Tell": "0480-22-8495", 
      "locality": "久喜市久喜中央2-1-1", 
      "region": "埼玉県", 
      "street-address": "", 
      "tellMain": "none", 
      "tellSub": "none"
    }, 
    "http://tabelog.com/saitama/A1104/A110402/11026161/": {
      "Category": [
        "パン", 
        "サンドイッチ", 
        "洋菓子（その他）"
      ], 
      "Homepage": "none", 
      "Lat": "36.0666607149095", 
      "Lon": "139.674807780636", 
      "Region": [
        "埼玉県", 
        "久喜市久喜中央1-5-5", 
        ""
      ], 
      "Reserve": "none", 
      "RestName": "マシェリ（MA CHERIE）", 
      "Tell": "0480-24-2238", 
      "locality": "久喜市久喜中央1-5-5", 
      "region": "埼玉県", 
      "street-address": "", 
      "tellMain": "none", 
      "tellSub": "none"
    }, 
    "http://tabelog.com/saitama/A1104/A110402/11026273/": {
      "Category": [
        "定食・食堂", 
        "居酒屋"
      ], 
      "Homepage": "none", 
      "Lat": "36.0660685689972", 
      "Lon": "139.675550523993", 
      "Region": [
        "埼玉県", 
        "久喜市中央2-9-41", 
        ""
      ], 
      "Reserve": "予約不可", 
      "RestName": "安井満福屋", 
      "Tell": "0480-21-3898", 
      "locality": "久喜市中央2-9-41", 
      "region": "埼玉県", 
      "street-address": "", 
      "tellMain": "none", 
      "tellSub": "none"
    }, 
    "http://tabelog.com/saitama/A1104/A110402/11026485/": {
      "Category": [
        "ケーキ", 
        "洋菓子（その他）"
      ], 
      "Homepage": "none", 
      "Lat": "36.0653385768874", 
      "Lon": "139.677389576654", 
      "Region": [
        "埼玉県", 
        "久喜市中央2-1-1", 
        "東武鉄道久喜駅構内"
      ], 
      "Reserve": "none", 
      "RestName": "フロプレステージュ 久喜東武駅店", 
      "Tell": "0480-24-3311", 
      "locality": "久喜市中央2-1-1", 
      "region": "埼玉県", 
      "street-address": "東武鉄道久喜駅構内", 
      "tellMain": "none", 
      "tellSub": "none"
    }, 
    "http://tabelog.com/saitama/A1104/A110402/11026906/": {
      "Category": [
        "和菓子", 
        "弁当", 
        "おにぎり"
      ], 
      "Homepage": "none", 
      "Lat": "36.0672078768843", 
      "Lon": "139.676117276692", 
      "Region": [
        "埼玉県", 
        "久喜市久喜中央1丁目4-46", 
        ""
      ], 
      "Reserve": "none", 
      "RestName": "たかのチェーン 久喜店", 
      "Tell": "0480-21-0185", 
      "locality": "久喜市久喜中央1丁目4-46", 
      "region": "埼玉県", 
      "street-address": "", 
      "tellMain": "none", 
      "tellSub": "none"
    }, 
    "http://tabelog.com/saitama/A1104/A110402/11027566/": {
      "Category": [
        "居酒屋", 
        "魚介料理・海鮮料理", 
        "創作和食"
      ], 
      "Homepage": "http://www.monteroza.co.jp/index.html", 
      "Lat": "36.0656834384431", 
      "Lon": "139.676345288331", 
      "Region": [
        "埼玉県", 
        "久喜市久喜中央2-10-26", 
        "吉田ビル　１Ｆ"
      ], 
      "Reserve": "予約可", 
      "RestName": "横濱 魚萬 久喜西口駅前店", 
      "Tell": "0480-24-4388", 
      "locality": "久喜市久喜中央2-10-26", 
      "region": "埼玉県", 
      "street-address": "吉田ビル　１Ｆ", 
      "tellMain": "none", 
      "tellSub": "none"
    }, 
    "http://tabelog.com/saitama/A1104/A110402/11027698/": {
      "Category": [
        "パン", 
        "サンドイッチ", 
        "カフェ"
      ], 
      "Homepage": "none", 
      "Lat": "36.0655131941694", 
      "Lon": "139.67763829985", 
      "Region": [
        "埼玉県", 
        "久喜市中央2-1-1", 
        ""
      ], 
      "Reserve": "none", 
      "RestName": "オーブン フレッシュ カフェ 久喜ST（OVEN FRESH CAFE）", 
      "Tell": "0480-23-2760", 
      "locality": "久喜市中央2-1-1", 
      "region": "埼玉県", 
      "street-address": "", 
      "tellMain": "none", 
      "tellSub": "none"
    }, 
    "http://tabelog.com/saitama/A1104/A110402/11027699/": {
      "Category": [
        "定食・食堂", 
        "カレーライス"
      ], 
      "Homepage": "none", 
      "Lat": "36.0655142207724", 
      "Lon": "139.677664540613", 
      "Region": [
        "埼玉県", 
        "久喜市中央2-1-1", 
        "久喜駅跨線橋内"
      ], 
      "Reserve": "予約不可", 
      "RestName": "Sガスト 久喜駅店（エスガスト）", 
      "Tell": "0480-29-2650", 
      "locality": "久喜市中央2-1-1", 
      "region": "埼玉県", 
      "street-address": "久喜駅跨線橋内", 
      "tellMain": "none", 
      "tellSub": "none"
    }, 
    "http://tabelog.com/saitama/A1104/A110402/11028286/": {
      "Category": [
        "喫茶店"
      ], 
      "Homepage": "none", 
      "Lat": "36.0664754969251", 
      "Lon": "139.677096765731", 
      "Region": [
        "埼玉県", 
        "久喜市久喜中央1-1-20", 
        "クッキープラザ 2F"
      ], 
      "Reserve": "none", 
      "RestName": "珈琲屋 OB 久喜店（珈琲屋 OB 久喜店）", 
      "Tell": "080-3552-7806", 
      "locality": "久喜市久喜中央1-1-20", 
      "region": "埼玉県", 
      "street-address": "クッキープラザ 2F", 
      "tellMain": "none", 
      "tellSub": "none"
    }, 
    "http://tabelog.com/saitama/A1104/A110402/11029601/": {
      "Category": [
        "和菓子"
      ], 
      "Homepage": "none", 
      "Lat": "36.0682386384419", 
      "Lon": "139.677522788356", 
      "Region": [
        "埼玉県", 
        "久喜市久喜中央1-15-23", 
        ""
      ], 
      "Reserve": "none", 
      "RestName": "愛宕茶屋", 
      "Tell": "0480-22-4876", 
      "locality": "久喜市久喜中央1-15-23", 
      "region": "埼玉県", 
      "street-address": "", 
      "tellMain": "none", 
      "tellSub": "none"
    }, 
    "http://tabelog.com/saitama/A1104/A110402/11030300/": {
      "Category": [
        "寿司"
      ], 
      "Homepage": "none", 
      "Lat": "36.0642058384446", 
      "Lon": "139.677956288315", 
      "Region": [
        "埼玉県", 
        "久喜市久喜東1-5-1", 
        ""
      ], 
      "Reserve": "none", 
      "RestName": "藤寿司", 
      "Tell": "0480-21-3467", 
      "locality": "久喜市久喜東1-5-1", 
      "region": "埼玉県", 
      "street-address": "", 
      "tellMain": "none", 
      "tellSub": "none"
    }, 
    "http://tabelog.com/saitama/A1104/A110402/11030683/": {
      "Category": [
        "イタリアン"
      ], 
      "Homepage": "none", 
      "Lat": "36.0659791180908", 
      "Lon": "139.674632826548", 
      "Region": [
        "埼玉県", 
        "久喜市久喜中央3-1-7", 
        ""
      ], 
      "Reserve": "none", 
      "RestName": "オステリアケン（Osteria Ken）", 
      "Tell": "0480-31-8095", 
      "locality": "久喜市久喜中央3-1-7", 
      "region": "埼玉県", 
      "street-address": "", 
      "tellMain": "none", 
      "tellSub": "none"
    }, 
    "http://tabelog.com/saitama/A1104/A110402/11030816/": {
      "Category": [
        "居酒屋"
      ], 
      "Homepage": "none", 
      "Lat": "36.0665604879459", 
      "Lon": "139.677103150177", 
      "Region": [
        "埼玉県", 
        "久喜市久喜中央1-1-20", 
        "クッキープラザ B1F"
      ], 
      "Reserve": "none", 
      "RestName": "こだわりやま 久喜クッキープラザ店", 
      "Tell": "0480-26-7621", 
      "locality": "久喜市久喜中央1-1-20", 
      "region": "埼玉県", 
      "street-address": "クッキープラザ B1F", 
      "tellMain": "none", 
      "tellSub": "none"
    }, 
    "http://tabelog.com/saitama/A1104/A110402/11030871/": {
      "Category": [
        "寿司"
      ], 
      "Homepage": "none", 
      "Lat": "36.0642391384447", 
      "Lon": "139.678361788315", 
      "Region": [
        "埼玉県", 
        "久喜市久喜東1-5-7", 
        "久喜増田ビル 1F"
      ], 
      "Reserve": "none", 
      "RestName": "つきじ海賓 久喜店", 
      "Tell": "0480-26-9665", 
      "locality": "久喜市久喜東1-5-7", 
      "region": "埼玉県", 
      "street-address": "久喜増田ビル 1F", 
      "tellMain": "none", 
      "tellSub": "none"
    }, 
    "http://tabelog.com/saitama/A1104/A110402/11031135/": {
      "Category": [
        "中華料理"
      ], 
      "Homepage": "none", 
      "Lat": "36.0664610384424", 
      "Lon": "139.675578588339", 
      "Region": [
        "埼玉県", 
        "久喜市久喜中央1-2-11", 
        ""
      ], 
      "Reserve": "予約可", 
      "RestName": "てらこや（Terakoya）", 
      "Tell": "0480-21-0575", 
      "locality": "久喜市久喜中央1-2-11", 
      "region": "埼玉県", 
      "street-address": "", 
      "tellMain": "none", 
      "tellSub": "none"
    }, 
    "http://tabelog.com/saitama/A1104/A110402/11031446/": {
      "Category": [
        "居酒屋"
      ], 
      "Homepage": "none", 
      "Lat": "36.0653330768868", 
      "Lon": "139.676397976655", 
      "Region": [
        "埼玉県", 
        "久喜市久喜中央2-2-3", 
        ""
      ], 
      "Reserve": "none", 
      "RestName": "焼とり かごや 久喜西口駅前店", 
      "Tell": "050-5799-2171", 
      "locality": "久喜市久喜中央2-2-3", 
      "region": "埼玉県", 
      "street-address": "", 
      "tellMain": "none", 
      "tellSub": "none"
    }, 
    "http://tabelog.com/saitama/A1104/A110402/11031595/": {
      "Category": [
        "和菓子"
      ], 
      "Homepage": "none", 
      "Lat": "36.0667832384419", 
      "Lon": "139.674520388343", 
      "Region": [
        "埼玉県", 
        "久喜市久喜中央1-6-1", 
        ""
      ], 
      "Reserve": "none", 
      "RestName": "山喜家菓子店", 
      "Tell": "0480-21-0227", 
      "locality": "久喜市久喜中央1-6-1", 
      "region": "埼玉県", 
      "street-address": "", 
      "tellMain": "none", 
      "tellSub": "none"
    }, 
    "http://tabelog.com/saitama/A1104/A110402/11032030/": {
      "Category": [
        "カフェ", 
        "パン・サンドイッチ（その他）", 
        "ケーキ"
      ], 
      "Homepage": "none", 
      "Lat": "36.0656909821512", 
      "Lon": "139.677386172205", 
      "Region": [
        "埼玉県", 
        "久喜市久喜中央2-1-1", 
        "JR久喜駅"
      ], 
      "Reserve": "none", 
      "RestName": "ベックスコーヒーショップ 久喜店（BECKS COFFEE SHOP）", 
      "Tell": "0480-23-0026", 
      "locality": "久喜市久喜中央2-1-1", 
      "region": "埼玉県", 
      "street-address": "JR久喜駅", 
      "tellMain": "none", 
      "tellSub": "none"
    }, 
    "http://tabelog.com/saitama/A1104/A110402/11033851/": {
      "Category": [
        "焼鳥", 
        "居酒屋", 
        "串焼き"
      ], 
      "Homepage": "http://www.localplace.jp/t100048027/", 
      "Lat": "36.0681775384426", 
      "Lon": "139.679550388354", 
      "Region": [
        "埼玉県", 
        "久喜市久喜東2-2-13", 
        "シティホテル 1F"
      ], 
      "Reserve": "予約可", 
      "RestName": "とりふじ", 
      "Tell": "050-5570-1933", 
      "locality": "久喜市久喜東2-2-13", 
      "region": "埼玉県", 
      "street-address": "シティホテル 1F", 
      "tellMain": "050-5570-1933（予約専用番号）", 
      "tellSub": "0480-48-5650（お問い合わせ専用番号）"
    }, 
    "http://tabelog.com/saitama/A1104/A110402/11034983/": {
      "Category": [
        "ダイニングバー"
      ], 
      "Homepage": "none", 
      "Lat": "36.0673859384418", 
      "Lon": "139.675409188349", 
      "Region": [
        "埼玉県", 
        "久喜市中央1-4-7", 
        ""
      ], 
      "Reserve": "none", 
      "RestName": "えんの蔵", 
      "Tell": "0480-23-9777", 
      "locality": "久喜市中央1-4-7", 
      "region": "埼玉県", 
      "street-address": "", 
      "tellMain": "none", 
      "tellSub": "none"
    }, 
    "http://tabelog.com/saitama/A1104/A110402/11035742/": {
      "Category": [
        "ラーメン"
      ], 
      "Homepage": "none", 
      "Lat": "36.0673848146194", 
      "Lon": "139.675408530738", 
      "Region": [
        "埼玉県", 
        "久喜市久喜中央1-4-7", 
        ""
      ], 
      "Reserve": "none", 
      "RestName": "吉祥", 
      "Tell": "0480-53-7633", 
      "locality": "久喜市久喜中央1-4-7", 
      "region": "埼玉県", 
      "street-address": "", 
      "tellMain": "none", 
      "tellSub": "none"
    }, 
    "http://tabelog.com/saitama/A1104/A110402/11035860/": {
      "Category": [
        "ケーキ", 
        "スイーツ（その他）"
      ], 
      "Homepage": "none", 
      "Lat": "36.0648042063928", 
      "Lon": "139.68044925489", 
      "Region": [
        "埼玉県", 
        "久喜市久喜東3-1-7", 
        "関口第1ビル 1F"
      ], 
      "Reserve": "予約可", 
      "RestName": "アソルティ（ASSORTI）", 
      "Tell": "0480-53-7346", 
      "locality": "久喜市久喜東3-1-7", 
      "region": "埼玉県", 
      "street-address": "関口第1ビル 1F", 
      "tellMain": "none", 
      "tellSub": "none"
    }, 
    "http://tabelog.com/saitama/A1104/A110402/11036534/": {
      "Category": [
        "居酒屋"
      ], 
      "Homepage": "none", 
      "Lat": "36.064083538445", 
      "Lon": "139.678772888313", 
      "Region": [
        "埼玉県", 
        "久喜市久喜東1-228", 
        ""
      ], 
      "Reserve": "none", 
      "RestName": "駅前喜楽（エキマエキラク）", 
      "Tell": "0480-21-4276", 
      "locality": "久喜市久喜東1-228", 
      "region": "埼玉県", 
      "street-address": "", 
      "tellMain": "none", 
      "tellSub": "none"
    }
  }, 
  "埼玉_久喜_南栗橋": {
    "http://tabelog.com/saitama/A1104/A110402/11004171/": {
      "Category": [
        "カフェ", 
        "東南アジア料理（その他）", 
        "ダイニングバー"
      ], 
      "Homepage": "http://www.chita2.com", 
      "Lat": "36.1150088148829", 
      "Lon": "139.718965498419", 
      "Region": [
        "埼玉県", 
        "久喜市小右衛門801-7", 
        ""
      ], 
      "Reserve": "予約可", 
      "RestName": "CHITA CHITA（チタ チタ）", 
      "Tell": "0480-53-0899", 
      "locality": "久喜市小右衛門801-7", 
      "region": "埼玉県", 
      "street-address": "", 
      "tellMain": "none", 
      "tellSub": "none"
    }, 
    "http://tabelog.com/saitama/A1104/A110402/11010046/": {
      "Category": [
        "そば", 
        "うどん"
      ], 
      "Homepage": "none", 
      "Lat": "36.1125159448587", 
      "Lon": "139.714322109939", 
      "Region": [
        "埼玉県", 
        "久喜市南栗橋1丁目7-11", 
        ""
      ], 
      "Reserve": "none", 
      "RestName": "手打そばつかさ", 
      "Tell": "0480-52-7409", 
      "locality": "久喜市南栗橋1丁目7-11", 
      "region": "埼玉県", 
      "street-address": "", 
      "tellMain": "none", 
      "tellSub": "none"
    }, 
    "http://tabelog.com/saitama/A1104/A110402/11011198/": {
      "Category": [
        "寿司", 
        "割烹・小料理"
      ], 
      "Homepage": "none", 
      "Lat": "36.1131186465268", 
      "Lon": "139.713655470888", 
      "Region": [
        "埼玉県", 
        "久喜市南栗橋1丁目1-5", 
        ""
      ], 
      "Reserve": "none", 
      "RestName": "はつ花", 
      "Tell": "0480-52-7878", 
      "locality": "久喜市南栗橋1丁目1-5", 
      "region": "埼玉県", 
      "street-address": "", 
      "tellMain": "none", 
      "tellSub": "none"
    }, 
    "http://tabelog.com/saitama/A1104/A110402/11014387/": {
      "Category": [
        "レストラン（その他）"
      ], 
      "Homepage": "none", 
      "Lat": "36.1132769340236", 
      "Lon": "139.712127834914", 
      "Region": [
        "埼玉県", 
        "久喜市南栗橋4丁目1-9", 
        ""
      ], 
      "Reserve": "none", 
      "RestName": "もつ焼けんぱち", 
      "Tell": "0480-52-4328", 
      "locality": "久喜市南栗橋4丁目1-9", 
      "region": "埼玉県", 
      "street-address": "", 
      "tellMain": "none", 
      "tellSub": "none"
    }, 
    "http://tabelog.com/saitama/A1104/A110402/11015148/": {
      "Category": [
        "レストラン（その他）"
      ], 
      "Homepage": "none", 
      "Lat": "36.116856976561", 
      "Lon": "139.70442550976", 
      "Region": [
        "埼玉県", 
        "久喜市北広島572", 
        ""
      ], 
      "Reserve": "none", 
      "RestName": "おおたけ", 
      "Tell": "0480-52-2697", 
      "locality": "久喜市北広島572", 
      "region": "埼玉県", 
      "street-address": "", 
      "tellMain": "none", 
      "tellSub": "none"
    }, 
    "http://tabelog.com/saitama/A1104/A110402/11017870/": {
      "Category": [
        "居酒屋"
      ], 
      "Homepage": "none", 
      "Lat": "36.1127214776883", 
      "Lon": "139.71408879763", 
      "Region": [
        "埼玉県", 
        "久喜市南栗橋1-6-4", 
        ""
      ], 
      "Reserve": "none", 
      "RestName": "壱番館１０１ 南栗橋店", 
      "Tell": "0480-52-7777", 
      "locality": "久喜市南栗橋1-6-4", 
      "region": "埼玉県", 
      "street-address": "", 
      "tellMain": "none", 
      "tellSub": "none"
    }, 
    "http://tabelog.com/saitama/A1104/A110402/11025402/": {
      "Category": [
        "パン", 
        "スイーツ（その他）", 
        "サンドイッチ"
      ], 
      "Homepage": "none", 
      "Lat": "36.1140885634922", 
      "Lon": "139.712955616967", 
      "Region": [
        "埼玉県", 
        "久喜市南栗橋1-13-6", 
        ""
      ], 
      "Reserve": "予約可", 
      "RestName": "がお", 
      "Tell": "0480-53-4880", 
      "locality": "久喜市南栗橋1-13-6", 
      "region": "埼玉県", 
      "street-address": "", 
      "tellMain": "none", 
      "tellSub": "none"
    }, 
    "http://tabelog.com/saitama/A1104/A110402/11028404/": {
      "Category": [
        "レストラン（その他）", 
        "カフェ", 
        "ピザ"
      ], 
      "Homepage": "none", 
      "Lat": "36.1069184107807", 
      "Lon": "139.709900234896", 
      "Region": [
        "埼玉県", 
        "久喜市南栗橋7-8-12", 
        ""
      ], 
      "Reserve": "予約可", 
      "RestName": "キッチン青山", 
      "Tell": "050-5872-4471", 
      "locality": "久喜市南栗橋7-8-12", 
      "region": "埼玉県", 
      "street-address": "", 
      "tellMain": "050-5872-4471（予約専用番号）", 
      "tellSub": "0480-52-9487（お問い合わせ専用番号）"
    }, 
    "http://tabelog.com/saitama/A1104/A110402/11033832/": {
      "Category": [
        "パン", 
        "サンドイッチ", 
        "ケーキ"
      ], 
      "Homepage": "none", 
      "Lat": "36.1153698384237", 
      "Lon": "139.714334688806", 
      "Region": [
        "埼玉県", 
        "久喜市南栗橋1-11-4", 
        ""
      ], 
      "Reserve": "none", 
      "RestName": "ブーランジェリー 南栗橋店（BOULANGERIE）", 
      "Tell": "0480-52-4442", 
      "locality": "久喜市南栗橋1-11-4", 
      "region": "埼玉県", 
      "street-address": "", 
      "tellMain": "none", 
      "tellSub": "none"
    }
  }, 
  "埼玉_久喜_東鷲宮": {
    "http://tabelog.com/saitama/A1104/A110402/11000163/": {
      "Category": [
        "つけ麺", 
        "ラーメン"
      ], 
      "Homepage": "none", 
      "Lat": "36.0880087572185", 
      "Lon": "139.677551847617", 
      "Region": [
        "埼玉県", 
        "久喜市西大輪3-20-10", 
        ""
      ], 
      "Reserve": "予約不可", 
      "RestName": "煮干そば とみ田（【旧店名】支那そば 天風）", 
      "Tell": "0480-59-6777", 
      "locality": "久喜市西大輪3-20-10", 
      "region": "埼玉県", 
      "street-address": "", 
      "tellMain": "none", 
      "tellSub": "none"
    }, 
    "http://tabelog.com/saitama/A1104/A110402/11000345/": {
      "Category": [
        "焼肉"
      ], 
      "Homepage": "http://senara.jp/", 
      "Lat": "36.0915105913144", 
      "Lon": "139.676775084229", 
      "Region": [
        "埼玉県", 
        "久喜市西大輪868", 
        ""
      ], 
      "Reserve": "予約可", 
      "RestName": "焼肉 セナラ 鷲宮店", 
      "Tell": "0480-58-9581", 
      "locality": "久喜市西大輪868", 
      "region": "埼玉県", 
      "street-address": "", 
      "tellMain": "none", 
      "tellSub": "none"
    }, 
    "http://tabelog.com/saitama/A1104/A110402/11001980/": {
      "Category": [
        "居酒屋"
      ], 
      "Homepage": "none", 
      "Lat": "36.0887984696777", 
      "Lon": "139.681828678289", 
      "Region": [
        "埼玉県", 
        "久喜市桜田3丁目1-12-2", 
        ""
      ], 
      "Reserve": "none", 
      "RestName": "居楽屋小兵衛 おくの細道（イラクヤコヘイオクノホソミチ）", 
      "Tell": "0480-59-4415", 
      "locality": "久喜市桜田3丁目1-12-2", 
      "region": "埼玉県", 
      "street-address": "", 
      "tellMain": "none", 
      "tellSub": "none"
    }, 
    "http://tabelog.com/saitama/A1104/A110402/11012102/": {
      "Category": [
        "居酒屋", 
        "魚介料理・海鮮料理", 
        "創作和食"
      ], 
      "Homepage": "http://www.monteroza.co.jp/index.html", 
      "Lat": "36.0887295851776", 
      "Lon": "139.681658140068", 
      "Region": [
        "埼玉県", 
        "久喜市桜田3丁目1-3", 
        "東鷲宮駅前ビル　３Ｆ"
      ], 
      "Reserve": "予約可", 
      "RestName": "魚民 東鷲宮東口駅前店", 
      "Tell": "0480-58-5888", 
      "locality": "久喜市桜田3丁目1-3", 
      "region": "埼玉県", 
      "street-address": "東鷲宮駅前ビル　３Ｆ", 
      "tellMain": "none", 
      "tellSub": "none"
    }, 
    "http://tabelog.com/saitama/A1104/A110402/11012206/": {
      "Category": [
        "居酒屋", 
        "寿司", 
        "魚介料理・海鮮料理"
      ], 
      "Homepage": "http://www.daisyo.co.jp/brand/nihonkai_syoya/index.html", 
      "Lat": "36.0900483016925", 
      "Lon": "139.679864894947", 
      "Region": [
        "埼玉県", 
        "久喜市桜田1丁目3-3", 
        ""
      ], 
      "Reserve": "予約可", 
      "RestName": "日本海庄や 東鷲宮店（にほんかいしょうや）", 
      "Tell": "050-5872-7203", 
      "locality": "久喜市桜田1丁目3-3", 
      "region": "埼玉県", 
      "street-address": "", 
      "tellMain": "050-5872-7203（予約専用番号）", 
      "tellSub": "0480-57-0769（お問い合わせ専用番号）"
    }, 
    "http://tabelog.com/saitama/A1104/A110402/11012735/": {
      "Category": [
        "そば", 
        "うどん"
      ], 
      "Homepage": "none", 
      "Lat": "36.0889783472869", 
      "Lon": "139.675923327113", 
      "Region": [
        "埼玉県", 
        "久喜市西大輪1781-2", 
        ""
      ], 
      "Reserve": "none", 
      "RestName": "すぎのや 鷲宮店", 
      "Tell": "0480-57-0788", 
      "locality": "久喜市西大輪1781-2", 
      "region": "埼玉県", 
      "street-address": "", 
      "tellMain": "none", 
      "tellSub": "none"
    }, 
    "http://tabelog.com/saitama/A1104/A110402/11017596/": {
      "Category": [
        "居酒屋"
      ], 
      "Homepage": "none", 
      "Lat": "36.0902177130774", 
      "Lon": "139.679073241783", 
      "Region": [
        "埼玉県", 
        "久喜市西大輪723-2", 
        ""
      ], 
      "Reserve": "none", 
      "RestName": "ひさご", 
      "Tell": "0480-59-1625", 
      "locality": "久喜市西大輪723-2", 
      "region": "埼玉県", 
      "street-address": "", 
      "tellMain": "none", 
      "tellSub": "none"
    }, 
    "http://tabelog.com/saitama/A1104/A110402/11017852/": {
      "Category": [
        "居酒屋"
      ], 
      "Homepage": "none", 
      "Lat": "36.0887318071823", 
      "Lon": "139.681659295425", 
      "Region": [
        "埼玉県", 
        "久喜市桜田3-1-4", 
        ""
      ], 
      "Reserve": "none", 
      "RestName": "かごや 東鷲宮店", 
      "Tell": "0480-59-0586", 
      "locality": "久喜市桜田3-1-4", 
      "region": "埼玉県", 
      "street-address": "", 
      "tellMain": "none", 
      "tellSub": "none"
    }, 
    "http://tabelog.com/saitama/A1104/A110402/11022701/": {
      "Category": [
        "居酒屋"
      ], 
      "Homepage": "none", 
      "Lat": "36.0887318071823", 
      "Lon": "139.681659295425", 
      "Region": [
        "埼玉県", 
        "久喜市桜田3-1-4-11", 
        ""
      ], 
      "Reserve": "none", 
      "RestName": "せきぜん", 
      "Tell": "0480-59-4031", 
      "locality": "久喜市桜田3-1-4-11", 
      "region": "埼玉県", 
      "street-address": "", 
      "tellMain": "none", 
      "tellSub": "none"
    }, 
    "http://tabelog.com/saitama/A1104/A110402/11025070/": {
      "Category": [
        "ラーメン"
      ], 
      "Homepage": "none", 
      "Lat": "36.0923874281245", 
      "Lon": "139.675982331918", 
      "Region": [
        "埼玉県", 
        "久喜市西大輪2-11-1", 
        ""
      ], 
      "Reserve": "none", 
      "RestName": "幸楽苑 鷲宮店", 
      "Tell": "0480-59-5753", 
      "locality": "久喜市西大輪2-11-1", 
      "region": "埼玉県", 
      "street-address": "", 
      "tellMain": "none", 
      "tellSub": "none"
    }, 
    "http://tabelog.com/saitama/A1104/A110402/11025986/": {
      "Category": [
        "カフェ・喫茶（その他）"
      ], 
      "Homepage": "none", 
      "Lat": "36.0915622344091", 
      "Lon": "139.67574183433", 
      "Region": [
        "埼玉県", 
        "久喜市西大輪900", 
        ""
      ], 
      "Reserve": "none", 
      "RestName": "ｃａｆｅ　茶ぽっと（ちゃぽっと）", 
      "Tell": "0480-58-8401", 
      "locality": "久喜市西大輪900", 
      "region": "埼玉県", 
      "street-address": "", 
      "tellMain": "none", 
      "tellSub": "none"
    }, 
    "http://tabelog.com/saitama/A1104/A110402/11026093/": {
      "Category": [
        "もつ焼き", 
        "焼鳥", 
        "焼きとん"
      ], 
      "Homepage": "none", 
      "Lat": "36.0902154917632", 
      "Lon": "139.679048010648", 
      "Region": [
        "埼玉県", 
        "久喜市西大輪723", 
        ""
      ], 
      "Reserve": "予約可", 
      "RestName": "テラス（【旧店名】大衆酒場）", 
      "Tell": "090-3542-0686", 
      "locality": "久喜市西大輪723", 
      "region": "埼玉県", 
      "street-address": "", 
      "tellMain": "none", 
      "tellSub": "none"
    }, 
    "http://tabelog.com/saitama/A1104/A110402/11028559/": {
      "Category": [
        "弁当"
      ], 
      "Homepage": "none", 
      "Lat": "36.0886138384303", 
      "Lon": "139.681679988558", 
      "Region": [
        "埼玉県", 
        "久喜市桜田3-1-4", 
        ""
      ], 
      "Reserve": "none", 
      "RestName": "ほか弁　日本亭 鷲宮店", 
      "Tell": "0480-58-7644", 
      "locality": "久喜市桜田3-1-4", 
      "region": "埼玉県", 
      "street-address": "", 
      "tellMain": "none", 
      "tellSub": "none"
    }, 
    "http://tabelog.com/saitama/A1104/A110402/11028797/": {
      "Category": [
        "レストラン（その他）"
      ], 
      "Homepage": "none", 
      "Lat": "36.0873812802286", 
      "Lon": "139.676120169769", 
      "Region": [
        "埼玉県", 
        "久喜市西大輪1588", 
        ""
      ], 
      "Reserve": "none", 
      "RestName": "ガスト 鷲宮店", 
      "Tell": "0480-57-1750", 
      "locality": "久喜市西大輪1588", 
      "region": "埼玉県", 
      "street-address": "", 
      "tellMain": "none", 
      "tellSub": "none"
    }, 
    "http://tabelog.com/saitama/A1104/A110402/11029448/": {
      "Category": [
        "イタリアン"
      ], 
      "Homepage": "http://chiruri.net/", 
      "Lat": "36.0934324384245", 
      "Lon": "139.673363788614", 
      "Region": [
        "埼玉県", 
        "久喜市西大輪2051-1", 
        ""
      ], 
      "Reserve": "予約可", 
      "RestName": "ちるりきっちん", 
      "Tell": "050-3633-9766", 
      "locality": "久喜市西大輪2051-1", 
      "region": "埼玉県", 
      "street-address": "", 
      "tellMain": "none", 
      "tellSub": "none"
    }, 
    "http://tabelog.com/saitama/A1104/A110402/11034260/": {
      "Category": [
        "そば"
      ], 
      "Homepage": "none", 
      "Lat": "36.0867441386824", 
      "Lon": "139.675744000428", 
      "Region": [
        "埼玉県", 
        "久喜市西大輪4-10-1", 
        ""
      ], 
      "Reserve": "予約不可", 
      "RestName": "蕎麦 大欅（【旧店名】蕎麦ニュー大欅）", 
      "Tell": "0480-59-5858", 
      "locality": "久喜市西大輪4-10-1", 
      "region": "埼玉県", 
      "street-address": "", 
      "tellMain": "none", 
      "tellSub": "none"
    }, 
    "http://tabelog.com/saitama/A1104/A110402/11034677/": {
      "Category": [
        "居酒屋", 
        "ラーメン"
      ], 
      "Homepage": "http://www.daishucho.com", 
      "Lat": "36.090004072775", 
      "Lon": "139.676030215453", 
      "Region": [
        "埼玉県", 
        "久喜市西大輪1864-1", 
        ""
      ], 
      "Reserve": "予約可", 
      "RestName": "大酋長（ダイシュウチョウ）", 
      "Tell": "0480-59-0203", 
      "locality": "久喜市西大輪1864-1", 
      "region": "埼玉県", 
      "street-address": "", 
      "tellMain": "none", 
      "tellSub": "none"
    }, 
    "http://tabelog.com/saitama/A1104/A110402/11035306/": {
      "Category": [
        "和菓子"
      ], 
      "Homepage": "none", 
      "Lat": "36.091496738427", 
      "Lon": "139.676957988591", 
      "Region": [
        "埼玉県", 
        "久喜市西大輪2-19-1", 
        "百観音温泉 観音堂横"
      ], 
      "Reserve": "予約不可", 
      "RestName": "百観音だんご", 
      "Tell": "0480-59-4126", 
      "locality": "久喜市西大輪2-19-1", 
      "region": "埼玉県", 
      "street-address": "百観音温泉 観音堂横", 
      "tellMain": "none", 
      "tellSub": "none"
    }, 
    "http://tabelog.com/saitama/A1104/A110402/11035978/": {
      "Category": [
        "定食・食堂", 
        "カフェ", 
        "居酒屋"
      ], 
      "Homepage": "none", 
      "Lat": "36.0895803384296", 
      "Lon": "139.681410588569", 
      "Region": [
        "埼玉県", 
        "久喜市桜田3-2-1", 
        "ダイエー東鷲宮店 1F"
      ], 
      "Reserve": "予約可", 
      "RestName": "マルシェ食堂 東鷲宮店", 
      "Tell": "050-5890-6137", 
      "locality": "久喜市桜田3-2-1", 
      "region": "埼玉県", 
      "street-address": "ダイエー東鷲宮店 1F", 
      "tellMain": "050-5890-6137（予約専用番号）", 
      "tellSub": "0480-59-5522（お問い合わせ専用番号）"
    }, 
    "http://tabelog.com/saitama/A1104/A110402/11036401/": {
      "Category": [
        "お好み焼き", 
        "たこ焼き"
      ], 
      "Homepage": "none", 
      "Lat": "36.0895803384296", 
      "Lon": "139.681410588569", 
      "Region": [
        "埼玉県", 
        "久喜市桜田3-2-1", 
        "ダイエー内 1F"
      ], 
      "Reserve": "none", 
      "RestName": "一銭屋本家  東鷲宮店（イッセンヤホンケ）", 
      "Tell": "非公開", 
      "locality": "久喜市桜田3-2-1", 
      "region": "埼玉県", 
      "street-address": "ダイエー内 1F", 
      "tellMain": "none", 
      "tellSub": "none"
    }
  }, 
  "埼玉_久喜_栗橋": {
    "http://tabelog.com/saitama/A1104/A110402/11002014/": {
      "Category": [
        "割烹・小料理", 
        "天ぷら", 
        "魚介料理・海鮮料理"
      ], 
      "Homepage": "http://r.gnavi.co.jp/b212100/", 
      "Lat": "36.1375623742238", 
      "Lon": "139.695080610316", 
      "Region": [
        "埼玉県", 
        "久喜市栗橋中央1-2-10-6", 
        ""
      ], 
      "Reserve": "予約可", 
      "RestName": "御料理 嬉乃（おりょうり・うれしの）", 
      "Tell": "0480-55-3277", 
      "locality": "久喜市栗橋中央1-2-10-6", 
      "region": "埼玉県", 
      "street-address": "", 
      "tellMain": "none", 
      "tellSub": "none"
    }, 
    "http://tabelog.com/saitama/A1104/A110402/11007640/": {
      "Category": [
        "中華料理"
      ], 
      "Homepage": "none", 
      "Lat": "36.1419485213963", 
      "Lon": "139.692325359415", 
      "Region": [
        "埼玉県", 
        "加須市旗井254-2", 
        ""
      ], 
      "Reserve": "none", 
      "RestName": "たけ美食堂", 
      "Tell": "0480-72-2275", 
      "locality": "加須市旗井254-2", 
      "region": "埼玉県", 
      "street-address": "", 
      "tellMain": "none", 
      "tellSub": "none"
    }, 
    "http://tabelog.com/saitama/A1104/A110402/11007646/": {
      "Category": [
        "中華料理"
      ], 
      "Homepage": "none", 
      "Lat": "36.1316996154019", 
      "Lon": "139.692198041867", 
      "Region": [
        "埼玉県", 
        "久喜市伊坂1457", 
        ""
      ], 
      "Reserve": "none", 
      "RestName": "来々軒", 
      "Tell": "0480-52-3527", 
      "locality": "久喜市伊坂1457", 
      "region": "埼玉県", 
      "street-address": "", 
      "tellMain": "none", 
      "tellSub": "none"
    }, 
    "http://tabelog.com/saitama/A1104/A110402/11007647/": {
      "Category": [
        "中華料理", 
        "ラーメン"
      ], 
      "Homepage": "none", 
      "Lat": "36.1353093894529", 
      "Lon": "139.701239646984", 
      "Region": [
        "埼玉県", 
        "久喜市栗橋東4丁目4-3", 
        ""
      ], 
      "Reserve": "none", 
      "RestName": "福楽", 
      "Tell": "0480-52-8168", 
      "locality": "久喜市栗橋東4丁目4-3", 
      "region": "埼玉県", 
      "street-address": "", 
      "tellMain": "none", 
      "tellSub": "none"
    }, 
    "http://tabelog.com/saitama/A1104/A110402/11007648/": {
      "Category": [
        "焼きそば", 
        "天丼・天重", 
        "ラーメン"
      ], 
      "Homepage": "none", 
      "Lat": "36.1398072184684", 
      "Lon": "139.699655449242", 
      "Region": [
        "埼玉県", 
        "久喜市栗橋北1丁目6-7", 
        ""
      ], 
      "Reserve": "none", 
      "RestName": "末広食堂", 
      "Tell": "0480-52-0527", 
      "locality": "久喜市栗橋北1丁目6-7", 
      "region": "埼玉県", 
      "street-address": "", 
      "tellMain": "none", 
      "tellSub": "none"
    }, 
    "http://tabelog.com/saitama/A1104/A110402/11010829/": {
      "Category": [
        "懐石・会席料理", 
        "割烹・小料理"
      ], 
      "Homepage": "none", 
      "Lat": "36.1396461652587", 
      "Lon": "139.702238531021", 
      "Region": [
        "埼玉県", 
        "久喜市栗橋東2丁目8-5", 
        ""
      ], 
      "Reserve": "none", 
      "RestName": "魚勝", 
      "Tell": "0480-52-1672", 
      "locality": "久喜市栗橋東2丁目8-5", 
      "region": "埼玉県", 
      "street-address": "", 
      "tellMain": "none", 
      "tellSub": "none"
    }, 
    "http://tabelog.com/saitama/A1104/A110402/11010978/": {
      "Category": [
        "懐石・会席料理", 
        "割烹・小料理"
      ], 
      "Homepage": "none", 
      "Lat": "36.137451913548", 
      "Lon": "139.699836053796", 
      "Region": [
        "埼玉県", 
        "久喜市栗橋中央2丁目19-25", 
        ""
      ], 
      "Reserve": "none", 
      "RestName": "南禅", 
      "Tell": "0480-52-4605", 
      "locality": "久喜市栗橋中央2丁目19-25", 
      "region": "埼玉県", 
      "street-address": "", 
      "tellMain": "none", 
      "tellSub": "none"
    }, 
    "http://tabelog.com/saitama/A1104/A110402/11011947/": {
      "Category": [
        "寿司"
      ], 
      "Homepage": "none", 
      "Lat": "36.1395931716238", 
      "Lon": "139.68955625339", 
      "Region": [
        "埼玉県", 
        "加須市旗井1800-2", 
        ""
      ], 
      "Reserve": "none", 
      "RestName": "緑寿司", 
      "Tell": "0480-72-2813", 
      "locality": "加須市旗井1800-2", 
      "region": "埼玉県", 
      "street-address": "", 
      "tellMain": "none", 
      "tellSub": "none"
    }, 
    "http://tabelog.com/saitama/A1104/A110402/11012199/": {
      "Category": [
        "居酒屋", 
        "寿司", 
        "魚介料理・海鮮料理"
      ], 
      "Homepage": "http://www.daisyo.co.jp/brand/nihonkai_syoya/index.html", 
      "Lat": "36.1363880440879", 
      "Lon": "139.694433773659", 
      "Region": [
        "埼玉県", 
        "久喜市栗橋中央1丁目14-1", 
        ""
      ], 
      "Reserve": "予約可", 
      "RestName": "日本海庄や 栗橋店（にほんかいしょうや）", 
      "Tell": "050-5872-7197", 
      "locality": "久喜市栗橋中央1丁目14-1", 
      "region": "埼玉県", 
      "street-address": "", 
      "tellMain": "050-5872-7197（予約専用番号）", 
      "tellSub": "0480-55-0969（お問い合わせ専用番号）"
    }, 
    "http://tabelog.com/saitama/A1104/A110402/11015088/": {
      "Category": [
        "レストラン（その他）"
      ], 
      "Homepage": "none", 
      "Lat": "36.1375934776323", 
      "Lon": "139.69463926776", 
      "Region": [
        "埼玉県", 
        "久喜市栗橋北1丁目1-12", 
        ""
      ], 
      "Reserve": "none", 
      "RestName": "イタニティー", 
      "Tell": "0480-53-0450", 
      "locality": "久喜市栗橋北1丁目1-12", 
      "region": "埼玉県", 
      "street-address": "", 
      "tellMain": "none", 
      "tellSub": "none"
    }, 
    "http://tabelog.com/saitama/A1104/A110402/11017585/": {
      "Category": [
        "居酒屋"
      ], 
      "Homepage": "none", 
      "Lat": "36.1399792120812", 
      "Lon": "139.687748030233", 
      "Region": [
        "埼玉県", 
        "加須市旗井294-1", 
        ""
      ], 
      "Reserve": "none", 
      "RestName": "居酒屋志めの", 
      "Tell": "0480-72-7120", 
      "locality": "加須市旗井294-1", 
      "region": "埼玉県", 
      "street-address": "", 
      "tellMain": "none", 
      "tellSub": "none"
    }, 
    "http://tabelog.com/saitama/A1104/A110402/11017592/": {
      "Category": [
        "居酒屋"
      ], 
      "Homepage": "none", 
      "Lat": "36.1375573792081", 
      "Lon": "139.695080932741", 
      "Region": [
        "埼玉県", 
        "久喜市栗橋中央1-2-10-5", 
        ""
      ], 
      "Reserve": "none", 
      "RestName": "居酒屋元", 
      "Tell": "0480-53-0817", 
      "locality": "久喜市栗橋中央1-2-10-5", 
      "region": "埼玉県", 
      "street-address": "", 
      "tellMain": "none", 
      "tellSub": "none"
    }, 
    "http://tabelog.com/saitama/A1104/A110402/11017593/": {
      "Category": [
        "居酒屋"
      ], 
      "Homepage": "none", 
      "Lat": "36.1399294601783", 
      "Lon": "139.701646878225", 
      "Region": [
        "埼玉県", 
        "久喜市栗橋東2-7-53", 
        ""
      ], 
      "Reserve": "none", 
      "RestName": "居酒屋あき", 
      "Tell": "0480-53-0715", 
      "locality": "久喜市栗橋東2-7-53", 
      "region": "埼玉県", 
      "street-address": "", 
      "tellMain": "none", 
      "tellSub": "none"
    }, 
    "http://tabelog.com/saitama/A1104/A110402/11019026/": {
      "Category": [
        "レストラン（その他）"
      ], 
      "Homepage": "none", 
      "Lat": "36.1405753187675", 
      "Lon": "139.691272176774", 
      "Region": [
        "埼玉県", 
        "加須市旗井1947-3", 
        ""
      ], 
      "Reserve": "none", 
      "RestName": "秋庭", 
      "Tell": "0480-72-4285", 
      "locality": "加須市旗井1947-3", 
      "region": "埼玉県", 
      "street-address": "", 
      "tellMain": "none", 
      "tellSub": "none"
    }, 
    "http://tabelog.com/saitama/A1104/A110402/11021929/": {
      "Category": [
        "居酒屋", 
        "魚介料理・海鮮料理", 
        "創作和食"
      ], 
      "Homepage": "http://www.monteroza.co.jp/index.html", 
      "Lat": "36.1369027194444", 
      "Lon": "139.694902322161", 
      "Region": [
        "埼玉県", 
        "久喜市栗橋中央1-13-1", 
        "１Ｆ"
      ], 
      "Reserve": "予約可", 
      "RestName": "千年の宴 栗橋東口駅前店", 
      "Tell": "0480-53-1488", 
      "locality": "久喜市栗橋中央1-13-1", 
      "region": "埼玉県", 
      "street-address": "１Ｆ", 
      "tellMain": "none", 
      "tellSub": "none"
    }, 
    "http://tabelog.com/saitama/A1104/A110402/11025667/": {
      "Category": [
        "割烹・小料理", 
        "天ぷら・揚げ物（その他）", 
        "うなぎ"
      ], 
      "Homepage": "none", 
      "Lat": "36.1379846976063", 
      "Lon": "139.687555382507", 
      "Region": [
        "埼玉県", 
        "久喜市伊坂394-6", 
        ""
      ], 
      "Reserve": "none", 
      "RestName": "酒田", 
      "Tell": "0480-52-6988", 
      "locality": "久喜市伊坂394-6", 
      "region": "埼玉県", 
      "street-address": "", 
      "tellMain": "none", 
      "tellSub": "none"
    }, 
    "http://tabelog.com/saitama/A1104/A110402/11027593/": {
      "Category": [
        "その他", 
        "スイーツ（その他）"
      ], 
      "Homepage": "none", 
      "Lat": "36.1349887492995", 
      "Lon": "139.694433004816", 
      "Region": [
        "埼玉県", 
        "久喜市栗橋中央1-17-1", 
        ""
      ], 
      "Reserve": "none", 
      "RestName": "つむぎや", 
      "Tell": "0480-52-5001", 
      "locality": "久喜市栗橋中央1-17-1", 
      "region": "埼玉県", 
      "street-address": "", 
      "tellMain": "none", 
      "tellSub": "none"
    }, 
    "http://tabelog.com/saitama/A1104/A110402/11029725/": {
      "Category": [
        "和菓子"
      ], 
      "Homepage": "none", 
      "Lat": "36.1383776384031", 
      "Lon": "139.695619089051", 
      "Region": [
        "埼玉県", 
        "久喜市栗橋北1-3 - 7", 
        ""
      ], 
      "Reserve": "none", 
      "RestName": "和がし　小野", 
      "Tell": "0480-52-6050", 
      "locality": "久喜市栗橋北1-3 - 7", 
      "region": "埼玉県", 
      "street-address": "", 
      "tellMain": "none", 
      "tellSub": "none"
    }, 
    "http://tabelog.com/saitama/A1104/A110402/11031594/": {
      "Category": [
        "和菓子"
      ], 
      "Homepage": "none", 
      "Lat": "36.1374221384035", 
      "Lon": "139.694871889042", 
      "Region": [
        "埼玉県", 
        "久喜市栗橋中央1-2-7-2", 
        ""
      ], 
      "Reserve": "none", 
      "RestName": "三笠屋 静御前店", 
      "Tell": "0480-53-1147", 
      "locality": "久喜市栗橋中央1-2-7-2", 
      "region": "埼玉県", 
      "street-address": "", 
      "tellMain": "none", 
      "tellSub": "none"
    }, 
    "http://tabelog.com/saitama/A1104/A110402/11033782/": {
      "Category": [
        "ケーキ", 
        "洋菓子（その他）"
      ], 
      "Homepage": "none", 
      "Lat": "36.1364835384054", 
      "Lon": "139.69895768903", 
      "Region": [
        "埼玉県", 
        "久喜市栗橋中央1-8-37", 
        ""
      ], 
      "Reserve": "予約可", 
      "RestName": "パリジェンヌ洋菓子店（Parisienne）", 
      "Tell": "0480-52-3383", 
      "locality": "久喜市栗橋中央1-8-37", 
      "region": "埼玉県", 
      "street-address": "", 
      "tellMain": "none", 
      "tellSub": "none"
    }
  }, 
  "埼玉_久喜_鷲宮": {
    "http://tabelog.com/saitama/A1104/A110401/11003358/": {
      "Category": [
        "喫茶店", 
        "そば", 
        "甘味処"
      ], 
      "Homepage": "none", 
      "Lat": "36.1004172587902", 
      "Lon": "139.656647623293", 
      "Region": [
        "埼玉県", 
        "久喜市鷲宮1丁目8-6", 
        ""
      ], 
      "Reserve": "予約可", 
      "RestName": "大酉茶屋", 
      "Tell": "0480-58-1577", 
      "locality": "久喜市鷲宮1丁目8-6", 
      "region": "埼玉県", 
      "street-address": "", 
      "tellMain": "none", 
      "tellSub": "none"
    }, 
    "http://tabelog.com/saitama/A1104/A110401/11004857/": {
      "Category": [
        "弁当"
      ], 
      "Homepage": "none", 
      "Lat": "36.1001196384161", 
      "Lon": "139.65993888869", 
      "Region": [
        "埼玉県", 
        "久喜市鷲宮2丁目11-13", 
        ""
      ], 
      "Reserve": "none", 
      "RestName": "魚光", 
      "Tell": "0480-58-0154", 
      "locality": "久喜市鷲宮2丁目11-13", 
      "region": "埼玉県", 
      "street-address": "", 
      "tellMain": "none", 
      "tellSub": "none"
    }, 
    "http://tabelog.com/saitama/A1104/A110401/11004886/": {
      "Category": [
        "そば", 
        "うどん"
      ], 
      "Homepage": "none", 
      "Lat": "36.1000286384169", 
      "Lon": "139.662283888687", 
      "Region": [
        "埼玉県", 
        "久喜市鷲宮2丁目8-13", 
        ""
      ], 
      "Reserve": "none", 
      "RestName": "ほんだや", 
      "Tell": "0480-58-6955", 
      "locality": "久喜市鷲宮2丁目8-13", 
      "region": "埼玉県", 
      "street-address": "", 
      "tellMain": "none", 
      "tellSub": "none"
    }, 
    "http://tabelog.com/saitama/A1104/A110401/11004889/": {
      "Category": [
        "魚介料理・海鮮料理", 
        "定食・食堂", 
        "居酒屋"
      ], 
      "Homepage": "none", 
      "Lat": "36.0998206384173", 
      "Lon": "139.663352888685", 
      "Region": [
        "埼玉県", 
        "久喜市鷲宮5丁目13-12", 
        ""
      ], 
      "Reserve": "none", 
      "RestName": "和食亭かどい", 
      "Tell": "0480-59-0111", 
      "locality": "久喜市鷲宮5丁目13-12", 
      "region": "埼玉県", 
      "street-address": "", 
      "tellMain": "none", 
      "tellSub": "none"
    }, 
    "http://tabelog.com/saitama/A1104/A110401/11031855/": {
      "Category": [
        "台湾料理"
      ], 
      "Homepage": "none", 
      "Lat": "36.1000169320174", 
      "Lon": "139.662493934186", 
      "Region": [
        "埼玉県", 
        "久喜市鷲宮5-11-10", 
        ""
      ], 
      "Reserve": "none", 
      "RestName": "聚福源（チョウフクゲン）", 
      "Tell": "048-059-0455", 
      "locality": "久喜市鷲宮5-11-10", 
      "region": "埼玉県", 
      "street-address": "", 
      "tellMain": "none", 
      "tellSub": "none"
    }, 
    "http://tabelog.com/saitama/A1104/A110401/11034455/": {
      "Category": [
        "コーヒー専門店", 
        "カフェ", 
        "パン"
      ], 
      "Homepage": "http://locoplace.jp/t000236866/", 
      "Lat": "36.098311547141", 
      "Lon": "139.661822401809", 
      "Region": [
        "埼玉県", 
        "久喜市鷲宮2-7-17", 
        ""
      ], 
      "Reserve": "予約可", 
      "RestName": "アルカディア（ARCADIA）", 
      "Tell": "0480-31-8652", 
      "locality": "久喜市鷲宮2-7-17", 
      "region": "埼玉県", 
      "street-address": "", 
      "tellMain": "none", 
      "tellSub": "none"
    }, 
    "http://tabelog.com/saitama/A1104/A110402/11009543/": {
      "Category": [
        "そば", 
        "うどん"
      ], 
      "Homepage": "none", 
      "Lat": "36.090847790302", 
      "Lon": "139.655483549673", 
      "Region": [
        "埼玉県", 
        "久喜市上内1815-4", 
        ""
      ], 
      "Reserve": "none", 
      "RestName": "かねしょう", 
      "Tell": "0480-58-1174", 
      "locality": "久喜市上内1815-4", 
      "region": "埼玉県", 
      "street-address": "", 
      "tellMain": "none", 
      "tellSub": "none"
    }, 
    "http://tabelog.com/saitama/A1104/A110402/11010743/": {
      "Category": [
        "懐石・会席料理", 
        "割烹・小料理"
      ], 
      "Homepage": "none", 
      "Lat": "36.095911098314", 
      "Lon": "139.653233503415", 
      "Region": [
        "埼玉県", 
        "久喜市中妻1599-11", 
        ""
      ], 
      "Reserve": "none", 
      "RestName": "ふるさと", 
      "Tell": "0480-58-5983", 
      "locality": "久喜市中妻1599-11", 
      "region": "埼玉県", 
      "street-address": "", 
      "tellMain": "none", 
      "tellSub": "none"
    }, 
    "http://tabelog.com/saitama/A1104/A110402/11011060/": {
      "Category": [
        "寿司"
      ], 
      "Homepage": "none", 
      "Lat": "36.0954083434067", 
      "Lon": "139.651464229056", 
      "Region": [
        "埼玉県", 
        "久喜市中妻1617-3", 
        ""
      ], 
      "Reserve": "none", 
      "RestName": "いなほすし", 
      "Tell": "0480-58-2094", 
      "locality": "久喜市中妻1617-3", 
      "region": "埼玉県", 
      "street-address": "", 
      "tellMain": "none", 
      "tellSub": "none"
    }, 
    "http://tabelog.com/saitama/A1104/A110402/11011395/": {
      "Category": [
        "寿司"
      ], 
      "Homepage": "none", 
      "Lat": "36.0910672681318", 
      "Lon": "139.658738824772", 
      "Region": [
        "埼玉県", 
        "久喜市葛梅6丁目13", 
        ""
      ], 
      "Reserve": "none", 
      "RestName": "魚がし", 
      "Tell": "0480-58-6446", 
      "locality": "久喜市葛梅6丁目13", 
      "region": "埼玉県", 
      "street-address": "", 
      "tellMain": "none", 
      "tellSub": "none"
    }, 
    "http://tabelog.com/saitama/A1104/A110402/11017597/": {
      "Category": [
        "居酒屋"
      ], 
      "Homepage": "none", 
      "Lat": "36.0978636314545", 
      "Lon": "139.651375190071", 
      "Region": [
        "埼玉県", 
        "久喜市中妻1588-21", 
        ""
      ], 
      "Reserve": "none", 
      "RestName": "紬", 
      "Tell": "0480-59-1215", 
      "locality": "久喜市中妻1588-21", 
      "region": "埼玉県", 
      "street-address": "", 
      "tellMain": "none", 
      "tellSub": "none"
    }, 
    "http://tabelog.com/saitama/A1104/A110402/11019775/": {
      "Category": [
        "定食・食堂"
      ], 
      "Homepage": "none", 
      "Lat": "36.1010440365587", 
      "Lon": "139.661982562699", 
      "Region": [
        "埼玉県", 
        "久喜市鷲宮3-1-13", 
        ""
      ], 
      "Reserve": "none", 
      "RestName": "上州", 
      "Tell": "0480-58-0244", 
      "locality": "久喜市鷲宮3-1-13", 
      "region": "埼玉県", 
      "street-address": "", 
      "tellMain": "none", 
      "tellSub": "none"
    }, 
    "http://tabelog.com/saitama/A1104/A110402/11021422/": {
      "Category": [
        "ケーキ", 
        "パン", 
        "喫茶店"
      ], 
      "Homepage": "none", 
      "Lat": "36.0910455518852", 
      "Lon": "139.655767405882", 
      "Region": [
        "埼玉県", 
        "久喜市葛梅3-1-25", 
        ""
      ], 
      "Reserve": "予約可", 
      "RestName": "洋菓子倶楽部エーデルワイス", 
      "Tell": "0480-59-6233", 
      "locality": "久喜市葛梅3-1-25", 
      "region": "埼玉県", 
      "street-address": "", 
      "tellMain": "none", 
      "tellSub": "none"
    }, 
    "http://tabelog.com/saitama/A1104/A110402/11022700/": {
      "Category": [
        "居酒屋"
      ], 
      "Homepage": "none", 
      "Lat": "36.0952417904764", 
      "Lon": "139.657019342039", 
      "Region": [
        "埼玉県", 
        "久喜市栄1-1-17", 
        ""
      ], 
      "Reserve": "none", 
      "RestName": "武鮮", 
      "Tell": "0480-58-4234", 
      "locality": "久喜市栄1-1-17", 
      "region": "埼玉県", 
      "street-address": "", 
      "tellMain": "none", 
      "tellSub": "none"
    }, 
    "http://tabelog.com/saitama/A1104/A110402/11022935/": {
      "Category": [
        "居酒屋"
      ], 
      "Homepage": "none", 
      "Lat": "36.0959778413965", 
      "Lon": "139.65814421473", 
      "Region": [
        "埼玉県", 
        "久喜市鷲宮中央1-11-19", 
        ""
      ], 
      "Reserve": "none", 
      "RestName": "さぼちゃん 鷲宮店", 
      "Tell": "0480-59-3039", 
      "locality": "久喜市鷲宮中央1-11-19", 
      "region": "埼玉県", 
      "street-address": "", 
      "tellMain": "none", 
      "tellSub": "none"
    }, 
    "http://tabelog.com/saitama/A1104/A110402/11025743/": {
      "Category": [
        "和菓子"
      ], 
      "Homepage": "none", 
      "Lat": "36.100019776833", 
      "Lon": "139.661016877376", 
      "Region": [
        "埼玉県", 
        "久喜市鷲宮2-10-15", 
        ""
      ], 
      "Reserve": "none", 
      "RestName": "島田菓子舗", 
      "Tell": "0480-58-0067", 
      "locality": "久喜市鷲宮2-10-15", 
      "region": "埼玉県", 
      "street-address": "", 
      "tellMain": "none", 
      "tellSub": "none"
    }, 
    "http://tabelog.com/saitama/A1104/A110402/11027971/": {
      "Category": [
        "居酒屋", 
        "定食・食堂", 
        "創作料理"
      ], 
      "Homepage": "http://www.wasimiya.org/kinenbi/", 
      "Lat": "36.0974637615943", 
      "Lon": "139.656186242258", 
      "Region": [
        "埼玉県", 
        "久喜市鷲宮中央2-4-6", 
        ""
      ], 
      "Reserve": "予約可", 
      "RestName": "記念日", 
      "Tell": "0480-58-4787", 
      "locality": "久喜市鷲宮中央2-4-6", 
      "region": "埼玉県", 
      "street-address": "", 
      "tellMain": "none", 
      "tellSub": "none"
    }, 
    "http://tabelog.com/saitama/A1104/A110402/11030833/": {
      "Category": [
        "パン", 
        "サンドイッチ"
      ], 
      "Homepage": "none", 
      "Lat": "36.0946069384179", 
      "Lon": "139.654776088638", 
      "Region": [
        "埼玉県", 
        "久喜市葛梅1-4-4", 
        ""
      ], 
      "Reserve": "none", 
      "RestName": "サンライズ", 
      "Tell": "0480-59-3128", 
      "locality": "久喜市葛梅1-4-4", 
      "region": "埼玉県", 
      "street-address": "", 
      "tellMain": "none", 
      "tellSub": "none"
    }, 
    "http://tabelog.com/saitama/A1104/A110402/11031599/": {
      "Category": [
        "和菓子"
      ], 
      "Homepage": "none", 
      "Lat": "36.0905909384222", 
      "Lon": "139.660128688594", 
      "Region": [
        "埼玉県", 
        "久喜市上内1443-3", 
        ""
      ], 
      "Reserve": "none", 
      "RestName": "蛸屋菓子店 鷲宮店", 
      "Tell": "0480-58-2715", 
      "locality": "久喜市上内1443-3", 
      "region": "埼玉県", 
      "street-address": "", 
      "tellMain": "none", 
      "tellSub": "none"
    }, 
    "http://tabelog.com/saitama/A1104/A110402/11035571/": {
      "Category": [
        "ステーキ", 
        "ハンバーグ", 
        "ケーキ"
      ], 
      "Homepage": "none", 
      "Lat": "36.0964227134935", 
      "Lon": "139.653418742253", 
      "Region": [
        "埼玉県", 
        "久喜市葛梅606-24", 
        ""
      ], 
      "Reserve": "none", 
      "RestName": "くるみ亭", 
      "Tell": "0480-53-7400", 
      "locality": "久喜市葛梅606-24", 
      "region": "埼玉県", 
      "street-address": "", 
      "tellMain": "none", 
      "tellSub": "none"
    }
  }
}