{
  "埼玉_飯能_吾野": {
    "http://tabelog.com/gunma/A1001/A100102/10001541/": {
      "Category": [
        "旅館・オーベルジュ（その他）"
      ], 
      "Homepage": "none", 
      "Lat": "35.8979488877732", 
      "Lon": "139.205016508997", 
      "Region": [
        "群馬県", 
        "利根郡みなかみ町湯原740", 
        ""
      ], 
      "Reserve": "none", 
      "RestName": "松泉閣", 
      "Tell": "0278-72-3288", 
      "locality": "利根郡みなかみ町湯原740", 
      "region": "群馬県", 
      "street-address": "", 
      "tellMain": "none", 
      "tellSub": "none"
    }, 
    "http://tabelog.com/saitama/A1106/A110603/11003280/": {
      "Category": [
        "そば", 
        "郷土料理（その他）"
      ], 
      "Homepage": "none", 
      "Lat": "35.9264651574254", 
      "Lon": "139.245587104448", 
      "Region": [
        "埼玉県", 
        "飯能市長沢1667-1", 
        ""
      ], 
      "Reserve": "none", 
      "RestName": "顔振茶屋（かおぶりちゃや）", 
      "Tell": "042-978-0056", 
      "locality": "飯能市長沢1667-1", 
      "region": "埼玉県", 
      "street-address": "", 
      "tellMain": "none", 
      "tellSub": "none"
    }, 
    "http://tabelog.com/saitama/A1106/A110603/11003386/": {
      "Category": [
        "そば", 
        "うどん", 
        "天ぷら"
      ], 
      "Homepage": "none", 
      "Lat": "35.9263546083629", 
      "Lon": "139.245281857109", 
      "Region": [
        "埼玉県", 
        "飯能市長沢1562", 
        ""
      ], 
      "Reserve": "none", 
      "RestName": "平九郎茶屋（へいくろうちゃや）", 
      "Tell": "042-978-1525", 
      "locality": "飯能市長沢1562", 
      "region": "埼玉県", 
      "street-address": "", 
      "tellMain": "none", 
      "tellSub": "none"
    }, 
    "http://tabelog.com/saitama/A1106/A110603/11004154/": {
      "Category": [
        "うどん", 
        "アイスクリーム"
      ], 
      "Homepage": "http://asamichaya.jp/", 
      "Lat": "35.9090569151715", 
      "Lon": "139.198819661252", 
      "Region": [
        "埼玉県", 
        "飯能市坂石1050", 
        ""
      ], 
      "Reserve": "予約可", 
      "RestName": "浅見茶屋", 
      "Tell": "042-978-0789", 
      "locality": "飯能市坂石1050", 
      "region": "埼玉県", 
      "street-address": "", 
      "tellMain": "none", 
      "tellSub": "none"
    }, 
    "http://tabelog.com/saitama/A1106/A110603/11004589/": {
      "Category": [
        "カフェ"
      ], 
      "Homepage": "none", 
      "Lat": "35.924132638396", 
      "Lon": "139.246140887203", 
      "Region": [
        "埼玉県", 
        "飯能市長沢1661-2", 
        ""
      ], 
      "Reserve": "予約可", 
      "RestName": "忘路庵カフェ（BOHROAN CAFE）", 
      "Tell": "0429-78-2339", 
      "locality": "飯能市長沢1661-2", 
      "region": "埼玉県", 
      "street-address": "", 
      "tellMain": "none", 
      "tellSub": "none"
    }, 
    "http://tabelog.com/saitama/A1106/A110603/11009931/": {
      "Category": [
        "そば", 
        "うどん"
      ], 
      "Homepage": "none", 
      "Lat": "35.9130230461837", 
      "Lon": "139.217336458452", 
      "Region": [
        "埼玉県", 
        "飯能市坂石635", 
        ""
      ], 
      "Reserve": "none", 
      "RestName": "幸食堂", 
      "Tell": "042-978-0031", 
      "locality": "飯能市坂石635", 
      "region": "埼玉県", 
      "street-address": "", 
      "tellMain": "none", 
      "tellSub": "none"
    }, 
    "http://tabelog.com/saitama/A1106/A110603/11013545/": {
      "Category": [
        "喫茶店", 
        "パスタ"
      ], 
      "Homepage": "none", 
      "Lat": "35.9280801956835", 
      "Lon": "139.24176429202", 
      "Region": [
        "埼玉県", 
        "飯能市長沢1508", 
        ""
      ], 
      "Reserve": "none", 
      "RestName": "ベラヴィスタ", 
      "Tell": "042-978-1120", 
      "locality": "飯能市長沢1508", 
      "region": "埼玉県", 
      "street-address": "", 
      "tellMain": "none", 
      "tellSub": "none"
    }, 
    "http://tabelog.com/saitama/A1106/A110603/11015759/": {
      "Category": [
        "レストラン（その他）"
      ], 
      "Homepage": "none", 
      "Lat": "35.9045033893757", 
      "Lon": "139.248425102137", 
      "Region": [
        "埼玉県", 
        "飯能市井上428-1", 
        ""
      ], 
      "Reserve": "none", 
      "RestName": "やまき", 
      "Tell": "042-978-2747", 
      "locality": "飯能市井上428-1", 
      "region": "埼玉県", 
      "street-address": "", 
      "tellMain": "none", 
      "tellSub": "none"
    }, 
    "http://tabelog.com/saitama/A1106/A110603/11022102/": {
      "Category": [
        "そば"
      ], 
      "Homepage": "none", 
      "Lat": "35.9267336296018", 
      "Lon": "139.244053847076", 
      "Region": [
        "埼玉県", 
        "飯能市大字長沢1552", 
        ""
      ], 
      "Reserve": "none", 
      "RestName": "富士見茶屋", 
      "Tell": "0429-78-0898", 
      "locality": "飯能市大字長沢1552", 
      "region": "埼玉県", 
      "street-address": "", 
      "tellMain": "none", 
      "tellSub": "none"
    }, 
    "http://tabelog.com/saitama/A1106/A110603/11023567/": {
      "Category": [
        "カフェ"
      ], 
      "Homepage": "none", 
      "Lat": "35.9224961951084", 
      "Lon": "139.201176808793", 
      "Region": [
        "埼玉県", 
        "飯能市吾野493-1", 
        ""
      ], 
      "Reserve": "none", 
      "RestName": "ロックガーデンカフェ（Rock Garden Cafe）", 
      "Tell": "042-978-1243", 
      "locality": "飯能市吾野493-1", 
      "region": "埼玉県", 
      "street-address": "", 
      "tellMain": "none", 
      "tellSub": "none"
    }, 
    "http://tabelog.com/saitama/A1106/A110603/11026150/": {
      "Category": [
        "そば", 
        "うどん"
      ], 
      "Homepage": "none", 
      "Lat": "35.8980019475576", 
      "Lon": "139.253291663974", 
      "Region": [
        "埼玉県", 
        "飯能市井上54-2", 
        ""
      ], 
      "Reserve": "none", 
      "RestName": "かたくりの郷", 
      "Tell": "042-978-0327", 
      "locality": "飯能市井上54-2", 
      "region": "埼玉県", 
      "street-address": "", 
      "tellMain": "none", 
      "tellSub": "none"
    }
  }, 
  "埼玉_飯能_東吾野": {
    "http://tabelog.com/saitama/A1106/A110603/11007109/": {
      "Category": [
        "中華料理", 
        "定食・食堂"
      ], 
      "Homepage": "none", 
      "Lat": "35.869228490841", 
      "Lon": "139.260612669637", 
      "Region": [
        "埼玉県", 
        "飯能市原市場45-1", 
        ""
      ], 
      "Reserve": "none", 
      "RestName": "むさしの", 
      "Tell": "042-977-1656", 
      "locality": "飯能市原市場45-1", 
      "region": "埼玉県", 
      "street-address": "", 
      "tellMain": "none", 
      "tellSub": "none"
    }, 
    "http://tabelog.com/saitama/A1106/A110603/11008937/": {
      "Category": [
        "ラーメン"
      ], 
      "Homepage": "none", 
      "Lat": "35.8870462094909", 
      "Lon": "139.27117207232", 
      "Region": [
        "埼玉県", 
        "飯能市白子305", 
        ""
      ], 
      "Reserve": "none", 
      "RestName": "ラーメン屋大門", 
      "Tell": "042-978-0831", 
      "locality": "飯能市白子305", 
      "region": "埼玉県", 
      "street-address": "", 
      "tellMain": "none", 
      "tellSub": "none"
    }, 
    "http://tabelog.com/saitama/A1106/A110603/11013406/": {
      "Category": [
        "居酒屋"
      ], 
      "Homepage": "none", 
      "Lat": "35.8730776827956", 
      "Lon": "139.237922676815", 
      "Region": [
        "埼玉県", 
        "飯能市原市場467-1", 
        ""
      ], 
      "Reserve": "none", 
      "RestName": "居酒屋 たぬき 原市場店（いざかやたぬき）", 
      "Tell": "042-977-2177", 
      "locality": "飯能市原市場467-1", 
      "region": "埼玉県", 
      "street-address": "", 
      "tellMain": "none", 
      "tellSub": "none"
    }, 
    "http://tabelog.com/saitama/A1106/A110603/11015759/": {
      "Category": [
        "レストラン（その他）"
      ], 
      "Homepage": "none", 
      "Lat": "35.9045033893757", 
      "Lon": "139.248425102137", 
      "Region": [
        "埼玉県", 
        "飯能市井上428-1", 
        ""
      ], 
      "Reserve": "none", 
      "RestName": "やまき", 
      "Tell": "042-978-2747", 
      "locality": "飯能市井上428-1", 
      "region": "埼玉県", 
      "street-address": "", 
      "tellMain": "none", 
      "tellSub": "none"
    }, 
    "http://tabelog.com/saitama/A1106/A110603/11018584/": {
      "Category": [
        "レストラン（その他）"
      ], 
      "Homepage": "none", 
      "Lat": "35.8700118231229", 
      "Lon": "139.265540024355", 
      "Region": [
        "埼玉県", 
        "飯能市小瀬戸174", 
        ""
      ], 
      "Reserve": "none", 
      "RestName": "コーヒーフレンド", 
      "Tell": "042-971-4014", 
      "locality": "飯能市小瀬戸174", 
      "region": "埼玉県", 
      "street-address": "", 
      "tellMain": "none", 
      "tellSub": "none"
    }, 
    "http://tabelog.com/saitama/A1106/A110603/11018977/": {
      "Category": [
        "レストラン（その他）", 
        "そば", 
        "うどん"
      ], 
      "Homepage": "none", 
      "Lat": "35.8815998525621", 
      "Lon": "139.287232089297", 
      "Region": [
        "埼玉県", 
        "日高市横手430-1", 
        ""
      ], 
      "Reserve": "none", 
      "RestName": "関口屋", 
      "Tell": "042-982-3322", 
      "locality": "日高市横手430-1", 
      "region": "埼玉県", 
      "street-address": "", 
      "tellMain": "none", 
      "tellSub": "none"
    }, 
    "http://tabelog.com/saitama/A1106/A110603/11019330/": {
      "Category": [
        "うどん"
      ], 
      "Homepage": "none", 
      "Lat": "35.8875656382272", 
      "Lon": "139.273707937801", 
      "Region": [
        "埼玉県", 
        "飯能市白子220-1", 
        ""
      ], 
      "Reserve": "none", 
      "RestName": "舞扇", 
      "Tell": "042-978-0326", 
      "locality": "飯能市白子220-1", 
      "region": "埼玉県", 
      "street-address": "", 
      "tellMain": "none", 
      "tellSub": "none"
    }, 
    "http://tabelog.com/saitama/A1106/A110603/11026150/": {
      "Category": [
        "そば", 
        "うどん"
      ], 
      "Homepage": "none", 
      "Lat": "35.8980019475576", 
      "Lon": "139.253291663974", 
      "Region": [
        "埼玉県", 
        "飯能市井上54-2", 
        ""
      ], 
      "Reserve": "none", 
      "RestName": "かたくりの郷", 
      "Tell": "042-978-0327", 
      "locality": "飯能市井上54-2", 
      "region": "埼玉県", 
      "street-address": "", 
      "tellMain": "none", 
      "tellSub": "none"
    }, 
    "http://tabelog.com/saitama/A1106/A110603/11028815/": {
      "Category": [
        "和食（その他）", 
        "西洋各国料理（その他）", 
        "中華料理"
      ], 
      "Homepage": "none", 
      "Lat": "35.8721028384371", 
      "Lon": "139.27122338666", 
      "Region": [
        "埼玉県", 
        "飯能市久須美292", 
        ""
      ], 
      "Reserve": "none", 
      "RestName": "飯能グリーンカントリークラブ", 
      "Tell": "042-973-0005", 
      "locality": "飯能市久須美292", 
      "region": "埼玉県", 
      "street-address": "", 
      "tellMain": "none", 
      "tellSub": "none"
    }, 
    "http://tabelog.com/saitama/A1106/A110603/11032118/": {
      "Category": [
        "カフェ", 
        "パン"
      ], 
      "Homepage": "none", 
      "Lat": "35.8913304499245", 
      "Lon": "139.269824209227", 
      "Region": [
        "埼玉県", 
        "飯能市白子390-7", 
        ""
      ], 
      "Reserve": "none", 
      "RestName": "カフェ＆ベーカリー あがのん", 
      "Tell": "042-978-8088", 
      "locality": "飯能市白子390-7", 
      "region": "埼玉県", 
      "street-address": "", 
      "tellMain": "none", 
      "tellSub": "none"
    }, 
    "http://tabelog.com/saitama/A1106/A110603/11033887/": {
      "Category": [
        "パン"
      ], 
      "Homepage": "none", 
      "Lat": "35.8694618384357", 
      "Lon": "139.26141898664", 
      "Region": [
        "埼玉県", 
        "飯能市小瀬戸343-6", 
        ""
      ], 
      "Reserve": "none", 
      "RestName": "パルファン", 
      "Tell": "0429-78-8896", 
      "locality": "飯能市小瀬戸343-6", 
      "region": "埼玉県", 
      "street-address": "", 
      "tellMain": "none", 
      "tellSub": "none"
    }, 
    "http://tabelog.com/saitama/A1106/A110603/11037233/": {
      "Category": [
        "カフェ"
      ], 
      "Homepage": "none", 
      "Lat": "35.8703391449424", 
      "Lon": "139.241504472101", 
      "Region": [
        "埼玉県", 
        "飯能市上赤工15-5", 
        ""
      ], 
      "Reserve": "none", 
      "RestName": "CAFE KIKI（カフェ キキ）", 
      "Tell": "042-977-2020", 
      "locality": "飯能市上赤工15-5", 
      "region": "埼玉県", 
      "street-address": "", 
      "tellMain": "none", 
      "tellSub": "none"
    }
  }, 
  "埼玉_飯能_東飯能": {
    "http://tabelog.com/saitama/A1106/A110603/11001155/": {
      "Category": [
        "寿司", 
        "懐石・会席料理", 
        "創作料理"
      ], 
      "Homepage": "http://r.gnavi.co.jp/a620700/", 
      "Lat": "35.8529857118162", 
      "Lon": "139.32036066653", 
      "Region": [
        "埼玉県", 
        "飯能市仲町2-10", 
        ""
      ], 
      "Reserve": "予約可", 
      "RestName": "やなぎ", 
      "Tell": "0066-9712-939115", 
      "locality": "飯能市仲町2-10", 
      "region": "埼玉県", 
      "street-address": "", 
      "tellMain": "0066-9712-939115（予約専用番号、通話料無料）", 
      "tellSub": "042-973-6587（お問い合わせ専用番号）"
    }, 
    "http://tabelog.com/saitama/A1106/A110603/11001211/": {
      "Category": [
        "焼肉", 
        "ホルモン", 
        "韓国料理"
      ], 
      "Homepage": "http://r.gnavi.co.jp/ga1b340/", 
      "Lat": "35.8565892481695", 
      "Lon": "139.322244233076", 
      "Region": [
        "埼玉県", 
        "飯能市東町33-5", 
        ""
      ], 
      "Reserve": "予約可", 
      "RestName": "牛角 飯能店（ギュウカク）", 
      "Tell": "0429-71-9229", 
      "locality": "飯能市東町33-5", 
      "region": "埼玉県", 
      "street-address": "", 
      "tellMain": "none", 
      "tellSub": "none"
    }, 
    "http://tabelog.com/saitama/A1106/A110603/11001568/": {
      "Category": [
        "しゃぶしゃぶ", 
        "ステーキ"
      ], 
      "Homepage": "none", 
      "Lat": "35.8552838941914", 
      "Lon": "139.32579122082", 
      "Region": [
        "埼玉県", 
        "飯能市新町2-12", 
        ""
      ], 
      "Reserve": "none", 
      "RestName": "六甲（ロッコウ）", 
      "Tell": "0429-72-2300", 
      "locality": "飯能市新町2-12", 
      "region": "埼玉県", 
      "street-address": "", 
      "tellMain": "none", 
      "tellSub": "none"
    }, 
    "http://tabelog.com/saitama/A1106/A110603/11005002/": {
      "Category": [
        "お好み焼き", 
        "韓国料理"
      ], 
      "Homepage": "http://r.gnavi.co.jp/b875700/", 
      "Lat": "35.8513838845104", 
      "Lon": "139.320438622696", 
      "Region": [
        "埼玉県", 
        "飯能市柳町23-12", 
        "2F"
      ], 
      "Reserve": "none", 
      "RestName": "福蔵（フクゾウ）", 
      "Tell": "050-5869-0541", 
      "locality": "飯能市柳町23-12", 
      "region": "埼玉県", 
      "street-address": "2F", 
      "tellMain": "050-5869-0541（予約専用番号）", 
      "tellSub": "042-983-8338（お問い合わせ専用番号）"
    }, 
    "http://tabelog.com/saitama/A1106/A110603/11005069/": {
      "Category": [
        "居酒屋", 
        "魚介料理・海鮮料理", 
        "ダイニングバー"
      ], 
      "Homepage": "http://www.watamifoodservice.jp/watami/", 
      "Lat": "35.8517766721268", 
      "Lon": "139.320226566667", 
      "Region": [
        "埼玉県", 
        "飯能市仲町10-1", 
        "満月会館 2F"
      ], 
      "Reserve": "予約可", 
      "RestName": "和民 飯能北口駅前店（わたみ）", 
      "Tell": "050-5872-0224", 
      "locality": "飯能市仲町10-1", 
      "region": "埼玉県", 
      "street-address": "満月会館 2F", 
      "tellMain": "050-5872-0224（予約専用番号）", 
      "tellSub": "0429-83-9021（お問い合わせ専用番号）"
    }, 
    "http://tabelog.com/saitama/A1106/A110603/11005152/": {
      "Category": [
        "居酒屋", 
        "焼鳥", 
        "和食（その他）"
      ], 
      "Homepage": "http://www.doma-doma.com/", 
      "Lat": "35.8522087945826", 
      "Lon": "139.320341592774", 
      "Region": [
        "埼玉県", 
        "飯能市仲町9-3", 
        "間野ビル1F"
      ], 
      "Reserve": "予約可", 
      "RestName": "土間土間 飯能店（ドマドマハンノウテン）", 
      "Tell": "050-5890-2853", 
      "locality": "飯能市仲町9-3", 
      "region": "埼玉県", 
      "street-address": "間野ビル1F", 
      "tellMain": "050-5890-2853（予約専用番号）", 
      "tellSub": "04-2975-7007（お問い合わせ専用番号）"
    }, 
    "http://tabelog.com/saitama/A1106/A110603/11005914/": {
      "Category": [
        "ラーメン"
      ], 
      "Homepage": "none", 
      "Lat": "35.8494916384666", 
      "Lon": "139.318762886398", 
      "Region": [
        "埼玉県", 
        "飯能市南町5-9", 
        ""
      ], 
      "Reserve": "none", 
      "RestName": "くるまやラーメン 飯能南町店", 
      "Tell": "0429-72-3015", 
      "locality": "飯能市南町5-9", 
      "region": "埼玉県", 
      "street-address": "", 
      "tellMain": "none", 
      "tellSub": "none"
    }, 
    "http://tabelog.com/saitama/A1106/A110603/11007899/": {
      "Category": [
        "焼鳥"
      ], 
      "Homepage": "none", 
      "Lat": "35.8530174864389", 
      "Lon": "139.326735691178", 
      "Region": [
        "埼玉県", 
        "飯能市栄町22-3", 
        ""
      ], 
      "Reserve": "予約可", 
      "RestName": "まちこ", 
      "Tell": "042-973-7130", 
      "locality": "飯能市栄町22-3", 
      "region": "埼玉県", 
      "street-address": "", 
      "tellMain": "none", 
      "tellSub": "none"
    }, 
    "http://tabelog.com/saitama/A1106/A110603/11009566/": {
      "Category": [
        "うどん", 
        "そば"
      ], 
      "Homepage": "none", 
      "Lat": "35.8530064162467", 
      "Lon": "139.329010502765", 
      "Region": [
        "埼玉県", 
        "飯能市栄町17-10", 
        ""
      ], 
      "Reserve": "none", 
      "RestName": "さくへいうどん", 
      "Tell": "042-973-3375", 
      "locality": "飯能市栄町17-10", 
      "region": "埼玉県", 
      "street-address": "", 
      "tellMain": "none", 
      "tellSub": "none"
    }, 
    "http://tabelog.com/saitama/A1106/A110603/11010646/": {
      "Category": [
        "イタリアン"
      ], 
      "Homepage": "none", 
      "Lat": "35.8533452049052", 
      "Lon": "139.325346902539", 
      "Region": [
        "埼玉県", 
        "飯能市東町14-9", 
        ""
      ], 
      "Reserve": "none", 
      "RestName": "ナベ", 
      "Tell": "042-973-4276", 
      "locality": "飯能市東町14-9", 
      "region": "埼玉県", 
      "street-address": "", 
      "tellMain": "none", 
      "tellSub": "none"
    }, 
    "http://tabelog.com/saitama/A1106/A110603/11010677/": {
      "Category": [
        "懐石・会席料理", 
        "割烹・小料理"
      ], 
      "Homepage": "none", 
      "Lat": "35.8527286546911", 
      "Lon": "139.328238357457", 
      "Region": [
        "埼玉県", 
        "飯能市栄町21-15", 
        ""
      ], 
      "Reserve": "none", 
      "RestName": "いたずら", 
      "Tell": "042-974-4838", 
      "locality": "飯能市栄町21-15", 
      "region": "埼玉県", 
      "street-address": "", 
      "tellMain": "none", 
      "tellSub": "none"
    }, 
    "http://tabelog.com/saitama/A1106/A110603/11011009/": {
      "Category": [
        "懐石・会席料理", 
        "割烹・小料理"
      ], 
      "Homepage": "none", 
      "Lat": "35.8554644306309", 
      "Lon": "139.325802322699", 
      "Region": [
        "埼玉県", 
        "飯能市新町2-11", 
        ""
      ], 
      "Reserve": "none", 
      "RestName": "味興", 
      "Tell": "042-972-1738", 
      "locality": "飯能市新町2-11", 
      "region": "埼玉県", 
      "street-address": "", 
      "tellMain": "none", 
      "tellSub": "none"
    }, 
    "http://tabelog.com/saitama/A1106/A110603/11013168/": {
      "Category": [
        "居酒屋"
      ], 
      "Homepage": "none", 
      "Lat": "35.8532979736167", 
      "Lon": "139.324538638506", 
      "Region": [
        "埼玉県", 
        "飯能市東町11-12", 
        ""
      ], 
      "Reserve": "none", 
      "RestName": "居酒屋 もりちゃん", 
      "Tell": "042-971-5253", 
      "locality": "飯能市東町11-12", 
      "region": "埼玉県", 
      "street-address": "", 
      "tellMain": "none", 
      "tellSub": "none"
    }, 
    "http://tabelog.com/saitama/A1106/A110603/11013778/": {
      "Category": [
        "焼肉", 
        "ホルモン"
      ], 
      "Homepage": "http://www.localplace.jp/t100047886/", 
      "Lat": "35.8529618545069", 
      "Lon": "139.32208611322", 
      "Region": [
        "埼玉県", 
        "飯能市柳町6-13", 
        ""
      ], 
      "Reserve": "予約可", 
      "RestName": "焼肉千香", 
      "Tell": "042-972-6791", 
      "locality": "飯能市柳町6-13", 
      "region": "埼玉県", 
      "street-address": "", 
      "tellMain": "none", 
      "tellSub": "none"
    }, 
    "http://tabelog.com/saitama/A1106/A110603/11016016/": {
      "Category": [
        "レストラン（その他）"
      ], 
      "Homepage": "none", 
      "Lat": "35.8521314510126", 
      "Lon": "139.325388577184", 
      "Region": [
        "埼玉県", 
        "飯能市柳町1-12", 
        ""
      ], 
      "Reserve": "none", 
      "RestName": "居食処天", 
      "Tell": "042-974-3336", 
      "locality": "飯能市柳町1-12", 
      "region": "埼玉県", 
      "street-address": "", 
      "tellMain": "none", 
      "tellSub": "none"
    }, 
    "http://tabelog.com/saitama/A1106/A110603/11016713/": {
      "Category": [
        "懐石・会席料理", 
        "割烹・小料理", 
        "居酒屋"
      ], 
      "Homepage": "none", 
      "Lat": "35.852664107402", 
      "Lon": "139.321955271128", 
      "Region": [
        "埼玉県", 
        "飯能市柳町6-8", 
        ""
      ], 
      "Reserve": "予約可", 
      "RestName": "和ダイニング桜（和Dining桜）", 
      "Tell": "050-5868-1256", 
      "locality": "飯能市柳町6-8", 
      "region": "埼玉県", 
      "street-address": "", 
      "tellMain": "050-5868-1256（予約専用番号）", 
      "tellSub": "042-980-6116（お問い合わせ専用番号）"
    }, 
    "http://tabelog.com/saitama/A1106/A110603/11017052/": {
      "Category": [
        "居酒屋"
      ], 
      "Homepage": "none", 
      "Lat": "35.8539313012894", 
      "Lon": "139.327838290867", 
      "Region": [
        "埼玉県", 
        "飯能市双柳87-17", 
        ""
      ], 
      "Reserve": "none", 
      "RestName": "さかもり", 
      "Tell": "042-971-3803", 
      "locality": "飯能市双柳87-17", 
      "region": "埼玉県", 
      "street-address": "", 
      "tellMain": "none", 
      "tellSub": "none"
    }, 
    "http://tabelog.com/saitama/A1106/A110603/11018189/": {
      "Category": [
        "レストラン（その他）"
      ], 
      "Homepage": "none", 
      "Lat": "35.8506954719442", 
      "Lon": "139.324663703499", 
      "Region": [
        "埼玉県", 
        "飯能市柳町15-1", 
        ""
      ], 
      "Reserve": "予約可", 
      "RestName": "徳樹庵 飯能店", 
      "Tell": "042-983-0171", 
      "locality": "飯能市柳町15-1", 
      "region": "埼玉県", 
      "street-address": "", 
      "tellMain": "none", 
      "tellSub": "none"
    }, 
    "http://tabelog.com/saitama/A1106/A110603/11018438/": {
      "Category": [
        "その他"
      ], 
      "Homepage": "none", 
      "Lat": "35.8543224083278", 
      "Lon": "139.330254505526", 
      "Region": [
        "埼玉県", 
        "飯能市双柳353-55", 
        ""
      ], 
      "Reserve": "予約可", 
      "RestName": "カフェ アリス（caffe ALICE）", 
      "Tell": "042-972-6930", 
      "locality": "飯能市双柳353-55", 
      "region": "埼玉県", 
      "street-address": "", 
      "tellMain": "none", 
      "tellSub": "none"
    }, 
    "http://tabelog.com/saitama/A1106/A110603/11019137/": {
      "Category": [
        "レストラン（その他）"
      ], 
      "Homepage": "none", 
      "Lat": "35.8552783401421", 
      "Lon": "139.325716205086", 
      "Region": [
        "埼玉県", 
        "飯能市新町2-12", 
        ""
      ], 
      "Reserve": "none", 
      "RestName": "六甲", 
      "Tell": "042-974-1165", 
      "locality": "飯能市新町2-12", 
      "region": "埼玉県", 
      "street-address": "", 
      "tellMain": "none", 
      "tellSub": "none"
    }, 
    "http://tabelog.com/saitama/A1106/A110603/11021926/": {
      "Category": [
        "居酒屋", 
        "魚介料理・海鮮料理", 
        "創作和食"
      ], 
      "Homepage": "http://www.monteroza.co.jp/index.html", 
      "Lat": "35.8522316256136", 
      "Lon": "139.320349591059", 
      "Region": [
        "埼玉県", 
        "飯能市仲町9-3", 
        "間野ビル ３Ｆ"
      ], 
      "Reserve": "予約可", 
      "RestName": "魚民 飯能北口駅前店", 
      "Tell": "042-972-1688", 
      "locality": "飯能市仲町9-3", 
      "region": "埼玉県", 
      "street-address": "間野ビル ３Ｆ", 
      "tellMain": "none", 
      "tellSub": "none"
    }, 
    "http://tabelog.com/saitama/A1106/A110603/11022523/": {
      "Category": [
        "居酒屋"
      ], 
      "Homepage": "none", 
      "Lat": "35.8535584987784", 
      "Lon": "139.324393916308", 
      "Region": [
        "埼玉県", 
        "飯能市東町15-5", 
        ""
      ], 
      "Reserve": "none", 
      "RestName": "居酒屋じゃうじゃう", 
      "Tell": "042-974-1139", 
      "locality": "飯能市東町15-5", 
      "region": "埼玉県", 
      "street-address": "", 
      "tellMain": "none", 
      "tellSub": "none"
    }, 
    "http://tabelog.com/saitama/A1106/A110603/11022524/": {
      "Category": [
        "居酒屋"
      ], 
      "Homepage": "none", 
      "Lat": "35.8511859227604", 
      "Lon": "139.321416217288", 
      "Region": [
        "埼玉県", 
        "飯能市柳町23-2", 
        ""
      ], 
      "Reserve": "予約可", 
      "RestName": "なかよし", 
      "Tell": "042-973-0114", 
      "locality": "飯能市柳町23-2", 
      "region": "埼玉県", 
      "street-address": "", 
      "tellMain": "none", 
      "tellSub": "none"
    }, 
    "http://tabelog.com/saitama/A1106/A110603/11025033/": {
      "Category": [
        "パスタ"
      ], 
      "Homepage": "none", 
      "Lat": "35.8516823025579", 
      "Lon": "139.330494623697", 
      "Region": [
        "埼玉県", 
        "飯能市緑町16-5", 
        ""
      ], 
      "Reserve": "予約可", 
      "RestName": "モダンパスタ 飯能店", 
      "Tell": "042-975-3050", 
      "locality": "飯能市緑町16-5", 
      "region": "埼玉県", 
      "street-address": "", 
      "tellMain": "none", 
      "tellSub": "none"
    }, 
    "http://tabelog.com/saitama/A1106/A110603/11027658/": {
      "Category": [
        "居酒屋"
      ], 
      "Homepage": "none", 
      "Lat": "35.8541844921212", 
      "Lon": "139.321484962409", 
      "Region": [
        "埼玉県", 
        "飯能市東町18-6", 
        ""
      ], 
      "Reserve": "none", 
      "RestName": "壱善", 
      "Tell": "042-972-7933", 
      "locality": "飯能市東町18-6", 
      "region": "埼玉県", 
      "street-address": "", 
      "tellMain": "none", 
      "tellSub": "none"
    }, 
    "http://tabelog.com/saitama/A1106/A110603/11028323/": {
      "Category": [
        "イタリアン"
      ], 
      "Homepage": "none", 
      "Lat": "35.8505327812775", 
      "Lon": "139.328400111793", 
      "Region": [
        "埼玉県", 
        "飯能市栄町11‐1", 
        ""
      ], 
      "Reserve": "予約可", 
      "RestName": "トラットリア　カミカミヤ（Trattoria　kamikami-ya）", 
      "Tell": "090-5551-4572", 
      "locality": "飯能市栄町11‐1", 
      "region": "埼玉県", 
      "street-address": "", 
      "tellMain": "none", 
      "tellSub": "none"
    }, 
    "http://tabelog.com/saitama/A1106/A110603/11028615/": {
      "Category": [
        "ステーキ", 
        "ハンバーグ"
      ], 
      "Homepage": "none", 
      "Lat": "35.8513464997304", 
      "Lon": "139.323625470861", 
      "Region": [
        "埼玉県", 
        "飯能市柳町444-1", 
        ""
      ], 
      "Reserve": "none", 
      "RestName": "ステーキガスト 飯能店", 
      "Tell": "042-975-1085", 
      "locality": "飯能市柳町444-1", 
      "region": "埼玉県", 
      "street-address": "", 
      "tellMain": "none", 
      "tellSub": "none"
    }, 
    "http://tabelog.com/saitama/A1106/A110603/11028870/": {
      "Category": [
        "カフェ", 
        "ケーキ"
      ], 
      "Homepage": "none", 
      "Lat": "35.854251706504", 
      "Lon": "139.321447740182", 
      "Region": [
        "埼玉県", 
        "飯能市東町18-8", 
        ""
      ], 
      "Reserve": "予約可", 
      "RestName": "Cafe fuWAri（カフェ フワリ）", 
      "Tell": "042-978-7545", 
      "locality": "飯能市東町18-8", 
      "region": "埼玉県", 
      "street-address": "", 
      "tellMain": "none", 
      "tellSub": "none"
    }, 
    "http://tabelog.com/saitama/A1106/A110603/11030825/": {
      "Category": [
        "中華料理", 
        "ラーメン", 
        "居酒屋"
      ], 
      "Homepage": "http://hitosara.com/0005025202/", 
      "Lat": "35.8497212214303", 
      "Lon": "139.329545942886", 
      "Region": [
        "埼玉県", 
        "飯能市栄町10-20", 
        "小峯ビル 101"
      ], 
      "Reserve": "予約可", 
      "RestName": "蜀楽苑", 
      "Tell": "04-2973-3883", 
      "locality": "飯能市栄町10-20", 
      "region": "埼玉県", 
      "street-address": "小峯ビル 101", 
      "tellMain": "none", 
      "tellSub": "none"
    }, 
    "http://tabelog.com/saitama/A1106/A110603/11031381/": {
      "Category": [
        "和食（その他）"
      ], 
      "Homepage": "none", 
      "Lat": "35.8530569674674", 
      "Lon": "139.329071884229", 
      "Region": [
        "埼玉県", 
        "飯能市栄町17-22", 
        ""
      ], 
      "Reserve": "none", 
      "RestName": "冴", 
      "Tell": "042-975-3120", 
      "locality": "飯能市栄町17-22", 
      "region": "埼玉県", 
      "street-address": "", 
      "tellMain": "none", 
      "tellSub": "none"
    }, 
    "http://tabelog.com/saitama/A1106/A110603/11031747/": {
      "Category": [
        "和菓子"
      ], 
      "Homepage": "none", 
      "Lat": "35.8539390384668", 
      "Lon": "139.328256086436", 
      "Region": [
        "埼玉県", 
        "飯能市大字双柳87-98", 
        ""
      ], 
      "Reserve": "none", 
      "RestName": "かにや 東飯能店", 
      "Tell": "042-974-3300", 
      "locality": "飯能市大字双柳87-98", 
      "region": "埼玉県", 
      "street-address": "", 
      "tellMain": "none", 
      "tellSub": "none"
    }, 
    "http://tabelog.com/saitama/A1106/A110603/11031749/": {
      "Category": [
        "和菓子"
      ], 
      "Homepage": "none", 
      "Lat": "35.8515197384667", 
      "Lon": "139.323112186415", 
      "Region": [
        "埼玉県", 
        "飯能市柳町19-21", 
        ""
      ], 
      "Reserve": "none", 
      "RestName": "中三堂", 
      "Tell": "042-972-2818", 
      "locality": "飯能市柳町19-21", 
      "region": "埼玉県", 
      "street-address": "", 
      "tellMain": "none", 
      "tellSub": "none"
    }, 
    "http://tabelog.com/saitama/A1106/A110603/11033438/": {
      "Category": [
        "和食（その他）"
      ], 
      "Homepage": "none", 
      "Lat": "35.8503950384687", 
      "Lon": "139.327192386401", 
      "Region": [
        "埼玉県", 
        "飯能市栄町1-20", 
        ""
      ], 
      "Reserve": "none", 
      "RestName": "和食よへい 飯能店", 
      "Tell": "042-974-8780", 
      "locality": "飯能市栄町1-20", 
      "region": "埼玉県", 
      "street-address": "", 
      "tellMain": "none", 
      "tellSub": "none"
    }, 
    "http://tabelog.com/saitama/A1106/A110603/11033527/": {
      "Category": [
        "洋菓子（その他）"
      ], 
      "Homepage": "none", 
      "Lat": "35.8530113384668", 
      "Lon": "139.326395186428", 
      "Region": [
        "埼玉県", 
        "飯能市栄町24-4", 
        "丸広百貨店飯能店"
      ], 
      "Reserve": "none", 
      "RestName": "モロゾフ 丸広飯能店（morozoff）", 
      "Tell": "042-973-1111", 
      "locality": "飯能市栄町24-4", 
      "region": "埼玉県", 
      "street-address": "丸広百貨店飯能店", 
      "tellMain": "none", 
      "tellSub": "none"
    }, 
    "http://tabelog.com/saitama/A1106/A110603/11033970/": {
      "Category": [
        "弁当"
      ], 
      "Homepage": "none", 
      "Lat": "35.852222638468", 
      "Lon": "139.328844986419", 
      "Region": [
        "埼玉県", 
        "飯能市栄町15-3", 
        ""
      ], 
      "Reserve": "none", 
      "RestName": "ほっともっと 東飯能店", 
      "Tell": "042-975-4660", 
      "locality": "飯能市栄町15-3", 
      "region": "埼玉県", 
      "street-address": "", 
      "tellMain": "none", 
      "tellSub": "none"
    }, 
    "http://tabelog.com/saitama/A1106/A110603/11033987/": {
      "Category": [
        "中華料理", 
        "居酒屋", 
        "四川料理"
      ], 
      "Homepage": "http://www.localplace.jp/t100045891/", 
      "Lat": "35.8528306384652", 
      "Lon": "139.32116508643", 
      "Region": [
        "埼玉県", 
        "飯能市柳町7-9", 
        "誉田ビル 1F"
      ], 
      "Reserve": "予約可", 
      "RestName": "熊猫（パンダ）", 
      "Tell": "042-978-8996", 
      "locality": "飯能市柳町7-9", 
      "region": "埼玉県", 
      "street-address": "誉田ビル 1F", 
      "tellMain": "none", 
      "tellSub": "none"
    }, 
    "http://tabelog.com/saitama/A1106/A110603/11034594/": {
      "Category": [
        "居酒屋"
      ], 
      "Homepage": "none", 
      "Lat": "35.8521474384665", 
      "Lon": "139.323787086421", 
      "Region": [
        "埼玉県", 
        "飯能市柳町4-6", 
        ""
      ], 
      "Reserve": "none", 
      "RestName": "居酒屋 つるちゃん", 
      "Tell": "042-973-5772", 
      "locality": "飯能市柳町4-6", 
      "region": "埼玉県", 
      "street-address": "", 
      "tellMain": "none", 
      "tellSub": "none"
    }, 
    "http://tabelog.com/saitama/A1106/A110603/11036576/": {
      "Category": [
        "カフェ・喫茶（その他）"
      ], 
      "Homepage": "none", 
      "Lat": "35.8532225231292", 
      "Lon": "139.326410906004", 
      "Region": [
        "埼玉県", 
        "飯能市栄町24-4", 
        "丸広百貨店飯能店 7F"
      ], 
      "Reserve": "none", 
      "RestName": "喫茶モナミ", 
      "Tell": "042-978-7553", 
      "locality": "飯能市栄町24-4", 
      "region": "埼玉県", 
      "street-address": "丸広百貨店飯能店 7F", 
      "tellMain": "none", 
      "tellSub": "none"
    }, 
    "http://tabelog.com/saitama/A1106/A110603/11036712/": {
      "Category": [
        "ラーメン"
      ], 
      "Homepage": "none", 
      "Lat": "35.852136438467", 
      "Lon": "139.32537028642", 
      "Region": [
        "埼玉県", 
        "飯能市柳町1-12", 
        "宮寺ビル 1F"
      ], 
      "Reserve": "none", 
      "RestName": "一恵 東飯能出張所（イチエ）", 
      "Tell": "非公開", 
      "locality": "飯能市柳町1-12", 
      "region": "埼玉県", 
      "street-address": "宮寺ビル 1F", 
      "tellMain": "none", 
      "tellSub": "none"
    }, 
    "http://tabelog.com/saitama/A1106/A110603/11036909/": {
      "Category": [
        "ワインバー"
      ], 
      "Homepage": "none", 
      "Lat": "35.8547054384641", 
      "Lon": "139.321320586449", 
      "Region": [
        "埼玉県", 
        "飯能市八幡町9-16", 
        ""
      ], 
      "Reserve": "予約可", 
      "RestName": "ルードキッチン（RUDE KITCHEN ）", 
      "Tell": "042-971-4222", 
      "locality": "飯能市八幡町9-16", 
      "region": "埼玉県", 
      "street-address": "", 
      "tellMain": "none", 
      "tellSub": "none"
    }, 
    "http://tabelog.com/saitama/A1106/A110603/11037218/": {
      "Category": [
        "たい焼き・大判焼き", 
        "たこ焼き"
      ], 
      "Homepage": "none", 
      "Lat": "35.8530113384668", 
      "Lon": "139.326395186428", 
      "Region": [
        "埼玉県", 
        "飯能市栄町24-4", 
        "丸広百貨店飯能店 2F"
      ], 
      "Reserve": "none", 
      "RestName": "一口茶屋 飯能まるひろ店", 
      "Tell": "042-971-8008", 
      "locality": "飯能市栄町24-4", 
      "region": "埼玉県", 
      "street-address": "丸広百貨店飯能店 2F", 
      "tellMain": "none", 
      "tellSub": "none"
    }
  }, 
  "埼玉_飯能_正丸": {
    "http://tabelog.com/saitama/A1106/A110603/11003385/": {
      "Category": [
        "甘味処", 
        "ジンギスカン", 
        "そば・うどん・麺類（その他）"
      ], 
      "Homepage": "none", 
      "Lat": "35.9418625880298", 
      "Lon": "139.160970089626", 
      "Region": [
        "埼玉県", 
        "飯能市南川447-2", 
        ""
      ], 
      "Reserve": "none", 
      "RestName": "奥村茶屋（おくむらちゃや）", 
      "Tell": "042-978-0525", 
      "locality": "飯能市南川447-2", 
      "region": "埼玉県", 
      "street-address": "", 
      "tellMain": "none", 
      "tellSub": "none"
    }, 
    "http://tabelog.com/saitama/A1106/A110603/11010168/": {
      "Category": [
        "そば", 
        "うどん"
      ], 
      "Homepage": "none", 
      "Lat": "35.9393557075292", 
      "Lon": "139.18108547891", 
      "Region": [
        "埼玉県", 
        "飯能市坂元1211", 
        ""
      ], 
      "Reserve": "none", 
      "RestName": "正丸屋", 
      "Tell": "042-978-0523", 
      "locality": "飯能市坂元1211", 
      "region": "埼玉県", 
      "street-address": "", 
      "tellMain": "none", 
      "tellSub": "none"
    }, 
    "http://tabelog.com/saitama/A1106/A110603/11010340/": {
      "Category": [
        "そば", 
        "うどん"
      ], 
      "Homepage": "none", 
      "Lat": "35.9351032833433", 
      "Lon": "139.17528893388", 
      "Region": [
        "埼玉県", 
        "飯能市南川330", 
        ""
      ], 
      "Reserve": "none", 
      "RestName": "中丸屋", 
      "Tell": "042-978-1369", 
      "locality": "飯能市南川330", 
      "region": "埼玉県", 
      "street-address": "", 
      "tellMain": "none", 
      "tellSub": "none"
    }, 
    "http://tabelog.com/saitama/A1106/A110603/11019088/": {
      "Category": [
        "レストラン（その他）"
      ], 
      "Homepage": "none", 
      "Lat": "35.9382864189971", 
      "Lon": "139.183590886735", 
      "Region": [
        "埼玉県", 
        "飯能市南川580-1", 
        ""
      ], 
      "Reserve": "none", 
      "RestName": "田舎大名", 
      "Tell": "042-978-1123", 
      "locality": "飯能市南川580-1", 
      "region": "埼玉県", 
      "street-address": "", 
      "tellMain": "none", 
      "tellSub": "none"
    }, 
    "http://tabelog.com/saitama/A1106/A110603/11023072/": {
      "Category": [
        "イタリアン"
      ], 
      "Homepage": "none", 
      "Lat": "35.9411902723491", 
      "Lon": "139.16740541946", 
      "Region": [
        "埼玉県", 
        "飯能市南川443", 
        ""
      ], 
      "Reserve": "none", 
      "RestName": "トラットリア ボッカルーポ", 
      "Tell": "042-978-0030", 
      "locality": "飯能市南川443", 
      "region": "埼玉県", 
      "street-address": "", 
      "tellMain": "none", 
      "tellSub": "none"
    }, 
    "http://tabelog.com/saitama/A1106/A110603/11023178/": {
      "Category": [
        "喫茶店"
      ], 
      "Homepage": "none", 
      "Lat": "35.9306012900939", 
      "Lon": "139.192698784163", 
      "Region": [
        "埼玉県", 
        "飯能市南川112-11", 
        ""
      ], 
      "Reserve": "none", 
      "RestName": "帰蝶", 
      "Tell": "042-978-2300", 
      "locality": "飯能市南川112-11", 
      "region": "埼玉県", 
      "street-address": "", 
      "tellMain": "none", 
      "tellSub": "none"
    }, 
    "http://tabelog.com/saitama/A1106/A110603/11023567/": {
      "Category": [
        "カフェ"
      ], 
      "Homepage": "none", 
      "Lat": "35.9224961951084", 
      "Lon": "139.201176808793", 
      "Region": [
        "埼玉県", 
        "飯能市吾野493-1", 
        ""
      ], 
      "Reserve": "none", 
      "RestName": "ロックガーデンカフェ（Rock Garden Cafe）", 
      "Tell": "042-978-1243", 
      "locality": "飯能市吾野493-1", 
      "region": "埼玉県", 
      "street-address": "", 
      "tellMain": "none", 
      "tellSub": "none"
    }
  }, 
  "埼玉_飯能_西吾野": {
    "http://tabelog.com/saitama/A1106/A110603/11004154/": {
      "Category": [
        "うどん", 
        "アイスクリーム"
      ], 
      "Homepage": "http://asamichaya.jp/", 
      "Lat": "35.9090569151715", 
      "Lon": "139.198819661252", 
      "Region": [
        "埼玉県", 
        "飯能市坂石1050", 
        ""
      ], 
      "Reserve": "予約可", 
      "RestName": "浅見茶屋", 
      "Tell": "042-978-0789", 
      "locality": "飯能市坂石1050", 
      "region": "埼玉県", 
      "street-address": "", 
      "tellMain": "none", 
      "tellSub": "none"
    }, 
    "http://tabelog.com/saitama/A1106/A110603/11009931/": {
      "Category": [
        "そば", 
        "うどん"
      ], 
      "Homepage": "none", 
      "Lat": "35.9130230461837", 
      "Lon": "139.217336458452", 
      "Region": [
        "埼玉県", 
        "飯能市坂石635", 
        ""
      ], 
      "Reserve": "none", 
      "RestName": "幸食堂", 
      "Tell": "042-978-0031", 
      "locality": "飯能市坂石635", 
      "region": "埼玉県", 
      "street-address": "", 
      "tellMain": "none", 
      "tellSub": "none"
    }, 
    "http://tabelog.com/saitama/A1106/A110603/11010168/": {
      "Category": [
        "そば", 
        "うどん"
      ], 
      "Homepage": "none", 
      "Lat": "35.9393557075292", 
      "Lon": "139.18108547891", 
      "Region": [
        "埼玉県", 
        "飯能市坂元1211", 
        ""
      ], 
      "Reserve": "none", 
      "RestName": "正丸屋", 
      "Tell": "042-978-0523", 
      "locality": "飯能市坂元1211", 
      "region": "埼玉県", 
      "street-address": "", 
      "tellMain": "none", 
      "tellSub": "none"
    }, 
    "http://tabelog.com/saitama/A1106/A110603/11010340/": {
      "Category": [
        "そば", 
        "うどん"
      ], 
      "Homepage": "none", 
      "Lat": "35.9351032833433", 
      "Lon": "139.17528893388", 
      "Region": [
        "埼玉県", 
        "飯能市南川330", 
        ""
      ], 
      "Reserve": "none", 
      "RestName": "中丸屋", 
      "Tell": "042-978-1369", 
      "locality": "飯能市南川330", 
      "region": "埼玉県", 
      "street-address": "", 
      "tellMain": "none", 
      "tellSub": "none"
    }, 
    "http://tabelog.com/saitama/A1106/A110603/11016585/": {
      "Category": [
        "レストラン（その他）"
      ], 
      "Homepage": "none", 
      "Lat": "35.9415033798395", 
      "Lon": "139.219940519787", 
      "Region": [
        "埼玉県", 
        "飯能市高山439-3", 
        ""
      ], 
      "Reserve": "none", 
      "RestName": "不動茶や", 
      "Tell": "042-978-1378", 
      "locality": "飯能市高山439-3", 
      "region": "埼玉県", 
      "street-address": "", 
      "tellMain": "none", 
      "tellSub": "none"
    }, 
    "http://tabelog.com/saitama/A1106/A110603/11019088/": {
      "Category": [
        "レストラン（その他）"
      ], 
      "Homepage": "none", 
      "Lat": "35.9382864189971", 
      "Lon": "139.183590886735", 
      "Region": [
        "埼玉県", 
        "飯能市南川580-1", 
        ""
      ], 
      "Reserve": "none", 
      "RestName": "田舎大名", 
      "Tell": "042-978-1123", 
      "locality": "飯能市南川580-1", 
      "region": "埼玉県", 
      "street-address": "", 
      "tellMain": "none", 
      "tellSub": "none"
    }, 
    "http://tabelog.com/saitama/A1106/A110603/11023178/": {
      "Category": [
        "喫茶店"
      ], 
      "Homepage": "none", 
      "Lat": "35.9306012900939", 
      "Lon": "139.192698784163", 
      "Region": [
        "埼玉県", 
        "飯能市南川112-11", 
        ""
      ], 
      "Reserve": "none", 
      "RestName": "帰蝶", 
      "Tell": "042-978-2300", 
      "locality": "飯能市南川112-11", 
      "region": "埼玉県", 
      "street-address": "", 
      "tellMain": "none", 
      "tellSub": "none"
    }, 
    "http://tabelog.com/saitama/A1106/A110603/11023567/": {
      "Category": [
        "カフェ"
      ], 
      "Homepage": "none", 
      "Lat": "35.9224961951084", 
      "Lon": "139.201176808793", 
      "Region": [
        "埼玉県", 
        "飯能市吾野493-1", 
        ""
      ], 
      "Reserve": "none", 
      "RestName": "ロックガーデンカフェ（Rock Garden Cafe）", 
      "Tell": "042-978-1243", 
      "locality": "飯能市吾野493-1", 
      "region": "埼玉県", 
      "street-address": "", 
      "tellMain": "none", 
      "tellSub": "none"
    }
  }, 
  "埼玉_飯能_飯能": {
    "http://tabelog.com/saitama/A1106/A110603/11001155/": {
      "Category": [
        "寿司", 
        "懐石・会席料理", 
        "創作料理"
      ], 
      "Homepage": "http://r.gnavi.co.jp/a620700/", 
      "Lat": "35.8529857118162", 
      "Lon": "139.32036066653", 
      "Region": [
        "埼玉県", 
        "飯能市仲町2-10", 
        ""
      ], 
      "Reserve": "予約可", 
      "RestName": "やなぎ", 
      "Tell": "0066-9712-939115", 
      "locality": "飯能市仲町2-10", 
      "region": "埼玉県", 
      "street-address": "", 
      "tellMain": "0066-9712-939115（予約専用番号、通話料無料）", 
      "tellSub": "042-973-6587（お問い合わせ専用番号）"
    }, 
    "http://tabelog.com/saitama/A1106/A110603/11001211/": {
      "Category": [
        "焼肉", 
        "ホルモン", 
        "韓国料理"
      ], 
      "Homepage": "http://r.gnavi.co.jp/ga1b340/", 
      "Lat": "35.8565892481695", 
      "Lon": "139.322244233076", 
      "Region": [
        "埼玉県", 
        "飯能市東町33-5", 
        ""
      ], 
      "Reserve": "予約可", 
      "RestName": "牛角 飯能店（ギュウカク）", 
      "Tell": "0429-71-9229", 
      "locality": "飯能市東町33-5", 
      "region": "埼玉県", 
      "street-address": "", 
      "tellMain": "none", 
      "tellSub": "none"
    }, 
    "http://tabelog.com/saitama/A1106/A110603/11001372/": {
      "Category": [
        "ホルモン", 
        "焼肉"
      ], 
      "Homepage": "http://r.gnavi.co.jp/a676500/", 
      "Lat": "35.8531200371556", 
      "Lon": "139.314364491656", 
      "Region": [
        "埼玉県", 
        "飯能市仲町24-6", 
        ""
      ], 
      "Reserve": "予約可", 
      "RestName": "居酒屋 いろり", 
      "Tell": "042-974-3699", 
      "locality": "飯能市仲町24-6", 
      "region": "埼玉県", 
      "street-address": "", 
      "tellMain": "none", 
      "tellSub": "none"
    }, 
    "http://tabelog.com/saitama/A1106/A110603/11001693/": {
      "Category": [
        "居酒屋"
      ], 
      "Homepage": "none", 
      "Lat": "35.8526335383395", 
      "Lon": "139.32099479675", 
      "Region": [
        "埼玉県", 
        "飯能市柳町8-12", 
        ""
      ], 
      "Reserve": "none", 
      "RestName": "おらが村", 
      "Tell": "042-974-1982", 
      "locality": "飯能市柳町8-12", 
      "region": "埼玉県", 
      "street-address": "", 
      "tellMain": "none", 
      "tellSub": "none"
    }, 
    "http://tabelog.com/saitama/A1106/A110603/11001937/": {
      "Category": [
        "カフェ"
      ], 
      "Homepage": "none", 
      "Lat": "35.8513094826379", 
      "Lon": "139.31923972569", 
      "Region": [
        "埼玉県", 
        "飯能市仲町11-21", 
        "飯能PePe 2F"
      ], 
      "Reserve": "none", 
      "RestName": "スターバックス・コーヒー 飯能PePe店", 
      "Tell": "0429-74-6866", 
      "locality": "飯能市仲町11-21", 
      "region": "埼玉県", 
      "street-address": "飯能PePe 2F", 
      "tellMain": "none", 
      "tellSub": "none"
    }, 
    "http://tabelog.com/saitama/A1106/A110603/11002823/": {
      "Category": [
        "居酒屋", 
        "焼鳥"
      ], 
      "Homepage": "none", 
      "Lat": "35.8515203090332", 
      "Lon": "139.320133530643", 
      "Region": [
        "埼玉県", 
        "飯能市仲町10-4", 
        ""
      ], 
      "Reserve": "予約可", 
      "RestName": "昭和レトロ 串いち 飯能駅前店（しょうわれとろ くしいち）", 
      "Tell": "042-983-1919", 
      "locality": "飯能市仲町10-4", 
      "region": "埼玉県", 
      "street-address": "", 
      "tellMain": "none", 
      "tellSub": "none"
    }, 
    "http://tabelog.com/saitama/A1106/A110603/11003316/": {
      "Category": [
        "そば"
      ], 
      "Homepage": "none", 
      "Lat": "35.8528870620371", 
      "Lon": "139.317542849541", 
      "Region": [
        "埼玉県", 
        "飯能市仲町14-8", 
        ""
      ], 
      "Reserve": "none", 
      "RestName": "竹むら（たけむら）", 
      "Tell": "042-972-2209", 
      "locality": "飯能市仲町14-8", 
      "region": "埼玉県", 
      "street-address": "", 
      "tellMain": "none", 
      "tellSub": "none"
    }, 
    "http://tabelog.com/saitama/A1106/A110603/11004584/": {
      "Category": [
        "ラーメン", 
        "つけ麺"
      ], 
      "Homepage": "none", 
      "Lat": "35.8511848104485", 
      "Lon": "139.317637568377", 
      "Region": [
        "埼玉県", 
        "飯能市南町1-29", 
        ""
      ], 
      "Reserve": "none", 
      "RestName": "つけそば丸永 飯能店", 
      "Tell": "042-971-5839", 
      "locality": "飯能市南町1-29", 
      "region": "埼玉県", 
      "street-address": "", 
      "tellMain": "none", 
      "tellSub": "none"
    }, 
    "http://tabelog.com/saitama/A1106/A110603/11004619/": {
      "Category": [
        "北京料理", 
        "上海料理", 
        "四川料理"
      ], 
      "Homepage": "none", 
      "Lat": "35.8515256384657", 
      "Lon": "139.320112886418", 
      "Region": [
        "埼玉県", 
        "飯能市仲町10-4", 
        "新井駅前ビル1F"
      ], 
      "Reserve": "none", 
      "RestName": "祥龍房 飯能駅北口店", 
      "Tell": "042-972-7838", 
      "locality": "飯能市仲町10-4", 
      "region": "埼玉県", 
      "street-address": "新井駅前ビル1F", 
      "tellMain": "none", 
      "tellSub": "none"
    }, 
    "http://tabelog.com/saitama/A1106/A110603/11005002/": {
      "Category": [
        "お好み焼き", 
        "韓国料理"
      ], 
      "Homepage": "http://r.gnavi.co.jp/b875700/", 
      "Lat": "35.8513838845104", 
      "Lon": "139.320438622696", 
      "Region": [
        "埼玉県", 
        "飯能市柳町23-12", 
        "2F"
      ], 
      "Reserve": "none", 
      "RestName": "福蔵（フクゾウ）", 
      "Tell": "050-5869-0541", 
      "locality": "飯能市柳町23-12", 
      "region": "埼玉県", 
      "street-address": "2F", 
      "tellMain": "050-5869-0541（予約専用番号）", 
      "tellSub": "042-983-8338（お問い合わせ専用番号）"
    }, 
    "http://tabelog.com/saitama/A1106/A110603/11005069/": {
      "Category": [
        "居酒屋", 
        "魚介料理・海鮮料理", 
        "ダイニングバー"
      ], 
      "Homepage": "http://www.watamifoodservice.jp/watami/", 
      "Lat": "35.8517766721268", 
      "Lon": "139.320226566667", 
      "Region": [
        "埼玉県", 
        "飯能市仲町10-1", 
        "満月会館 2F"
      ], 
      "Reserve": "予約可", 
      "RestName": "和民 飯能北口駅前店（わたみ）", 
      "Tell": "050-5872-0224", 
      "locality": "飯能市仲町10-1", 
      "region": "埼玉県", 
      "street-address": "満月会館 2F", 
      "tellMain": "050-5872-0224（予約専用番号）", 
      "tellSub": "0429-83-9021（お問い合わせ専用番号）"
    }, 
    "http://tabelog.com/saitama/A1106/A110603/11005152/": {
      "Category": [
        "居酒屋", 
        "焼鳥", 
        "和食（その他）"
      ], 
      "Homepage": "http://www.doma-doma.com/", 
      "Lat": "35.8522087945826", 
      "Lon": "139.320341592774", 
      "Region": [
        "埼玉県", 
        "飯能市仲町9-3", 
        "間野ビル1F"
      ], 
      "Reserve": "予約可", 
      "RestName": "土間土間 飯能店（ドマドマハンノウテン）", 
      "Tell": "050-5890-2853", 
      "locality": "飯能市仲町9-3", 
      "region": "埼玉県", 
      "street-address": "間野ビル1F", 
      "tellMain": "050-5890-2853（予約専用番号）", 
      "tellSub": "04-2975-7007（お問い合わせ専用番号）"
    }, 
    "http://tabelog.com/saitama/A1106/A110603/11005825/": {
      "Category": [
        "居酒屋"
      ], 
      "Homepage": "none", 
      "Lat": "35.8515116384658", 
      "Lon": "139.320456886417", 
      "Region": [
        "埼玉県", 
        "飯能市柳町23-13", 
        "安藤ビル1・2階"
      ], 
      "Reserve": "none", 
      "RestName": "ひもの屋 飯能", 
      "Tell": "042-973-8088", 
      "locality": "飯能市柳町23-13", 
      "region": "埼玉県", 
      "street-address": "安藤ビル1・2階", 
      "tellMain": "none", 
      "tellSub": "none"
    }, 
    "http://tabelog.com/saitama/A1106/A110603/11005914/": {
      "Category": [
        "ラーメン"
      ], 
      "Homepage": "none", 
      "Lat": "35.8494916384666", 
      "Lon": "139.318762886398", 
      "Region": [
        "埼玉県", 
        "飯能市南町5-9", 
        ""
      ], 
      "Reserve": "none", 
      "RestName": "くるまやラーメン 飯能南町店", 
      "Tell": "0429-72-3015", 
      "locality": "飯能市南町5-9", 
      "region": "埼玉県", 
      "street-address": "", 
      "tellMain": "none", 
      "tellSub": "none"
    }, 
    "http://tabelog.com/saitama/A1106/A110603/11007118/": {
      "Category": [
        "中華料理", 
        "ラーメン", 
        "餃子"
      ], 
      "Homepage": "none", 
      "Lat": "35.8499171174831", 
      "Lon": "139.318433467868", 
      "Region": [
        "埼玉県", 
        "飯能市南町6-11", 
        ""
      ], 
      "Reserve": "none", 
      "RestName": "祥龍房 飯能駅南口店（ショウリュウボウ）", 
      "Tell": "042-972-8815", 
      "locality": "飯能市南町6-11", 
      "region": "埼玉県", 
      "street-address": "", 
      "tellMain": "none", 
      "tellSub": "none"
    }, 
    "http://tabelog.com/saitama/A1106/A110603/11010638/": {
      "Category": [
        "イタリアン"
      ], 
      "Homepage": "none", 
      "Lat": "35.8513064277877", 
      "Lon": "139.319261390698", 
      "Region": [
        "埼玉県", 
        "飯能市仲町11-21", 
        ""
      ], 
      "Reserve": "none", 
      "RestName": "ジュバンヌ", 
      "Tell": "042-983-0011", 
      "locality": "飯能市仲町11-21", 
      "region": "埼玉県", 
      "street-address": "", 
      "tellMain": "none", 
      "tellSub": "none"
    }, 
    "http://tabelog.com/saitama/A1106/A110603/11011081/": {
      "Category": [
        "焼鳥", 
        "居酒屋"
      ], 
      "Homepage": "none", 
      "Lat": "35.8512620082286", 
      "Lon": "139.32041407479", 
      "Region": [
        "埼玉県", 
        "飯能市柳町23-10", 
        ""
      ], 
      "Reserve": "予約可", 
      "RestName": "おらく", 
      "Tell": "042-972-2484", 
      "locality": "飯能市柳町23-10", 
      "region": "埼玉県", 
      "street-address": "", 
      "tellMain": "none", 
      "tellSub": "none"
    }, 
    "http://tabelog.com/saitama/A1106/A110603/11011398/": {
      "Category": [
        "中華料理"
      ], 
      "Homepage": "none", 
      "Lat": "35.851233661655", 
      "Lon": "139.319482486798", 
      "Region": [
        "埼玉県", 
        "飯能市仲町11-21", 
        "西武飯能ペペ3F"
      ], 
      "Reserve": "none", 
      "RestName": "中国菜家 日日香（チュウゴクサイカ ヒビカ）", 
      "Tell": "0066-9712-564715", 
      "locality": "飯能市仲町11-21", 
      "region": "埼玉県", 
      "street-address": "西武飯能ペペ3F", 
      "tellMain": "0066-9712-564715（予約専用番号、通話料無料）", 
      "tellSub": "042-971-6317（お問い合わせ専用番号）"
    }, 
    "http://tabelog.com/saitama/A1106/A110603/11011694/": {
      "Category": [
        "寿司"
      ], 
      "Homepage": "none", 
      "Lat": "35.8490900024625", 
      "Lon": "139.319505916883", 
      "Region": [
        "埼玉県", 
        "飯能市南町5-3", 
        ""
      ], 
      "Reserve": "none", 
      "RestName": "新寿し", 
      "Tell": "042-972-2365", 
      "locality": "飯能市南町5-3", 
      "region": "埼玉県", 
      "street-address": "", 
      "tellMain": "none", 
      "tellSub": "none"
    }, 
    "http://tabelog.com/saitama/A1106/A110603/11011837/": {
      "Category": [
        "寿司"
      ], 
      "Homepage": "none", 
      "Lat": "35.8496788635403", 
      "Lon": "139.321519611422", 
      "Region": [
        "埼玉県", 
        "飯能市南町2-3", 
        ""
      ], 
      "Reserve": "none", 
      "RestName": "梅の木", 
      "Tell": "042-972-7312", 
      "locality": "飯能市南町2-3", 
      "region": "埼玉県", 
      "street-address": "", 
      "tellMain": "none", 
      "tellSub": "none"
    }, 
    "http://tabelog.com/saitama/A1106/A110603/11012186/": {
      "Category": [
        "焼鳥"
      ], 
      "Homepage": "none", 
      "Lat": "35.8511536396199", 
      "Lon": "139.317730969278", 
      "Region": [
        "埼玉県", 
        "飯能市南町1-28", 
        ""
      ], 
      "Reserve": "none", 
      "RestName": "鳥勝 飯能店（とりかつ）", 
      "Tell": "042-972-6797", 
      "locality": "飯能市南町1-28", 
      "region": "埼玉県", 
      "street-address": "", 
      "tellMain": "none", 
      "tellSub": "none"
    }, 
    "http://tabelog.com/saitama/A1106/A110603/11012213/": {
      "Category": [
        "焼鳥"
      ], 
      "Homepage": "none", 
      "Lat": "35.8520280460828", 
      "Lon": "139.320910942701", 
      "Region": [
        "埼玉県", 
        "飯能市仲町9-3", 
        ""
      ], 
      "Reserve": "none", 
      "RestName": "はちや 飯能店", 
      "Tell": "042-971-5118", 
      "locality": "飯能市仲町9-3", 
      "region": "埼玉県", 
      "street-address": "", 
      "tellMain": "none", 
      "tellSub": "none"
    }, 
    "http://tabelog.com/saitama/A1106/A110603/11012683/": {
      "Category": [
        "そば", 
        "うどん"
      ], 
      "Homepage": "none", 
      "Lat": "35.8512975725896", 
      "Lon": "139.321135957645", 
      "Region": [
        "埼玉県", 
        "飯能市柳町23-20", 
        ""
      ], 
      "Reserve": "none", 
      "RestName": "ゆきやなぎ 柳町店", 
      "Tell": "042-971-4100", 
      "locality": "飯能市柳町23-20", 
      "region": "埼玉県", 
      "street-address": "", 
      "tellMain": "none", 
      "tellSub": "none"
    }, 
    "http://tabelog.com/saitama/A1106/A110603/11013693/": {
      "Category": [
        "居酒屋"
      ], 
      "Homepage": "none", 
      "Lat": "35.8524493151476", 
      "Lon": "139.320938754386", 
      "Region": [
        "埼玉県", 
        "飯能市柳町8-9", 
        "川田ビル 2Ｆ"
      ], 
      "Reserve": "none", 
      "RestName": "在", 
      "Tell": "042-974-6469", 
      "locality": "飯能市柳町8-9", 
      "region": "埼玉県", 
      "street-address": "川田ビル 2Ｆ", 
      "tellMain": "none", 
      "tellSub": "none"
    }, 
    "http://tabelog.com/saitama/A1106/A110603/11013778/": {
      "Category": [
        "焼肉", 
        "ホルモン"
      ], 
      "Homepage": "http://www.localplace.jp/t100047886/", 
      "Lat": "35.8529618545069", 
      "Lon": "139.32208611322", 
      "Region": [
        "埼玉県", 
        "飯能市柳町6-13", 
        ""
      ], 
      "Reserve": "予約可", 
      "RestName": "焼肉千香", 
      "Tell": "042-972-6791", 
      "locality": "飯能市柳町6-13", 
      "region": "埼玉県", 
      "street-address": "", 
      "tellMain": "none", 
      "tellSub": "none"
    }, 
    "http://tabelog.com/saitama/A1106/A110603/11014585/": {
      "Category": [
        "居酒屋"
      ], 
      "Homepage": "none", 
      "Lat": "35.852078586524", 
      "Lon": "139.320227908211", 
      "Region": [
        "埼玉県", 
        "飯能市仲町9-6", 
        ""
      ], 
      "Reserve": "none", 
      "RestName": "居酒屋呑", 
      "Tell": "042-972-8186", 
      "locality": "飯能市仲町9-6", 
      "region": "埼玉県", 
      "street-address": "", 
      "tellMain": "none", 
      "tellSub": "none"
    }, 
    "http://tabelog.com/saitama/A1106/A110603/11014828/": {
      "Category": [
        "ビアガーデン", 
        "ホルモン"
      ], 
      "Homepage": "none", 
      "Lat": "35.8517108214139", 
      "Lon": "139.318828352487", 
      "Region": [
        "埼玉県", 
        "飯能市仲町12-7", 
        ""
      ], 
      "Reserve": "none", 
      "RestName": "炎家（【旧店名】ビールジン）", 
      "Tell": "042-974-7339", 
      "locality": "飯能市仲町12-7", 
      "region": "埼玉県", 
      "street-address": "", 
      "tellMain": "none", 
      "tellSub": "none"
    }, 
    "http://tabelog.com/saitama/A1106/A110603/11014852/": {
      "Category": [
        "レストラン（その他）"
      ], 
      "Homepage": "none", 
      "Lat": "35.8513064322322", 
      "Lon": "139.319261424028", 
      "Region": [
        "埼玉県", 
        "飯能市仲町11-21", 
        ""
      ], 
      "Reserve": "none", 
      "RestName": "ミスタードーナツ 飯能ペペショップ", 
      "Tell": "042-974-3318", 
      "locality": "飯能市仲町11-21", 
      "region": "埼玉県", 
      "street-address": "", 
      "tellMain": "none", 
      "tellSub": "none"
    }, 
    "http://tabelog.com/saitama/A1106/A110603/11015026/": {
      "Category": [
        "レストラン（その他）"
      ], 
      "Homepage": "none", 
      "Lat": "35.852629650235", 
      "Lon": "139.321015906284", 
      "Region": [
        "埼玉県", 
        "飯能市柳町8-12", 
        ""
      ], 
      "Reserve": "none", 
      "RestName": "イザカヤセン（IZaKaYaせん）", 
      "Tell": "042-972-3965", 
      "locality": "飯能市柳町8-12", 
      "region": "埼玉県", 
      "street-address": "", 
      "tellMain": "none", 
      "tellSub": "none"
    }, 
    "http://tabelog.com/saitama/A1106/A110603/11015284/": {
      "Category": [
        "レストラン（その他）"
      ], 
      "Homepage": "none", 
      "Lat": "35.8525840560167", 
      "Lon": "139.318714110659", 
      "Region": [
        "埼玉県", 
        "飯能市仲町7-5", 
        ""
      ], 
      "Reserve": "none", 
      "RestName": "くるま", 
      "Tell": "042-973-5322", 
      "locality": "飯能市仲町7-5", 
      "region": "埼玉県", 
      "street-address": "", 
      "tellMain": "none", 
      "tellSub": "none"
    }, 
    "http://tabelog.com/saitama/A1106/A110603/11015303/": {
      "Category": [
        "レストラン（その他）"
      ], 
      "Homepage": "none", 
      "Lat": "35.8529311834882", 
      "Lon": "139.314970005624", 
      "Region": [
        "埼玉県", 
        "飯能市仲町17-15", 
        ""
      ], 
      "Reserve": "none", 
      "RestName": "このみ", 
      "Tell": "042-973-8114", 
      "locality": "飯能市仲町17-15", 
      "region": "埼玉県", 
      "street-address": "", 
      "tellMain": "none", 
      "tellSub": "none"
    }, 
    "http://tabelog.com/saitama/A1106/A110603/11016400/": {
      "Category": [
        "定食・食堂"
      ], 
      "Homepage": "none", 
      "Lat": "35.848728942964", 
      "Lon": "139.320122571182", 
      "Region": [
        "埼玉県", 
        "飯能市南町3-10", 
        ""
      ], 
      "Reserve": "none", 
      "RestName": "大野屋", 
      "Tell": "042-972-2232", 
      "locality": "飯能市南町3-10", 
      "region": "埼玉県", 
      "street-address": "", 
      "tellMain": "none", 
      "tellSub": "none"
    }, 
    "http://tabelog.com/saitama/A1106/A110603/11016518/": {
      "Category": [
        "居酒屋"
      ], 
      "Homepage": "none", 
      "Lat": "35.8521341275267", 
      "Lon": "139.320052920186", 
      "Region": [
        "埼玉県", 
        "飯能市仲町9-7", 
        ""
      ], 
      "Reserve": "none", 
      "RestName": "銅板屋", 
      "Tell": "042-972-9338", 
      "locality": "飯能市仲町9-7", 
      "region": "埼玉県", 
      "street-address": "", 
      "tellMain": "none", 
      "tellSub": "none"
    }, 
    "http://tabelog.com/saitama/A1106/A110603/11016713/": {
      "Category": [
        "懐石・会席料理", 
        "割烹・小料理", 
        "居酒屋"
      ], 
      "Homepage": "none", 
      "Lat": "35.852664107402", 
      "Lon": "139.321955271128", 
      "Region": [
        "埼玉県", 
        "飯能市柳町6-8", 
        ""
      ], 
      "Reserve": "予約可", 
      "RestName": "和ダイニング桜（和Dining桜）", 
      "Tell": "050-5868-1256", 
      "locality": "飯能市柳町6-8", 
      "region": "埼玉県", 
      "street-address": "", 
      "tellMain": "050-5868-1256（予約専用番号）", 
      "tellSub": "042-980-6116（お問い合わせ専用番号）"
    }, 
    "http://tabelog.com/saitama/A1106/A110603/11017799/": {
      "Category": [
        "居酒屋"
      ], 
      "Homepage": "none", 
      "Lat": "35.8528646214732", 
      "Lon": "139.320744529115", 
      "Region": [
        "埼玉県", 
        "飯能市仲町2-2", 
        ""
      ], 
      "Reserve": "none", 
      "RestName": "村さ来 飯能店", 
      "Tell": "042-974-5727", 
      "locality": "飯能市仲町2-2", 
      "region": "埼玉県", 
      "street-address": "", 
      "tellMain": "none", 
      "tellSub": "none"
    }, 
    "http://tabelog.com/saitama/A1106/A110603/11018189/": {
      "Category": [
        "レストラン（その他）"
      ], 
      "Homepage": "none", 
      "Lat": "35.8506954719442", 
      "Lon": "139.324663703499", 
      "Region": [
        "埼玉県", 
        "飯能市柳町15-1", 
        ""
      ], 
      "Reserve": "予約可", 
      "RestName": "徳樹庵 飯能店", 
      "Tell": "042-983-0171", 
      "locality": "飯能市柳町15-1", 
      "region": "埼玉県", 
      "street-address": "", 
      "tellMain": "none", 
      "tellSub": "none"
    }, 
    "http://tabelog.com/saitama/A1106/A110603/11018379/": {
      "Category": [
        "喫茶店"
      ], 
      "Homepage": "none", 
      "Lat": "35.8526313211815", 
      "Lon": "139.321016717251", 
      "Region": [
        "埼玉県", 
        "飯能市柳町8-12", 
        ""
      ], 
      "Reserve": "none", 
      "RestName": "珈琲館 飯能店", 
      "Tell": "042-972-0121", 
      "locality": "飯能市柳町8-12", 
      "region": "埼玉県", 
      "street-address": "", 
      "tellMain": "none", 
      "tellSub": "none"
    }, 
    "http://tabelog.com/saitama/A1106/A110603/11018585/": {
      "Category": [
        "コーヒー専門店"
      ], 
      "Homepage": "none", 
      "Lat": "35.8520195462032", 
      "Lon": "139.320363969543", 
      "Region": [
        "埼玉県", 
        "飯能市仲町9-3", 
        ""
      ], 
      "Reserve": "none", 
      "RestName": "コーヒー苑", 
      "Tell": "042-972-2771", 
      "locality": "飯能市仲町9-3", 
      "region": "埼玉県", 
      "street-address": "", 
      "tellMain": "none", 
      "tellSub": "none"
    }, 
    "http://tabelog.com/saitama/A1106/A110603/11019157/": {
      "Category": [
        "コーヒー専門店"
      ], 
      "Homepage": "none", 
      "Lat": "35.8489538784903", 
      "Lon": "139.31780885298", 
      "Region": [
        "埼玉県", 
        "飯能市南町9-23", 
        ""
      ], 
      "Reserve": "none", 
      "RestName": "珈琲屋加奈陀亭", 
      "Tell": "042-974-7467", 
      "locality": "飯能市南町9-23", 
      "region": "埼玉県", 
      "street-address": "", 
      "tellMain": "none", 
      "tellSub": "none"
    }, 
    "http://tabelog.com/saitama/A1106/A110603/11020363/": {
      "Category": [
        "そば"
      ], 
      "Homepage": "http://www16.plala.or.jp/hikobe/index.html", 
      "Lat": "35.8516578153954", 
      "Lon": "139.31860125926", 
      "Region": [
        "埼玉県", 
        "飯能市仲町12-9", 
        ""
      ], 
      "Reserve": "none", 
      "RestName": "彦兵衛", 
      "Tell": "042-974-2790", 
      "locality": "飯能市仲町12-9", 
      "region": "埼玉県", 
      "street-address": "", 
      "tellMain": "none", 
      "tellSub": "none"
    }, 
    "http://tabelog.com/saitama/A1106/A110603/11020613/": {
      "Category": [
        "イタリアン"
      ], 
      "Homepage": "none", 
      "Lat": "35.851149507604", 
      "Lon": "139.319689417931", 
      "Region": [
        "埼玉県", 
        "飯能市仲町11-21", 
        "西武飯能ペペ2F"
      ], 
      "Reserve": "none", 
      "RestName": "ボッカルーポ 飯能店", 
      "Tell": "042-975-3800", 
      "locality": "飯能市仲町11-21", 
      "region": "埼玉県", 
      "street-address": "西武飯能ペペ2F", 
      "tellMain": "none", 
      "tellSub": "none"
    }, 
    "http://tabelog.com/saitama/A1106/A110603/11021926/": {
      "Category": [
        "居酒屋", 
        "魚介料理・海鮮料理", 
        "創作和食"
      ], 
      "Homepage": "http://www.monteroza.co.jp/index.html", 
      "Lat": "35.8522316256136", 
      "Lon": "139.320349591059", 
      "Region": [
        "埼玉県", 
        "飯能市仲町9-3", 
        "間野ビル ３Ｆ"
      ], 
      "Reserve": "予約可", 
      "RestName": "魚民 飯能北口駅前店", 
      "Tell": "042-972-1688", 
      "locality": "飯能市仲町9-3", 
      "region": "埼玉県", 
      "street-address": "間野ビル ３Ｆ", 
      "tellMain": "none", 
      "tellSub": "none"
    }, 
    "http://tabelog.com/saitama/A1106/A110603/11022205/": {
      "Category": [
        "豆腐料理・湯葉料理", 
        "沖縄料理", 
        "創作料理"
      ], 
      "Homepage": "none", 
      "Lat": "35.8498782384672", 
      "Lon": "139.3215401864", 
      "Region": [
        "埼玉県", 
        "飯能市南町2-54", 
        ""
      ], 
      "Reserve": "予約可", 
      "RestName": "若月豆腐店「わか」", 
      "Tell": "042-973-3392", 
      "locality": "飯能市南町2-54", 
      "region": "埼玉県", 
      "street-address": "", 
      "tellMain": "none", 
      "tellSub": "none"
    }, 
    "http://tabelog.com/saitama/A1106/A110603/11022521/": {
      "Category": [
        "居酒屋"
      ], 
      "Homepage": "none", 
      "Lat": "35.8467209026502", 
      "Lon": "139.324983359948", 
      "Region": [
        "埼玉県", 
        "飯能市川寺341-6", 
        ""
      ], 
      "Reserve": "none", 
      "RestName": "居酒屋とこ", 
      "Tell": "042-974-6764", 
      "locality": "飯能市川寺341-6", 
      "region": "埼玉県", 
      "street-address": "", 
      "tellMain": "none", 
      "tellSub": "none"
    }, 
    "http://tabelog.com/saitama/A1106/A110603/11022524/": {
      "Category": [
        "居酒屋"
      ], 
      "Homepage": "none", 
      "Lat": "35.8511859227604", 
      "Lon": "139.321416217288", 
      "Region": [
        "埼玉県", 
        "飯能市柳町23-2", 
        ""
      ], 
      "Reserve": "予約可", 
      "RestName": "なかよし", 
      "Tell": "042-973-0114", 
      "locality": "飯能市柳町23-2", 
      "region": "埼玉県", 
      "street-address": "", 
      "tellMain": "none", 
      "tellSub": "none"
    }, 
    "http://tabelog.com/saitama/A1106/A110603/11023153/": {
      "Category": [
        "カフェ"
      ], 
      "Homepage": "none", 
      "Lat": "35.8515092017927", 
      "Lon": "139.320477913663", 
      "Region": [
        "埼玉県", 
        "飯能市柳町23-13", 
        ""
      ], 
      "Reserve": "none", 
      "RestName": "ドトールコーヒーショップ 飯能駅前店", 
      "Tell": "042-974-0616", 
      "locality": "飯能市柳町23-13", 
      "region": "埼玉県", 
      "street-address": "", 
      "tellMain": "none", 
      "tellSub": "none"
    }, 
    "http://tabelog.com/saitama/A1106/A110603/11024031/": {
      "Category": [
        "パン"
      ], 
      "Homepage": "none", 
      "Lat": "35.8529944384645", 
      "Lon": "139.319087586433", 
      "Region": [
        "埼玉県", 
        "飯能市仲町8-15", 
        ""
      ], 
      "Reserve": "none", 
      "RestName": "英国屋", 
      "Tell": "042-973-8367", 
      "locality": "飯能市仲町8-15", 
      "region": "埼玉県", 
      "street-address": "", 
      "tellMain": "none", 
      "tellSub": "none"
    }, 
    "http://tabelog.com/saitama/A1106/A110603/11024198/": {
      "Category": [
        "ハンバーガー"
      ], 
      "Homepage": "none", 
      "Lat": "35.8488032384667", 
      "Lon": "139.317921086392", 
      "Region": [
        "埼玉県", 
        "飯能市南町9-23", 
        "ショッピングモールサビア飯能"
      ], 
      "Reserve": "none", 
      "RestName": "ロッテリア サビア飯能店（LOTTERIA）", 
      "Tell": "042-974-7444", 
      "locality": "飯能市南町9-23", 
      "region": "埼玉県", 
      "street-address": "ショッピングモールサビア飯能", 
      "tellMain": "none", 
      "tellSub": "none"
    }, 
    "http://tabelog.com/saitama/A1106/A110603/11025017/": {
      "Category": [
        "パン・サンドイッチ（その他）"
      ], 
      "Homepage": "none", 
      "Lat": "35.8508690153984", 
      "Lon": "139.320140059232", 
      "Region": [
        "埼玉県", 
        "飯能市仲町11-21", 
        "１Ｆ"
      ], 
      "Reserve": "none", 
      "RestName": "オーパル（OH!PAL）", 
      "Tell": "042-975-3086", 
      "locality": "飯能市仲町11-21", 
      "region": "埼玉県", 
      "street-address": "１Ｆ", 
      "tellMain": "none", 
      "tellSub": "none"
    }, 
    "http://tabelog.com/saitama/A1106/A110603/11025421/": {
      "Category": [
        "洋食・欧風料理（その他）"
      ], 
      "Homepage": "none", 
      "Lat": "35.8508648240749", 
      "Lon": "139.32016133629", 
      "Region": [
        "埼玉県", 
        "飯能市仲町11-21", 
        "西武飯能ステーションビル 11F"
      ], 
      "Reserve": "none", 
      "RestName": "銀河鉄道", 
      "Tell": "042-975-1313", 
      "locality": "飯能市仲町11-21", 
      "region": "埼玉県", 
      "street-address": "西武飯能ステーションビル 11F", 
      "tellMain": "none", 
      "tellSub": "none"
    }, 
    "http://tabelog.com/saitama/A1106/A110603/11025463/": {
      "Category": [
        "割烹・小料理"
      ], 
      "Homepage": "none", 
      "Lat": "35.8509243600354", 
      "Lon": "139.319161063094", 
      "Region": [
        "埼玉県", 
        "飯能市仲町11-21", 
        "西武飯能ステーションビル 5Ｆ"
      ], 
      "Reserve": "none", 
      "RestName": "和食処　じゃぽにか", 
      "Tell": "042-975-1313", 
      "locality": "飯能市仲町11-21", 
      "region": "埼玉県", 
      "street-address": "西武飯能ステーションビル 5Ｆ", 
      "tellMain": "none", 
      "tellSub": "none"
    }, 
    "http://tabelog.com/saitama/A1106/A110603/11026216/": {
      "Category": [
        "居酒屋"
      ], 
      "Homepage": "none", 
      "Lat": "35.8515636458969", 
      "Lon": "139.320600989824", 
      "Region": [
        "埼玉県", 
        "飯能市柳町23-14", 
        ""
      ], 
      "Reserve": "none", 
      "RestName": "居酒屋 福ちゃん", 
      "Tell": "非公開", 
      "locality": "飯能市柳町23-14", 
      "region": "埼玉県", 
      "street-address": "", 
      "tellMain": "none", 
      "tellSub": "none"
    }, 
    "http://tabelog.com/saitama/A1106/A110603/11026379/": {
      "Category": [
        "アイスクリーム"
      ], 
      "Homepage": "none", 
      "Lat": "35.8513000344944", 
      "Lon": "139.319300537966", 
      "Region": [
        "埼玉県", 
        "飯能市仲町11-21", 
        "西武飯能ペペ1F"
      ], 
      "Reserve": "none", 
      "RestName": "サーティワンアイスクリーム 西武飯能ペペ店", 
      "Tell": "042-974-5931", 
      "locality": "飯能市仲町11-21", 
      "region": "埼玉県", 
      "street-address": "西武飯能ペペ1F", 
      "tellMain": "none", 
      "tellSub": "none"
    }, 
    "http://tabelog.com/saitama/A1106/A110603/11026403/": {
      "Category": [
        "つけ麺"
      ], 
      "Homepage": "none", 
      "Lat": "35.8520594223102", 
      "Lon": "139.320378207722", 
      "Region": [
        "埼玉県", 
        "飯能市仲町9-3", 
        "多田野間ビル1F"
      ], 
      "Reserve": "none", 
      "RestName": "Ra（ラー）", 
      "Tell": "042-973-0606", 
      "locality": "飯能市仲町9-3", 
      "region": "埼玉県", 
      "street-address": "多田野間ビル1F", 
      "tellMain": "none", 
      "tellSub": "none"
    }, 
    "http://tabelog.com/saitama/A1106/A110603/11026438/": {
      "Category": [
        "焼鳥"
      ], 
      "Homepage": "none", 
      "Lat": "35.853100038465", 
      "Lon": "139.320828986433", 
      "Region": [
        "埼玉県", 
        "飯能市仲町1-2", 
        ""
      ], 
      "Reserve": "none", 
      "RestName": "花可", 
      "Tell": "042-973-0029", 
      "locality": "飯能市仲町1-2", 
      "region": "埼玉県", 
      "street-address": "", 
      "tellMain": "none", 
      "tellSub": "none"
    }, 
    "http://tabelog.com/saitama/A1106/A110603/11026545/": {
      "Category": [
        "ハンバーガー"
      ], 
      "Homepage": "none", 
      "Lat": "35.8516196384657", 
      "Lon": "139.320165286418", 
      "Region": [
        "埼玉県", 
        "飯能市仲町10-3", 
        ""
      ], 
      "Reserve": "none", 
      "RestName": "ケンタッキーフライドチキン 飯能駅前店", 
      "Tell": "042-975-1209", 
      "locality": "飯能市仲町10-3", 
      "region": "埼玉県", 
      "street-address": "", 
      "tellMain": "none", 
      "tellSub": "none"
    }, 
    "http://tabelog.com/saitama/A1106/A110603/11027658/": {
      "Category": [
        "居酒屋"
      ], 
      "Homepage": "none", 
      "Lat": "35.8541844921212", 
      "Lon": "139.321484962409", 
      "Region": [
        "埼玉県", 
        "飯能市東町18-6", 
        ""
      ], 
      "Reserve": "none", 
      "RestName": "壱善", 
      "Tell": "042-972-7933", 
      "locality": "飯能市東町18-6", 
      "region": "埼玉県", 
      "street-address": "", 
      "tellMain": "none", 
      "tellSub": "none"
    }, 
    "http://tabelog.com/saitama/A1106/A110603/11028870/": {
      "Category": [
        "カフェ", 
        "ケーキ"
      ], 
      "Homepage": "none", 
      "Lat": "35.854251706504", 
      "Lon": "139.321447740182", 
      "Region": [
        "埼玉県", 
        "飯能市東町18-8", 
        ""
      ], 
      "Reserve": "予約可", 
      "RestName": "Cafe fuWAri（カフェ フワリ）", 
      "Tell": "042-978-7545", 
      "locality": "飯能市東町18-8", 
      "region": "埼玉県", 
      "street-address": "", 
      "tellMain": "none", 
      "tellSub": "none"
    }, 
    "http://tabelog.com/saitama/A1106/A110603/11029276/": {
      "Category": [
        "中華料理", 
        "ラーメン", 
        "餃子"
      ], 
      "Homepage": "none", 
      "Lat": "35.8508697384661", 
      "Lon": "139.320140286411", 
      "Region": [
        "埼玉県", 
        "飯能市仲町11-21", 
        "西武飯能駅2F"
      ], 
      "Reserve": "none", 
      "RestName": "日高屋 飯能駅南口店", 
      "Tell": "042-971-6611", 
      "locality": "飯能市仲町11-21", 
      "region": "埼玉県", 
      "street-address": "西武飯能駅2F", 
      "tellMain": "none", 
      "tellSub": "none"
    }, 
    "http://tabelog.com/saitama/A1106/A110603/11029528/": {
      "Category": [
        "デリカテッセン"
      ], 
      "Homepage": "none", 
      "Lat": "35.8531111384646", 
      "Lon": "139.319884686434", 
      "Region": [
        "埼玉県", 
        "飯能市仲町3-10", 
        ""
      ], 
      "Reserve": "none", 
      "RestName": "滝長", 
      "Tell": "042-972-2327", 
      "locality": "飯能市仲町3-10", 
      "region": "埼玉県", 
      "street-address": "", 
      "tellMain": "none", 
      "tellSub": "none"
    }, 
    "http://tabelog.com/saitama/A1106/A110603/11029629/": {
      "Category": [
        "和菓子"
      ], 
      "Homepage": "none", 
      "Lat": "35.8531392484749", 
      "Lon": "139.318748002928", 
      "Region": [
        "埼玉県", 
        "飯能市仲町7-28", 
        ""
      ], 
      "Reserve": "none", 
      "RestName": "御菓子処　亀屋", 
      "Tell": "042-972-2507", 
      "locality": "飯能市仲町7-28", 
      "region": "埼玉県", 
      "street-address": "", 
      "tellMain": "none", 
      "tellSub": "none"
    }, 
    "http://tabelog.com/saitama/A1106/A110603/11030028/": {
      "Category": [
        "洋菓子（その他）"
      ], 
      "Homepage": "none", 
      "Lat": "35.8488002835262", 
      "Lon": "139.317919950825", 
      "Region": [
        "埼玉県", 
        "飯能市南町9-23", 
        "ショッピングモールサビア飯能"
      ], 
      "Reserve": "none", 
      "RestName": "コージーコーナー いなげやサビア飯能店", 
      "Tell": "042-974-7401", 
      "locality": "飯能市南町9-23", 
      "region": "埼玉県", 
      "street-address": "ショッピングモールサビア飯能", 
      "tellMain": "none", 
      "tellSub": "none"
    }, 
    "http://tabelog.com/saitama/A1106/A110603/11030325/": {
      "Category": [
        "カフェ"
      ], 
      "Homepage": "http://www.cafetanpopo.com", 
      "Lat": "35.8535203656632", 
      "Lon": "139.319720139555", 
      "Region": [
        "埼玉県", 
        "飯能市仲町4-12", 
        ""
      ], 
      "Reserve": "予約可", 
      "RestName": "たんぽぽ", 
      "Tell": "042-971-5580", 
      "locality": "飯能市仲町4-12", 
      "region": "埼玉県", 
      "street-address": "", 
      "tellMain": "none", 
      "tellSub": "none"
    }, 
    "http://tabelog.com/saitama/A1106/A110603/11030465/": {
      "Category": [
        "和菓子"
      ], 
      "Homepage": "none", 
      "Lat": "35.8508697384661", 
      "Lon": "139.320140286411", 
      "Region": [
        "埼玉県", 
        "飯能市仲町11-21", 
        "西武飯能ペペ1F"
      ], 
      "Reserve": "none", 
      "RestName": "銀座花のれん 西武飯能ペペ店", 
      "Tell": "042-983-1838", 
      "locality": "飯能市仲町11-21", 
      "region": "埼玉県", 
      "street-address": "西武飯能ペペ1F", 
      "tellMain": "none", 
      "tellSub": "none"
    }, 
    "http://tabelog.com/saitama/A1106/A110603/11031941/": {
      "Category": [
        "居酒屋", 
        "ダイニングバー", 
        "洋食"
      ], 
      "Homepage": "none", 
      "Lat": "35.8526909153917", 
      "Lon": "139.316651459296", 
      "Region": [
        "埼玉県", 
        "飯能市仲町16-9", 
        ""
      ], 
      "Reserve": "予約可", 
      "RestName": "路地裏マルタン", 
      "Tell": "042-973-9181", 
      "locality": "飯能市仲町16-9", 
      "region": "埼玉県", 
      "street-address": "", 
      "tellMain": "none", 
      "tellSub": "none"
    }, 
    "http://tabelog.com/saitama/A1106/A110603/11032172/": {
      "Category": [
        "カフェ"
      ], 
      "Homepage": "none", 
      "Lat": "35.8522104674827", 
      "Lon": "139.317528159685", 
      "Region": [
        "埼玉県", 
        "飯能市仲町13-4", 
        "仲町マンション 1F"
      ], 
      "Reserve": "none", 
      "RestName": "ふゎふゎふぅ", 
      "Tell": "042-973-8777", 
      "locality": "飯能市仲町13-4", 
      "region": "埼玉県", 
      "street-address": "仲町マンション 1F", 
      "tellMain": "none", 
      "tellSub": "none"
    }, 
    "http://tabelog.com/saitama/A1106/A110603/11033038/": {
      "Category": [
        "レストラン（その他）"
      ], 
      "Homepage": "none", 
      "Lat": "35.8533225336041", 
      "Lon": "139.318686143479", 
      "Region": [
        "埼玉県", 
        "飯能市仲町5-9", 
        ""
      ], 
      "Reserve": "none", 
      "RestName": "日替わりシェフレストラン", 
      "Tell": "042-978-8201", 
      "locality": "飯能市仲町5-9", 
      "region": "埼玉県", 
      "street-address": "", 
      "tellMain": "none", 
      "tellSub": "none"
    }, 
    "http://tabelog.com/saitama/A1106/A110603/11033219/": {
      "Category": [
        "たい焼き・大判焼き"
      ], 
      "Homepage": "none", 
      "Lat": "35.8522418384654", 
      "Lon": "139.320329086424", 
      "Region": [
        "埼玉県", 
        "飯能市仲町9-3", 
        ""
      ], 
      "Reserve": "none", 
      "RestName": "よね屋 甘太郎焼", 
      "Tell": "042-972-4223", 
      "locality": "飯能市仲町9-3", 
      "region": "埼玉県", 
      "street-address": "", 
      "tellMain": "none", 
      "tellSub": "none"
    }, 
    "http://tabelog.com/saitama/A1106/A110603/11033527/": {
      "Category": [
        "洋菓子（その他）"
      ], 
      "Homepage": "none", 
      "Lat": "35.8530113384668", 
      "Lon": "139.326395186428", 
      "Region": [
        "埼玉県", 
        "飯能市栄町24-4", 
        "丸広百貨店飯能店"
      ], 
      "Reserve": "none", 
      "RestName": "モロゾフ 丸広飯能店（morozoff）", 
      "Tell": "042-973-1111", 
      "locality": "飯能市栄町24-4", 
      "region": "埼玉県", 
      "street-address": "丸広百貨店飯能店", 
      "tellMain": "none", 
      "tellSub": "none"
    }, 
    "http://tabelog.com/saitama/A1106/A110603/11033987/": {
      "Category": [
        "中華料理", 
        "居酒屋", 
        "四川料理"
      ], 
      "Homepage": "http://www.localplace.jp/t100045891/", 
      "Lat": "35.8528306384652", 
      "Lon": "139.32116508643", 
      "Region": [
        "埼玉県", 
        "飯能市柳町7-9", 
        "誉田ビル 1F"
      ], 
      "Reserve": "予約可", 
      "RestName": "熊猫（パンダ）", 
      "Tell": "042-978-8996", 
      "locality": "飯能市柳町7-9", 
      "region": "埼玉県", 
      "street-address": "誉田ビル 1F", 
      "tellMain": "none", 
      "tellSub": "none"
    }, 
    "http://tabelog.com/saitama/A1106/A110603/11034601/": {
      "Category": [
        "和菓子", 
        "弁当", 
        "デリカテッセン"
      ], 
      "Homepage": "none", 
      "Lat": "35.852980133259", 
      "Lon": "139.319009667876", 
      "Region": [
        "埼玉県", 
        "飯能市仲町8-14", 
        ""
      ], 
      "Reserve": "none", 
      "RestName": "伊勢屋", 
      "Tell": "042-972-2962", 
      "locality": "飯能市仲町8-14", 
      "region": "埼玉県", 
      "street-address": "", 
      "tellMain": "none", 
      "tellSub": "none"
    }, 
    "http://tabelog.com/saitama/A1106/A110603/11034604/": {
      "Category": [
        "居酒屋", 
        "焼鳥"
      ], 
      "Homepage": "none", 
      "Lat": "35.8534749384638", 
      "Lon": "139.317845986438", 
      "Region": [
        "埼玉県", 
        "飯能市仲町7-21", 
        ""
      ], 
      "Reserve": "none", 
      "RestName": "でん", 
      "Tell": "090-2252-2888", 
      "locality": "飯能市仲町7-21", 
      "region": "埼玉県", 
      "street-address": "", 
      "tellMain": "none", 
      "tellSub": "none"
    }, 
    "http://tabelog.com/saitama/A1106/A110603/11035160/": {
      "Category": [
        "居酒屋"
      ], 
      "Homepage": "none", 
      "Lat": "35.8522612384647", 
      "Lon": "139.318426486426", 
      "Region": [
        "埼玉県", 
        "飯能市仲町12-1", 
        ""
      ], 
      "Reserve": "none", 
      "RestName": "せき", 
      "Tell": "042-972-6521", 
      "locality": "飯能市仲町12-1", 
      "region": "埼玉県", 
      "street-address": "", 
      "tellMain": "none", 
      "tellSub": "none"
    }, 
    "http://tabelog.com/saitama/A1106/A110603/11035493/": {
      "Category": [
        "和菓子"
      ], 
      "Homepage": "none", 
      "Lat": "35.8512002384656", 
      "Lon": "139.319170886415", 
      "Region": [
        "埼玉県", 
        "飯能市仲町11-21", 
        "西武飯能ペペ店 1F"
      ], 
      "Reserve": "none", 
      "RestName": "くらづくり本舗 飯能ペペ店", 
      "Tell": "042-974-7832", 
      "locality": "飯能市仲町11-21", 
      "region": "埼玉県", 
      "street-address": "西武飯能ペペ店 1F", 
      "tellMain": "none", 
      "tellSub": "none"
    }, 
    "http://tabelog.com/saitama/A1106/A110603/11036069/": {
      "Category": [
        "ラーメン", 
        "たこ焼き", 
        "たい焼き・大判焼き"
      ], 
      "Homepage": "none", 
      "Lat": "35.8488032384667", 
      "Lon": "139.317921086392", 
      "Region": [
        "埼玉県", 
        "飯能市南町9-23", 
        "サビア飯能 1F"
      ], 
      "Reserve": "予約不可", 
      "RestName": "一口茶屋 飯能サビア店", 
      "Tell": "042-983-0825", 
      "locality": "飯能市南町9-23", 
      "region": "埼玉県", 
      "street-address": "サビア飯能 1F", 
      "tellMain": "none", 
      "tellSub": "none"
    }, 
    "http://tabelog.com/saitama/A1106/A110603/11036070/": {
      "Category": [
        "焼肉", 
        "ホルモン"
      ], 
      "Homepage": "none", 
      "Lat": "35.8517208015827", 
      "Lon": "139.320249745926", 
      "Region": [
        "埼玉県", 
        "飯能市仲町10-1", 
        ""
      ], 
      "Reserve": "none", 
      "RestName": "焼肉 名門 飯能駅前", 
      "Tell": "042-983-0011", 
      "locality": "飯能市仲町10-1", 
      "region": "埼玉県", 
      "street-address": "", 
      "tellMain": "none", 
      "tellSub": "none"
    }, 
    "http://tabelog.com/saitama/A1106/A110603/11036909/": {
      "Category": [
        "ワインバー"
      ], 
      "Homepage": "none", 
      "Lat": "35.8547054384641", 
      "Lon": "139.321320586449", 
      "Region": [
        "埼玉県", 
        "飯能市八幡町9-16", 
        ""
      ], 
      "Reserve": "予約可", 
      "RestName": "ルードキッチン（RUDE KITCHEN ）", 
      "Tell": "042-971-4222", 
      "locality": "飯能市八幡町9-16", 
      "region": "埼玉県", 
      "street-address": "", 
      "tellMain": "none", 
      "tellSub": "none"
    }
  }
}