{
  "東京_狛江市_和泉多摩川": {
    "http://tabelog.com/tokyo/A1326/A132603/13007104/": {
      "Category": [
        "ケーキ", 
        "パン", 
        "洋菓子（その他）"
      ], 
      "Homepage": "none", 
      "Lat": "35.6245846118061", 
      "Lon": "139.576270762555", 
      "Region": [
        "東京都", 
        "狛江市猪方3-28-19", 
        ""
      ], 
      "Reserve": "予約可", 
      "RestName": "プレ・ドゥ・ラ・リヴィエール（Pres de la riviere）", 
      "Tell": "03-3430-4700", 
      "locality": "狛江市猪方3-28-19", 
      "region": "東京都", 
      "street-address": "", 
      "tellMain": "none", 
      "tellSub": "none"
    }, 
    "http://tabelog.com/tokyo/A1326/A132603/13024855/": {
      "Category": [
        "イタリアン", 
        "パスタ", 
        "ピザ"
      ], 
      "Homepage": "http://www.giraud.co.jp/mamma/index.html", 
      "Lat": "35.6301990512308", 
      "Lon": "139.578557814121", 
      "Region": [
        "東京都", 
        "狛江市東和泉1-33-2", 
        ""
      ], 
      "Reserve": "予約可", 
      "RestName": "マンマパスタ 狛江店（Mamma Pasta）", 
      "Tell": "03-3430-2350", 
      "locality": "狛江市東和泉1-33-2", 
      "region": "東京都", 
      "street-address": "", 
      "tellMain": "none", 
      "tellSub": "none"
    }, 
    "http://tabelog.com/tokyo/A1326/A132603/13028259/": {
      "Category": [
        "焼肉", 
        "ホルモン", 
        "韓国料理"
      ], 
      "Homepage": "none", 
      "Lat": "35.6318427505384", 
      "Lon": "139.57776947058", 
      "Region": [
        "東京都", 
        "狛江市東和泉1-19-7", 
        "細井ビル　１Ｆ"
      ], 
      "Reserve": "予約可", 
      "RestName": "牛角 狛江店", 
      "Tell": "050-5890-2992", 
      "locality": "狛江市東和泉1-19-7", 
      "region": "東京都", 
      "street-address": "細井ビル　１Ｆ", 
      "tellMain": "050-5890-2992（予約専用番号）", 
      "tellSub": "03-5438-1029（お問い合わせ専用番号）"
    }, 
    "http://tabelog.com/tokyo/A1326/A132603/13035728/": {
      "Category": [
        "広東料理", 
        "餃子", 
        "中華粥"
      ], 
      "Homepage": "http://www.grandhotel-kanachu.co.jp/tokoen/komae/index.html", 
      "Lat": "35.6318712604132", 
      "Lon": "139.576932756078", 
      "Region": [
        "東京都", 
        "狛江市元和泉1-8-8", 
        "小田急マルシェ1F"
      ], 
      "Reserve": "予約可", 
      "RestName": "東光苑 狛江店", 
      "Tell": "03-3430-1639", 
      "locality": "狛江市元和泉1-8-8", 
      "region": "東京都", 
      "street-address": "小田急マルシェ1F", 
      "tellMain": "none", 
      "tellSub": "none"
    }, 
    "http://tabelog.com/tokyo/A1326/A132603/13035951/": {
      "Category": [
        "焼肉", 
        "ホルモン"
      ], 
      "Homepage": "http://www.syokudo-en.com/", 
      "Lat": "35.62639329223", 
      "Lon": "139.575411583975", 
      "Region": [
        "東京都", 
        "狛江市猪方3-23-3", 
        ""
      ], 
      "Reserve": "予約可", 
      "RestName": "食道園（ショクドウエン）", 
      "Tell": "03-3480-1077", 
      "locality": "狛江市猪方3-23-3", 
      "region": "東京都", 
      "street-address": "", 
      "tellMain": "none", 
      "tellSub": "none"
    }, 
    "http://tabelog.com/tokyo/A1326/A132603/13045057/": {
      "Category": [
        "しゃぶしゃぶ", 
        "すき焼き", 
        "豚しゃぶ"
      ], 
      "Homepage": "none", 
      "Lat": "35.6321076386872", 
      "Lon": "139.577747884021", 
      "Region": [
        "東京都", 
        "狛江市東和泉1-18-1", 
        "北勢ビル2F"
      ], 
      "Reserve": "予約可", 
      "RestName": "しゃぶしゃぶ温野菜  狛江店", 
      "Tell": "050-5890-3799", 
      "locality": "狛江市東和泉1-18-1", 
      "region": "東京都", 
      "street-address": "北勢ビル2F", 
      "tellMain": "050-5890-3799（予約専用番号）", 
      "tellSub": "03-5761-0831（お問い合わせ専用番号）"
    }, 
    "http://tabelog.com/tokyo/A1326/A132603/13065584/": {
      "Category": [
        "焼鳥"
      ], 
      "Homepage": "none", 
      "Lat": "35.6266710072148", 
      "Lon": "139.573517284063", 
      "Region": [
        "東京都", 
        "狛江市東和泉3-11-17", 
        ""
      ], 
      "Reserve": "none", 
      "RestName": "居酒屋憩", 
      "Tell": "03-3488-3387", 
      "locality": "狛江市東和泉3-11-17", 
      "region": "東京都", 
      "street-address": "", 
      "tellMain": "none", 
      "tellSub": "none"
    }, 
    "http://tabelog.com/tokyo/A1326/A132603/13068319/": {
      "Category": [
        "そば", 
        "うどん"
      ], 
      "Homepage": "none", 
      "Lat": "35.6336257453793", 
      "Lon": "139.56930898002", 
      "Region": [
        "東京都", 
        "狛江市中和泉3-32-5", 
        ""
      ], 
      "Reserve": "none", 
      "RestName": "増田屋", 
      "Tell": "03-3489-6210", 
      "locality": "狛江市中和泉3-32-5", 
      "region": "東京都", 
      "street-address": "", 
      "tellMain": "none", 
      "tellSub": "none"
    }, 
    "http://tabelog.com/tokyo/A1326/A132603/13073510/": {
      "Category": [
        "中華料理", 
        "餃子", 
        "中華麺（その他）"
      ], 
      "Homepage": "http://www.kouka-china.com/", 
      "Lat": "35.6317358201851", 
      "Lon": "139.577921407331", 
      "Region": [
        "東京都", 
        "狛江市東和泉1-19-6", 
        "狛江会館"
      ], 
      "Reserve": "予約可", 
      "RestName": "好華（コウカ）", 
      "Tell": "03-3480-4748", 
      "locality": "狛江市東和泉1-19-6", 
      "region": "東京都", 
      "street-address": "狛江会館", 
      "tellMain": "none", 
      "tellSub": "none"
    }, 
    "http://tabelog.com/tokyo/A1326/A132603/13085689/": {
      "Category": [
        "居酒屋"
      ], 
      "Homepage": "none", 
      "Lat": "35.6319144119125", 
      "Lon": "139.577905289335", 
      "Region": [
        "東京都", 
        "狛江市東和泉1-19-8", 
        "狛江井上コーポ1F"
      ], 
      "Reserve": "none", 
      "RestName": "つぼ八 　狛江駅前店", 
      "Tell": "0066-9712-499815", 
      "locality": "狛江市東和泉1-19-8", 
      "region": "東京都", 
      "street-address": "狛江井上コーポ1F", 
      "tellMain": "0066-9712-499815（予約専用番号、通話料無料）", 
      "tellSub": "03-3430-1388（お問い合わせ専用番号）"
    }, 
    "http://tabelog.com/tokyo/A1326/A132603/13094164/": {
      "Category": [
        "割烹・小料理"
      ], 
      "Homepage": "none", 
      "Lat": "35.6263571386897", 
      "Lon": "139.574214083965", 
      "Region": [
        "東京都", 
        "狛江市東和泉3-10-1", 
        ""
      ], 
      "Reserve": "予約可", 
      "RestName": "キッチン７", 
      "Tell": "03-3480-0555", 
      "locality": "狛江市東和泉3-10-1", 
      "region": "東京都", 
      "street-address": "", 
      "tellMain": "none", 
      "tellSub": "none"
    }, 
    "http://tabelog.com/tokyo/A1326/A132603/13102734/": {
      "Category": [
        "ホルモン", 
        "焼肉", 
        "居酒屋"
      ], 
      "Homepage": "http://www.monteroza.co.jp/index.html", 
      "Lat": "35.631420302948", 
      "Lon": "139.578183066793", 
      "Region": [
        "東京都", 
        "狛江市東和泉1-22-18", 
        "谷田部ビル 1Ｆ"
      ], 
      "Reserve": "予約可", 
      "RestName": "狛江ホルモン おいで屋", 
      "Tell": "03-3480-5588", 
      "locality": "狛江市東和泉1-22-18", 
      "region": "東京都", 
      "street-address": "谷田部ビル 1Ｆ", 
      "tellMain": "none", 
      "tellSub": "none"
    }, 
    "http://tabelog.com/tokyo/A1326/A132603/13103846/": {
      "Category": [
        "居酒屋", 
        "魚介料理・海鮮料理", 
        "創作和食"
      ], 
      "Homepage": "http://www.monteroza.co.jp/index.html", 
      "Lat": "35.6314297459748", 
      "Lon": "139.578159734963", 
      "Region": [
        "東京都", 
        "狛江市東和泉1-22-18", 
        "谷田部ビル　1F"
      ], 
      "Reserve": "予約可", 
      "RestName": "魚民 狛江駅前店", 
      "Tell": "03-5497-4588", 
      "locality": "狛江市東和泉1-22-18", 
      "region": "東京都", 
      "street-address": "谷田部ビル　1F", 
      "tellMain": "none", 
      "tellSub": "none"
    }, 
    "http://tabelog.com/tokyo/A1326/A132603/13105778/": {
      "Category": [
        "焼鳥", 
        "寿司"
      ], 
      "Homepage": "http://www.facebook.com/kikai.yakitori", 
      "Lat": "35.6260044320384", 
      "Lon": "139.574673329855", 
      "Region": [
        "東京都", 
        "狛江市東和泉3-7-27", 
        "サニーマンション"
      ], 
      "Reserve": "予約可", 
      "RestName": "炭火焼やきとり喜界（キカイ）", 
      "Tell": "050-5872-7359", 
      "locality": "狛江市東和泉3-7-27", 
      "region": "東京都", 
      "street-address": "サニーマンション", 
      "tellMain": "050-5872-7359（予約専用番号）", 
      "tellSub": "03-3488-9800（お問い合わせ専用番号）"
    }, 
    "http://tabelog.com/tokyo/A1326/A132603/13108959/": {
      "Category": [
        "つけ麺", 
        "ラーメン"
      ], 
      "Homepage": "none", 
      "Lat": "35.6318811386872", 
      "Lon": "139.577468884018", 
      "Region": [
        "東京都", 
        "狛江市東和泉1-18-6号", 
        "1F"
      ], 
      "Reserve": "予約不可", 
      "RestName": "三ツ矢堂製麺 狛江店（ミツヤドウセイメン）", 
      "Tell": "03-5497-3033", 
      "locality": "狛江市東和泉1-18-6号", 
      "region": "東京都", 
      "street-address": "1F", 
      "tellMain": "none", 
      "tellSub": "none"
    }, 
    "http://tabelog.com/tokyo/A1326/A132603/13119501/": {
      "Category": [
        "バー"
      ], 
      "Homepage": "none", 
      "Lat": "35.6316408247132", 
      "Lon": "139.577598938486", 
      "Region": [
        "東京都", 
        "狛江市東和泉1-20-2", 
        "永光ビル B1"
      ], 
      "Reserve": "予約可", 
      "RestName": "BAR iCHi（バーイチ）", 
      "Tell": "03-5761-5582", 
      "locality": "狛江市東和泉1-20-2", 
      "region": "東京都", 
      "street-address": "永光ビル B1", 
      "tellMain": "none", 
      "tellSub": "none"
    }, 
    "http://tabelog.com/tokyo/A1326/A132603/13130198/": {
      "Category": [
        "バル・バール", 
        "イタリアン", 
        "居酒屋"
      ], 
      "Homepage": "http://r.gnavi.co.jp/ga9m002/", 
      "Lat": "35.6320243958644", 
      "Lon": "139.577660026863", 
      "Region": [
        "東京都", 
        "狛江市東和泉1-18-8", 
        "タカラビル3F"
      ], 
      "Reserve": "予約可", 
      "RestName": "Italianバル×テラス HOME狛江（イタリアンバルテラスホーム）", 
      "Tell": "03-5761-8872", 
      "locality": "狛江市東和泉1-18-8", 
      "region": "東京都", 
      "street-address": "タカラビル3F", 
      "tellMain": "none", 
      "tellSub": "none"
    }, 
    "http://tabelog.com/tokyo/A1326/A132603/13142813/": {
      "Category": [
        "焼鳥", 
        "和食（その他）"
      ], 
      "Homepage": "http://es-create.jp/gohei_izutama/main.php", 
      "Lat": "35.6266868385006", 
      "Lon": "139.573497007241", 
      "Region": [
        "東京都", 
        "狛江市東和泉3-11-17", 
        "1F"
      ], 
      "Reserve": "予約可", 
      "RestName": "炭屋五兵衛 和泉多摩川店", 
      "Tell": "03-3430-5397", 
      "locality": "狛江市東和泉3-11-17", 
      "region": "東京都", 
      "street-address": "1F", 
      "tellMain": "none", 
      "tellSub": "none"
    }, 
    "http://tabelog.com/tokyo/A1326/A132603/13155896/": {
      "Category": [
        "インド料理", 
        "インドカレー", 
        "カレーライス"
      ], 
      "Homepage": "http://www.spicekitchen.co.jp/", 
      "Lat": "35.6329392386867", 
      "Lon": "139.578099284029", 
      "Region": [
        "東京都", 
        "狛江市元和泉1-2-2", 
        "小田急マルシェ狛江 1F"
      ], 
      "Reserve": "予約不可", 
      "RestName": "スパイスキッチン 狛江店（Spice Kitchen）", 
      "Tell": "050-5890-3150", 
      "locality": "狛江市元和泉1-2-2", 
      "region": "東京都", 
      "street-address": "小田急マルシェ狛江 1F", 
      "tellMain": "050-5890-3150（予約専用番号）", 
      "tellSub": "03-5761-4848（お問い合わせ専用番号）"
    }, 
    "http://tabelog.com/tokyo/A1326/A132603/13158099/": {
      "Category": [
        "バー"
      ], 
      "Homepage": "http://www.benten-st.com/", 
      "Lat": "35.6320255386872", 
      "Lon": "139.577660484019", 
      "Region": [
        "東京都", 
        "狛江市東和泉1-18-8", 
        "狛江タカラビル B1F"
      ], 
      "Reserve": "予約不可", 
      "RestName": "BEN辿（ベンテン）", 
      "Tell": "03-5438-2302", 
      "locality": "狛江市東和泉1-18-8", 
      "region": "東京都", 
      "street-address": "狛江タカラビル B1F", 
      "tellMain": "none", 
      "tellSub": "none"
    }, 
    "http://tabelog.com/tokyo/A1326/A132603/13169557/": {
      "Category": [
        "カフェ", 
        "洋食", 
        "ハンバーグ"
      ], 
      "Homepage": "https://twitter.com/looptamagawa", 
      "Lat": "35.6258322386902", 
      "Lon": "139.575019683959", 
      "Region": [
        "東京都", 
        "狛江市東和泉3-7-4", 
        ""
      ], 
      "Reserve": "予約可", 
      "RestName": "Loop", 
      "Tell": "050-5570-2152", 
      "locality": "狛江市東和泉3-7-4", 
      "region": "東京都", 
      "street-address": "", 
      "tellMain": "050-5570-2152（予約専用番号）", 
      "tellSub": "03-5761-7992（お問い合わせ専用番号）"
    }
  }, 
  "東京_狛江市_狛江": {
    "http://tabelog.com/tokyo/A1318/A131814/13162556/": {
      "Category": [
        "バー"
      ], 
      "Homepage": "http://ameblo.jp/jest-12/", 
      "Lat": "35.6373329386846", 
      "Lon": "139.580390284071", 
      "Region": [
        "東京都", 
        "狛江市岩戸北1-10-6", 
        "甲武ビル 1F"
      ], 
      "Reserve": "none", 
      "RestName": "バー ジェスト（Bar JEST.）", 
      "Tell": "03-5761-9460", 
      "locality": "狛江市岩戸北1-10-6", 
      "region": "東京都", 
      "street-address": "甲武ビル 1F", 
      "tellMain": "none", 
      "tellSub": "none"
    }, 
    "http://tabelog.com/tokyo/A1326/A132603/13001997/": {
      "Category": [
        "ケーキ", 
        "喫茶店"
      ], 
      "Homepage": "none", 
      "Lat": "35.6339894830539", 
      "Lon": "139.578782065425", 
      "Region": [
        "東京都", 
        "狛江市和泉本町1-2-8", 
        "ウィスタリア狛江ビル　１Ｆ"
      ], 
      "Reserve": "予約可", 
      "RestName": "夢菓子工房セ・ジュール（ユメカシコウボウセジュール）", 
      "Tell": "03-3480-8862", 
      "locality": "狛江市和泉本町1-2-8", 
      "region": "東京都", 
      "street-address": "ウィスタリア狛江ビル　１Ｆ", 
      "tellMain": "none", 
      "tellSub": "none"
    }, 
    "http://tabelog.com/tokyo/A1326/A132603/13013140/": {
      "Category": [
        "中華料理"
      ], 
      "Homepage": "none", 
      "Lat": "35.6346005082722", 
      "Lon": "139.577606301605", 
      "Region": [
        "東京都", 
        "狛江市中和泉1-2-6", 
        ""
      ], 
      "Reserve": "none", 
      "RestName": "魯園菜館（ロエンサイカン）", 
      "Tell": "03-3430-1382", 
      "locality": "狛江市中和泉1-2-6", 
      "region": "東京都", 
      "street-address": "", 
      "tellMain": "none", 
      "tellSub": "none"
    }, 
    "http://tabelog.com/tokyo/A1326/A132603/13013765/": {
      "Category": [
        "天ぷら"
      ], 
      "Homepage": "none", 
      "Lat": "35.6319357759993", 
      "Lon": "139.576616228743", 
      "Region": [
        "東京都", 
        "狛江市元和泉1-8-12", 
        "泉の森会館　１Ｆ"
      ], 
      "Reserve": "none", 
      "RestName": "つきじ天六（つきじてんろく）", 
      "Tell": "03-3430-6800", 
      "locality": "狛江市元和泉1-8-12", 
      "region": "東京都", 
      "street-address": "泉の森会館　１Ｆ", 
      "tellMain": "none", 
      "tellSub": "none"
    }, 
    "http://tabelog.com/tokyo/A1326/A132603/13024855/": {
      "Category": [
        "イタリアン", 
        "パスタ", 
        "ピザ"
      ], 
      "Homepage": "http://www.giraud.co.jp/mamma/index.html", 
      "Lat": "35.6301990512308", 
      "Lon": "139.578557814121", 
      "Region": [
        "東京都", 
        "狛江市東和泉1-33-2", 
        ""
      ], 
      "Reserve": "予約可", 
      "RestName": "マンマパスタ 狛江店（Mamma Pasta）", 
      "Tell": "03-3430-2350", 
      "locality": "狛江市東和泉1-33-2", 
      "region": "東京都", 
      "street-address": "", 
      "tellMain": "none", 
      "tellSub": "none"
    }, 
    "http://tabelog.com/tokyo/A1326/A132603/13028006/": {
      "Category": [
        "居酒屋"
      ], 
      "Homepage": "none", 
      "Lat": "35.6324121383978", 
      "Lon": "139.578016646056", 
      "Region": [
        "東京都", 
        "狛江市東和泉1-15-7", 
        "都堂ビル　Ｂ１Ｆ"
      ], 
      "Reserve": "予約可", 
      "RestName": "新撰組 狛江店（しんせんぐみ）", 
      "Tell": "03-5497-5554", 
      "locality": "狛江市東和泉1-15-7", 
      "region": "東京都", 
      "street-address": "都堂ビル　Ｂ１Ｆ", 
      "tellMain": "none", 
      "tellSub": "none"
    }, 
    "http://tabelog.com/tokyo/A1326/A132603/13028259/": {
      "Category": [
        "焼肉", 
        "ホルモン", 
        "韓国料理"
      ], 
      "Homepage": "none", 
      "Lat": "35.6318427505384", 
      "Lon": "139.57776947058", 
      "Region": [
        "東京都", 
        "狛江市東和泉1-19-7", 
        "細井ビル　１Ｆ"
      ], 
      "Reserve": "予約可", 
      "RestName": "牛角 狛江店", 
      "Tell": "050-5890-2992", 
      "locality": "狛江市東和泉1-19-7", 
      "region": "東京都", 
      "street-address": "細井ビル　１Ｆ", 
      "tellMain": "050-5890-2992（予約専用番号）", 
      "tellSub": "03-5438-1029（お問い合わせ専用番号）"
    }, 
    "http://tabelog.com/tokyo/A1326/A132603/13028505/": {
      "Category": [
        "ラーメン"
      ], 
      "Homepage": "none", 
      "Lat": "35.6338861841189", 
      "Lon": "139.578836796818", 
      "Region": [
        "東京都", 
        "狛江市和泉本町1-2-6", 
        ""
      ], 
      "Reserve": "none", 
      "RestName": "麺屋 黒船 狛江店（めんや くろふね）", 
      "Tell": "03-3489-9622", 
      "locality": "狛江市和泉本町1-2-6", 
      "region": "東京都", 
      "street-address": "", 
      "tellMain": "none", 
      "tellSub": "none"
    }, 
    "http://tabelog.com/tokyo/A1326/A132603/13030177/": {
      "Category": [
        "洋食・欧風料理（その他）"
      ], 
      "Homepage": "http://loco.yahoo.co.jp/place/4ae519c6d072d501cbf78620195c2dc42a2cf396/", 
      "Lat": "35.634017536599", 
      "Lon": "139.578838726097", 
      "Region": [
        "東京都", 
        "狛江市和泉本町1-2-12", 
        ""
      ], 
      "Reserve": "予約可", 
      "RestName": "ビストロ THE 健（ビストロ・ザ・ケン）", 
      "Tell": "03-5497-0450", 
      "locality": "狛江市和泉本町1-2-12", 
      "region": "東京都", 
      "street-address": "", 
      "tellMain": "none", 
      "tellSub": "none"
    }, 
    "http://tabelog.com/tokyo/A1326/A132603/13035814/": {
      "Category": [
        "居酒屋"
      ], 
      "Homepage": "none", 
      "Lat": "35.6318712604132", 
      "Lon": "139.576932756078", 
      "Region": [
        "東京都", 
        "狛江市元和泉1-8-8", 
        "小田急マルシェ　１Ｆ"
      ], 
      "Reserve": "none", 
      "RestName": "鮮乃庄 狛江店（せんのしょう）", 
      "Tell": "03-3430-2861", 
      "locality": "狛江市元和泉1-8-8", 
      "region": "東京都", 
      "street-address": "小田急マルシェ　１Ｆ", 
      "tellMain": "none", 
      "tellSub": "none"
    }, 
    "http://tabelog.com/tokyo/A1326/A132603/13035867/": {
      "Category": [
        "回転寿司"
      ], 
      "Homepage": "none", 
      "Lat": "35.6328415364432", 
      "Lon": "139.577989684085", 
      "Region": [
        "東京都", 
        "狛江市元和泉1-2-2", 
        "小田急マルシェ狛江　１Ｆ"
      ], 
      "Reserve": "none", 
      "RestName": "まぐろ人 狛江店", 
      "Tell": "03-5438-5220", 
      "locality": "狛江市元和泉1-2-2", 
      "region": "東京都", 
      "street-address": "小田急マルシェ狛江　１Ｆ", 
      "tellMain": "none", 
      "tellSub": "none"
    }, 
    "http://tabelog.com/tokyo/A1326/A132603/13035868/": {
      "Category": [
        "中華料理"
      ], 
      "Homepage": "none", 
      "Lat": "35.6318566320091", 
      "Lon": "139.577429775932", 
      "Region": [
        "東京都", 
        "狛江市東和泉1-18-6", 
        "狛江ファーストビル2F"
      ], 
      "Reserve": "none", 
      "RestName": "留園", 
      "Tell": "03-3488-8788", 
      "locality": "狛江市東和泉1-18-6", 
      "region": "東京都", 
      "street-address": "狛江ファーストビル2F", 
      "tellMain": "none", 
      "tellSub": "none"
    }, 
    "http://tabelog.com/tokyo/A1326/A132603/13036890/": {
      "Category": [
        "寿司"
      ], 
      "Homepage": "none", 
      "Lat": "35.6297365836823", 
      "Lon": "139.577583749646", 
      "Region": [
        "東京都", 
        "狛江市東和泉1-33-10", 
        ""
      ], 
      "Reserve": "none", 
      "RestName": "蛇の目鮨", 
      "Tell": "03-3488-7146", 
      "locality": "狛江市東和泉1-33-10", 
      "region": "東京都", 
      "street-address": "", 
      "tellMain": "none", 
      "tellSub": "none"
    }, 
    "http://tabelog.com/tokyo/A1326/A132603/13041569/": {
      "Category": [
        "タイ料理"
      ], 
      "Homepage": "none", 
      "Lat": "35.6342208320703", 
      "Lon": "139.577916015586", 
      "Region": [
        "東京都", 
        "狛江市中和泉1-2-10", 
        "しらいビル1F"
      ], 
      "Reserve": "予約可", 
      "RestName": "トムヤムクン", 
      "Tell": "050-5890-6216", 
      "locality": "狛江市中和泉1-2-10", 
      "region": "東京都", 
      "street-address": "しらいビル1F", 
      "tellMain": "050-5890-6216（予約専用番号）", 
      "tellSub": "03-3488-6711（お問い合わせ専用番号）"
    }, 
    "http://tabelog.com/tokyo/A1326/A132603/13044120/": {
      "Category": [
        "バー"
      ], 
      "Homepage": "http://ameblo.jp/lingua-franca/", 
      "Lat": "35.6343155355949", 
      "Lon": "139.577425496407", 
      "Region": [
        "東京都", 
        "狛江市中和泉1-2-15", 
        "コーポみすみ102"
      ], 
      "Reserve": "予約可", 
      "RestName": "バー リンガフランカ（Bar Lingua Franca）", 
      "Tell": "03-3480-0950", 
      "locality": "狛江市中和泉1-2-15", 
      "region": "東京都", 
      "street-address": "コーポみすみ102", 
      "tellMain": "none", 
      "tellSub": "none"
    }, 
    "http://tabelog.com/tokyo/A1326/A132603/13045057/": {
      "Category": [
        "しゃぶしゃぶ", 
        "すき焼き", 
        "豚しゃぶ"
      ], 
      "Homepage": "none", 
      "Lat": "35.6321076386872", 
      "Lon": "139.577747884021", 
      "Region": [
        "東京都", 
        "狛江市東和泉1-18-1", 
        "北勢ビル2F"
      ], 
      "Reserve": "予約可", 
      "RestName": "しゃぶしゃぶ温野菜  狛江店", 
      "Tell": "050-5890-3799", 
      "locality": "狛江市東和泉1-18-1", 
      "region": "東京都", 
      "street-address": "北勢ビル2F", 
      "tellMain": "050-5890-3799（予約専用番号）", 
      "tellSub": "03-5761-0831（お問い合わせ専用番号）"
    }, 
    "http://tabelog.com/tokyo/A1326/A132603/13048348/": {
      "Category": [
        "ラーメン"
      ], 
      "Homepage": "none", 
      "Lat": "35.6321336386871", 
      "Lon": "139.577762884021", 
      "Region": [
        "東京都", 
        "狛江市東和泉1丁目18-1", 
        ""
      ], 
      "Reserve": "none", 
      "RestName": "だるまのめ  狛江駅前店", 
      "Tell": "03-3430-4431", 
      "locality": "狛江市東和泉1丁目18-1", 
      "region": "東京都", 
      "street-address": "", 
      "tellMain": "none", 
      "tellSub": "none"
    }, 
    "http://tabelog.com/tokyo/A1326/A132603/13049330/": {
      "Category": [
        "イタリアン", 
        "ピザ", 
        "パスタ"
      ], 
      "Homepage": "http://vinouno-komae.com/", 
      "Lat": "35.6320006386869", 
      "Lon": "139.57666088402", 
      "Region": [
        "東京都", 
        "狛江市元和泉1-8-12", 
        ""
      ], 
      "Reserve": "予約可", 
      "RestName": "Vino uno（ヴィーノ ウノ）", 
      "Tell": "03-3430-4884", 
      "locality": "狛江市元和泉1-8-12", 
      "region": "東京都", 
      "street-address": "", 
      "tellMain": "none", 
      "tellSub": "none"
    }, 
    "http://tabelog.com/tokyo/A1326/A132603/13054188/": {
      "Category": [
        "串揚げ・串かつ"
      ], 
      "Homepage": "none", 
      "Lat": "35.6317747049536", 
      "Lon": "139.577923627578", 
      "Region": [
        "東京都", 
        "狛江市東和泉1-19-6", 
        "狛江会館　１Ｆ"
      ], 
      "Reserve": "none", 
      "RestName": "串かつ 山吹（やまぶき）", 
      "Tell": "03-3430-2284", 
      "locality": "狛江市東和泉1-19-6", 
      "region": "東京都", 
      "street-address": "狛江会館　１Ｆ", 
      "tellMain": "none", 
      "tellSub": "none"
    }, 
    "http://tabelog.com/tokyo/A1326/A132603/13054678/": {
      "Category": [
        "居酒屋"
      ], 
      "Homepage": "none", 
      "Lat": "35.6311476386871", 
      "Lon": "139.575754884012", 
      "Region": [
        "東京都", 
        "狛江市元和泉1丁目11-6", 
        ""
      ], 
      "Reserve": "none", 
      "RestName": "ねぶた", 
      "Tell": "03-3480-8009", 
      "locality": "狛江市元和泉1丁目11-6", 
      "region": "東京都", 
      "street-address": "", 
      "tellMain": "none", 
      "tellSub": "none"
    }, 
    "http://tabelog.com/tokyo/A1326/A132603/13055157/": {
      "Category": [
        "韓国料理"
      ], 
      "Homepage": "none", 
      "Lat": "35.632803238858", 
      "Lon": "139.579801757577", 
      "Region": [
        "東京都", 
        "狛江市東和泉1-11-6", 
        "メゾンドゥ倉橋　１Ｆ"
      ], 
      "Reserve": "予約可", 
      "RestName": "韓屋台 李俊（カンヤタイ リシュン）", 
      "Tell": "03-3430-1285", 
      "locality": "狛江市東和泉1-11-6", 
      "region": "東京都", 
      "street-address": "メゾンドゥ倉橋　１Ｆ", 
      "tellMain": "none", 
      "tellSub": "none"
    }, 
    "http://tabelog.com/tokyo/A1326/A132603/13057309/": {
      "Category": [
        "パン"
      ], 
      "Homepage": "none", 
      "Lat": "35.6339300311465", 
      "Lon": "139.577990744991", 
      "Region": [
        "東京都", 
        "狛江市中和泉1-1-1", 
        ""
      ], 
      "Reserve": "none", 
      "RestName": "ちいさなパンの木", 
      "Tell": "03-3489-6860", 
      "locality": "狛江市中和泉1-1-1", 
      "region": "東京都", 
      "street-address": "", 
      "tellMain": "none", 
      "tellSub": "none"
    }, 
    "http://tabelog.com/tokyo/A1326/A132603/13060629/": {
      "Category": [
        "インドカレー", 
        "インド料理"
      ], 
      "Homepage": "http://www.komaeria.com/phoolwari/index.html", 
      "Lat": "35.6319877339876", 
      "Lon": "139.577709746644", 
      "Region": [
        "東京都", 
        "狛江市東和泉1-18-5", 
        ""
      ], 
      "Reserve": "none", 
      "RestName": "印度料理 プルワリ", 
      "Tell": "03-5497-5559", 
      "locality": "狛江市東和泉1-18-5", 
      "region": "東京都", 
      "street-address": "", 
      "tellMain": "none", 
      "tellSub": "none"
    }, 
    "http://tabelog.com/tokyo/A1326/A132603/13065582/": {
      "Category": [
        "焼鳥"
      ], 
      "Homepage": "none", 
      "Lat": "35.6315566705604", 
      "Lon": "139.57780003677", 
      "Region": [
        "東京都", 
        "狛江市東和泉1-21-9", 
        ""
      ], 
      "Reserve": "none", 
      "RestName": "酒連人", 
      "Tell": "03-3480-9756", 
      "locality": "狛江市東和泉1-21-9", 
      "region": "東京都", 
      "street-address": "", 
      "tellMain": "none", 
      "tellSub": "none"
    }, 
    "http://tabelog.com/tokyo/A1326/A132603/13066996/": {
      "Category": [
        "焼肉", 
        "韓国料理"
      ], 
      "Homepage": "none", 
      "Lat": "35.6320060647004", 
      "Lon": "139.577671971159", 
      "Region": [
        "東京都", 
        "狛江市東和泉1-18-8", 
        ""
      ], 
      "Reserve": "none", 
      "RestName": "じゃらん 狛江（【旧店名：とんままダイニング】）", 
      "Tell": "03-3488-9029", 
      "locality": "狛江市東和泉1-18-8", 
      "region": "東京都", 
      "street-address": "", 
      "tellMain": "none", 
      "tellSub": "none"
    }, 
    "http://tabelog.com/tokyo/A1326/A132603/13069816/": {
      "Category": [
        "懐石・会席料理", 
        "割烹・小料理"
      ], 
      "Homepage": "none", 
      "Lat": "35.6338403104609", 
      "Lon": "139.578904412855", 
      "Region": [
        "東京都", 
        "狛江市和泉本町1-2-6", 
        ""
      ], 
      "Reserve": "none", 
      "RestName": "新富", 
      "Tell": "03-3489-9491", 
      "locality": "狛江市和泉本町1-2-6", 
      "region": "東京都", 
      "street-address": "", 
      "tellMain": "none", 
      "tellSub": "none"
    }, 
    "http://tabelog.com/tokyo/A1326/A132603/13069864/": {
      "Category": [
        "懐石・会席料理", 
        "割烹・小料理", 
        "うなぎ"
      ], 
      "Homepage": "http://www.komaeria.com/ougiya/", 
      "Lat": "35.6320227347753", 
      "Lon": "139.577969167931", 
      "Region": [
        "東京都", 
        "狛江市東和泉1-19-1", 
        ""
      ], 
      "Reserve": "予約可", 
      "RestName": "扇屋", 
      "Tell": "03-3480-0111", 
      "locality": "狛江市東和泉1-19-1", 
      "region": "東京都", 
      "street-address": "", 
      "tellMain": "none", 
      "tellSub": "none"
    }, 
    "http://tabelog.com/tokyo/A1326/A132603/13072143/": {
      "Category": [
        "寿司"
      ], 
      "Homepage": "none", 
      "Lat": "35.6302623934694", 
      "Lon": "139.579455514429", 
      "Region": [
        "東京都", 
        "狛江市東和泉2-13-1", 
        ""
      ], 
      "Reserve": "none", 
      "RestName": "富鮨", 
      "Tell": "03-5497-4416", 
      "locality": "狛江市東和泉2-13-1", 
      "region": "東京都", 
      "street-address": "", 
      "tellMain": "none", 
      "tellSub": "none"
    }, 
    "http://tabelog.com/tokyo/A1326/A132603/13073510/": {
      "Category": [
        "中華料理", 
        "餃子", 
        "中華麺（その他）"
      ], 
      "Homepage": "http://www.kouka-china.com/", 
      "Lat": "35.6317358201851", 
      "Lon": "139.577921407331", 
      "Region": [
        "東京都", 
        "狛江市東和泉1-19-6", 
        "狛江会館"
      ], 
      "Reserve": "予約可", 
      "RestName": "好華（コウカ）", 
      "Tell": "03-3480-4748", 
      "locality": "狛江市東和泉1-19-6", 
      "region": "東京都", 
      "street-address": "狛江会館", 
      "tellMain": "none", 
      "tellSub": "none"
    }, 
    "http://tabelog.com/tokyo/A1326/A132603/13074699/": {
      "Category": [
        "居酒屋"
      ], 
      "Homepage": "none", 
      "Lat": "35.6336536879377", 
      "Lon": "139.578913736616", 
      "Region": [
        "東京都", 
        "狛江市元和泉1-1-13", 
        ""
      ], 
      "Reserve": "none", 
      "RestName": "たぬき", 
      "Tell": "03-3430-3130", 
      "locality": "狛江市元和泉1-1-13", 
      "region": "東京都", 
      "street-address": "", 
      "tellMain": "none", 
      "tellSub": "none"
    }, 
    "http://tabelog.com/tokyo/A1326/A132603/13074871/": {
      "Category": [
        "居酒屋"
      ], 
      "Homepage": "none", 
      "Lat": "35.6336536879377", 
      "Lon": "139.578913736616", 
      "Region": [
        "東京都", 
        "狛江市元和泉1-1-13", 
        ""
      ], 
      "Reserve": "none", 
      "RestName": "ます田", 
      "Tell": "03-5497-2275", 
      "locality": "狛江市元和泉1-1-13", 
      "region": "東京都", 
      "street-address": "", 
      "tellMain": "none", 
      "tellSub": "none"
    }, 
    "http://tabelog.com/tokyo/A1326/A132603/13078998/": {
      "Category": [
        "居酒屋"
      ], 
      "Homepage": "none", 
      "Lat": "35.6341087442565", 
      "Lon": "139.577656140327", 
      "Region": [
        "東京都", 
        "狛江市中和泉1-2-13", 
        ""
      ], 
      "Reserve": "none", 
      "RestName": "このゆびとまれ", 
      "Tell": "03-3489-1607", 
      "locality": "狛江市中和泉1-2-13", 
      "region": "東京都", 
      "street-address": "", 
      "tellMain": "none", 
      "tellSub": "none"
    }, 
    "http://tabelog.com/tokyo/A1326/A132603/13082900/": {
      "Category": [
        "うなぎ"
      ], 
      "Homepage": "none", 
      "Lat": "35.6320736042262", 
      "Lon": "139.577942900413", 
      "Region": [
        "東京都", 
        "狛江市東和泉1-19-1", 
        ""
      ], 
      "Reserve": "none", 
      "RestName": "浜名ッ子", 
      "Tell": "03-3488-3088", 
      "locality": "狛江市東和泉1-19-1", 
      "region": "東京都", 
      "street-address": "", 
      "tellMain": "none", 
      "tellSub": "none"
    }, 
    "http://tabelog.com/tokyo/A1326/A132603/13085067/": {
      "Category": [
        "居酒屋"
      ], 
      "Homepage": "none", 
      "Lat": "35.6314872269117", 
      "Lon": "139.577611188984", 
      "Region": [
        "東京都", 
        "狛江市東和泉1-20-4", 
        ""
      ], 
      "Reserve": "none", 
      "RestName": "遊友", 
      "Tell": "03-3488-9369", 
      "locality": "狛江市東和泉1-20-4", 
      "region": "東京都", 
      "street-address": "", 
      "tellMain": "none", 
      "tellSub": "none"
    }, 
    "http://tabelog.com/tokyo/A1326/A132603/13085068/": {
      "Category": [
        "居酒屋"
      ], 
      "Homepage": "none", 
      "Lat": "35.6338087724658", 
      "Lon": "139.57894157353", 
      "Region": [
        "東京都", 
        "狛江市和泉本町1-2-5", 
        ""
      ], 
      "Reserve": "none", 
      "RestName": "じゅん（旬゛）", 
      "Tell": "03-3488-6080", 
      "locality": "狛江市和泉本町1-2-5", 
      "region": "東京都", 
      "street-address": "", 
      "tellMain": "none", 
      "tellSub": "none"
    }, 
    "http://tabelog.com/tokyo/A1326/A132603/13085633/": {
      "Category": [
        "居酒屋"
      ], 
      "Homepage": "none", 
      "Lat": "35.6316549942356", 
      "Lon": "139.577849194826", 
      "Region": [
        "東京都", 
        "狛江市東和泉1-21-1", 
        "成和ビル 1F"
      ], 
      "Reserve": "none", 
      "RestName": "養老乃瀧 狛江店", 
      "Tell": "03-3488-5789", 
      "locality": "狛江市東和泉1-21-1", 
      "region": "東京都", 
      "street-address": "成和ビル 1F", 
      "tellMain": "none", 
      "tellSub": "none"
    }, 
    "http://tabelog.com/tokyo/A1326/A132603/13085689/": {
      "Category": [
        "居酒屋"
      ], 
      "Homepage": "none", 
      "Lat": "35.6319144119125", 
      "Lon": "139.577905289335", 
      "Region": [
        "東京都", 
        "狛江市東和泉1-19-8", 
        "狛江井上コーポ1F"
      ], 
      "Reserve": "none", 
      "RestName": "つぼ八 　狛江駅前店", 
      "Tell": "0066-9712-499815", 
      "locality": "狛江市東和泉1-19-8", 
      "region": "東京都", 
      "street-address": "狛江井上コーポ1F", 
      "tellMain": "0066-9712-499815（予約専用番号、通話料無料）", 
      "tellSub": "03-3430-1388（お問い合わせ専用番号）"
    }, 
    "http://tabelog.com/tokyo/A1326/A132603/13087198/": {
      "Category": [
        "喫茶店"
      ], 
      "Homepage": "none", 
      "Lat": "35.6318255298621", 
      "Lon": "139.577752528337", 
      "Region": [
        "東京都", 
        "狛江市東和泉1-19-7", 
        ""
      ], 
      "Reserve": "none", 
      "RestName": "マドカカフェアンドハーブ（MadokaCAFE&amp;HERB）", 
      "Tell": "03-3480-0482", 
      "locality": "狛江市東和泉1-19-7", 
      "region": "東京都", 
      "street-address": "", 
      "tellMain": "none", 
      "tellSub": "none"
    }, 
    "http://tabelog.com/tokyo/A1326/A132603/13087976/": {
      "Category": [
        "中華麺（その他）", 
        "つけ麺"
      ], 
      "Homepage": "none", 
      "Lat": "35.6341946386863", 
      "Lon": "139.57934898404", 
      "Region": [
        "東京都", 
        "狛江市和泉本町1-2-12", 
        ""
      ], 
      "Reserve": "none", 
      "RestName": "一心亭 狛江店", 
      "Tell": "03-3480-6775", 
      "locality": "狛江市和泉本町1-2-12", 
      "region": "東京都", 
      "street-address": "", 
      "tellMain": "none", 
      "tellSub": "none"
    }, 
    "http://tabelog.com/tokyo/A1326/A132603/13088510/": {
      "Category": [
        "レストラン（その他）"
      ], 
      "Homepage": "none", 
      "Lat": "35.6341341752941", 
      "Lon": "139.577697159974", 
      "Region": [
        "東京都", 
        "狛江市中和泉1-2-13", 
        ""
      ], 
      "Reserve": "none", 
      "RestName": "フォンティーヌ", 
      "Tell": "03-3488-7232", 
      "locality": "狛江市中和泉1-2-13", 
      "region": "東京都", 
      "street-address": "", 
      "tellMain": "none", 
      "tellSub": "none"
    }, 
    "http://tabelog.com/tokyo/A1326/A132603/13088619/": {
      "Category": [
        "喫茶店", 
        "コーヒー専門店"
      ], 
      "Homepage": "none", 
      "Lat": "35.6316238825176", 
      "Lon": "139.57762393719", 
      "Region": [
        "東京都", 
        "狛江市東和泉1-20-2", 
        ""
      ], 
      "Reserve": "none", 
      "RestName": "ぽえむ 狛江南口店（【旧店名：ポエム】）", 
      "Tell": "03-5761-5569", 
      "locality": "狛江市東和泉1-20-2", 
      "region": "東京都", 
      "street-address": "", 
      "tellMain": "none", 
      "tellSub": "none"
    }, 
    "http://tabelog.com/tokyo/A1326/A132603/13089725/": {
      "Category": [
        "アイスクリーム"
      ], 
      "Homepage": "none", 
      "Lat": "35.6327374466566", 
      "Lon": "139.577822569269", 
      "Region": [
        "東京都", 
        "狛江市元和泉1-2-2", 
        "小田急マルシェA棟"
      ], 
      "Reserve": "none", 
      "RestName": "サーティワンアイスクリーム 狛江店", 
      "Tell": "03-3488-2149", 
      "locality": "狛江市元和泉1-2-2", 
      "region": "東京都", 
      "street-address": "小田急マルシェA棟", 
      "tellMain": "none", 
      "tellSub": "none"
    }, 
    "http://tabelog.com/tokyo/A1326/A132603/13090232/": {
      "Category": [
        "カフェ・喫茶（その他）"
      ], 
      "Homepage": "none", 
      "Lat": "35.6327065651457", 
      "Lon": "139.577739304816", 
      "Region": [
        "東京都", 
        "狛江市元和泉1-2-2", 
        ""
      ], 
      "Reserve": "none", 
      "RestName": "ミスタードーナツ 狛江駅前", 
      "Tell": "03-5438-7250", 
      "locality": "狛江市元和泉1-2-2", 
      "region": "東京都", 
      "street-address": "", 
      "tellMain": "none", 
      "tellSub": "none"
    }, 
    "http://tabelog.com/tokyo/A1326/A132603/13091474/": {
      "Category": [
        "弁当", 
        "和食（その他）"
      ], 
      "Homepage": "http://irodorigohan.jimdo.com/", 
      "Lat": "35.6313157037795", 
      "Lon": "139.576661056764", 
      "Region": [
        "東京都", 
        "狛江市東和泉1-30-13", 
        ""
      ], 
      "Reserve": "予約可", 
      "RestName": "彩りごはん", 
      "Tell": "03-3489-1730", 
      "locality": "狛江市東和泉1-30-13", 
      "region": "東京都", 
      "street-address": "", 
      "tellMain": "none", 
      "tellSub": "none"
    }, 
    "http://tabelog.com/tokyo/A1326/A132603/13097380/": {
      "Category": [
        "スペイン料理"
      ], 
      "Homepage": "none", 
      "Lat": "35.6327722773728", 
      "Lon": "139.576793768056", 
      "Region": [
        "東京都", 
        "狛江市元和泉1-4-2", 
        "すみれハイツ101"
      ], 
      "Reserve": "予約可", 
      "RestName": "Bar Nogawa（バル ノガワ）", 
      "Tell": "03-5497-5863", 
      "locality": "狛江市元和泉1-4-2", 
      "region": "東京都", 
      "street-address": "すみれハイツ101", 
      "tellMain": "none", 
      "tellSub": "none"
    }, 
    "http://tabelog.com/tokyo/A1326/A132603/13098868/": {
      "Category": [
        "居酒屋"
      ], 
      "Homepage": "none", 
      "Lat": "35.6341161024831", 
      "Lon": "139.577742630445", 
      "Region": [
        "東京都", 
        "狛江市中和泉1-2-13", 
        ""
      ], 
      "Reserve": "予約可", 
      "RestName": "旬香", 
      "Tell": "03-3480-8919", 
      "locality": "狛江市中和泉1-2-13", 
      "region": "東京都", 
      "street-address": "", 
      "tellMain": "none", 
      "tellSub": "none"
    }, 
    "http://tabelog.com/tokyo/A1326/A132603/13099614/": {
      "Category": [
        "そば", 
        "うどん"
      ], 
      "Homepage": "none", 
      "Lat": "35.6324903812395", 
      "Lon": "139.577473038573", 
      "Region": [
        "東京都", 
        "狛江市東和泉1-17-1", 
        "狛江駅改札横"
      ], 
      "Reserve": "予約不可", 
      "RestName": "名代 箱根そば 狛江店", 
      "Tell": "03-3480-9213", 
      "locality": "狛江市東和泉1-17-1", 
      "region": "東京都", 
      "street-address": "狛江駅改札横", 
      "tellMain": "none", 
      "tellSub": "none"
    }, 
    "http://tabelog.com/tokyo/A1326/A132603/13102734/": {
      "Category": [
        "ホルモン", 
        "焼肉", 
        "居酒屋"
      ], 
      "Homepage": "http://www.monteroza.co.jp/index.html", 
      "Lat": "35.631420302948", 
      "Lon": "139.578183066793", 
      "Region": [
        "東京都", 
        "狛江市東和泉1-22-18", 
        "谷田部ビル 1Ｆ"
      ], 
      "Reserve": "予約可", 
      "RestName": "狛江ホルモン おいで屋", 
      "Tell": "03-3480-5588", 
      "locality": "狛江市東和泉1-22-18", 
      "region": "東京都", 
      "street-address": "谷田部ビル 1Ｆ", 
      "tellMain": "none", 
      "tellSub": "none"
    }, 
    "http://tabelog.com/tokyo/A1326/A132603/13103846/": {
      "Category": [
        "居酒屋", 
        "魚介料理・海鮮料理", 
        "創作和食"
      ], 
      "Homepage": "http://www.monteroza.co.jp/index.html", 
      "Lat": "35.6314297459748", 
      "Lon": "139.578159734963", 
      "Region": [
        "東京都", 
        "狛江市東和泉1-22-18", 
        "谷田部ビル　1F"
      ], 
      "Reserve": "予約可", 
      "RestName": "魚民 狛江駅前店", 
      "Tell": "03-5497-4588", 
      "locality": "狛江市東和泉1-22-18", 
      "region": "東京都", 
      "street-address": "谷田部ビル　1F", 
      "tellMain": "none", 
      "tellSub": "none"
    }, 
    "http://tabelog.com/tokyo/A1326/A132603/13105778/": {
      "Category": [
        "焼鳥", 
        "寿司"
      ], 
      "Homepage": "http://www.facebook.com/kikai.yakitori", 
      "Lat": "35.6260044320384", 
      "Lon": "139.574673329855", 
      "Region": [
        "東京都", 
        "狛江市東和泉3-7-27", 
        "サニーマンション"
      ], 
      "Reserve": "予約可", 
      "RestName": "炭火焼やきとり喜界（キカイ）", 
      "Tell": "050-5872-7359", 
      "locality": "狛江市東和泉3-7-27", 
      "region": "東京都", 
      "street-address": "サニーマンション", 
      "tellMain": "050-5872-7359（予約専用番号）", 
      "tellSub": "03-3488-9800（お問い合わせ専用番号）"
    }, 
    "http://tabelog.com/tokyo/A1326/A132603/13108124/": {
      "Category": [
        "ラーメン"
      ], 
      "Homepage": "http://www.bokkemon.com/top/index.htm", 
      "Lat": "35.6315769454225", 
      "Lon": "139.577757261611", 
      "Region": [
        "東京都", 
        "狛江市東和泉1-21-9", 
        "ロータス狛江1F"
      ], 
      "Reserve": "none", 
      "RestName": "ぼっけもん", 
      "Tell": "03-3430-6143", 
      "locality": "狛江市東和泉1-21-9", 
      "region": "東京都", 
      "street-address": "ロータス狛江1F", 
      "tellMain": "none", 
      "tellSub": "none"
    }, 
    "http://tabelog.com/tokyo/A1326/A132603/13108345/": {
      "Category": [
        "和菓子", 
        "洋菓子（その他）", 
        "ケーキ"
      ], 
      "Homepage": "none", 
      "Lat": "35.6332044703465", 
      "Lon": "139.578032047862", 
      "Region": [
        "東京都", 
        "狛江市元和泉1丁目 2-1", 
        "odakyu OX １F"
      ], 
      "Reserve": "none", 
      "RestName": "成城 風月堂 狛江店", 
      "Tell": "03-3480-3741", 
      "locality": "狛江市元和泉1丁目 2-1", 
      "region": "東京都", 
      "street-address": "odakyu OX １F", 
      "tellMain": "none", 
      "tellSub": "none"
    }, 
    "http://tabelog.com/tokyo/A1326/A132603/13111879/": {
      "Category": [
        "和菓子"
      ], 
      "Homepage": "none", 
      "Lat": "35.633558638686", 
      "Lon": "139.577107684036", 
      "Region": [
        "東京都", 
        "狛江市元和泉1丁目4-12", 
        ""
      ], 
      "Reserve": "none", 
      "RestName": "だんごの美好 狛江店", 
      "Tell": "03-3488-2371", 
      "locality": "狛江市元和泉1丁目4-12", 
      "region": "東京都", 
      "street-address": "", 
      "tellMain": "none", 
      "tellSub": "none"
    }, 
    "http://tabelog.com/tokyo/A1326/A132603/13114105/": {
      "Category": [
        "居酒屋", 
        "焼肉", 
        "串焼き"
      ], 
      "Homepage": "none", 
      "Lat": "35.6315194485692", 
      "Lon": "139.577585334092", 
      "Region": [
        "東京都", 
        "狛江市東和泉1丁目20-4", 
        ""
      ], 
      "Reserve": "none", 
      "RestName": "ミートステーション", 
      "Tell": "03-3489-1192", 
      "locality": "狛江市東和泉1丁目20-4", 
      "region": "東京都", 
      "street-address": "", 
      "tellMain": "none", 
      "tellSub": "none"
    }, 
    "http://tabelog.com/tokyo/A1326/A132603/13115630/": {
      "Category": [
        "立ち飲み居酒屋・バー"
      ], 
      "Homepage": "none", 
      "Lat": "35.6322171386871", 
      "Lon": "139.577821584021", 
      "Region": [
        "東京都", 
        "狛江市東和泉1-16-7", 
        ""
      ], 
      "Reserve": "予約不可", 
      "RestName": "立ち呑みや増田", 
      "Tell": "03-3489-4605", 
      "locality": "狛江市東和泉1-16-7", 
      "region": "東京都", 
      "street-address": "", 
      "tellMain": "none", 
      "tellSub": "none"
    }, 
    "http://tabelog.com/tokyo/A1326/A132603/13119501/": {
      "Category": [
        "バー"
      ], 
      "Homepage": "none", 
      "Lat": "35.6316408247132", 
      "Lon": "139.577598938486", 
      "Region": [
        "東京都", 
        "狛江市東和泉1-20-2", 
        "永光ビル B1"
      ], 
      "Reserve": "予約可", 
      "RestName": "BAR iCHi（バーイチ）", 
      "Tell": "03-5761-5582", 
      "locality": "狛江市東和泉1-20-2", 
      "region": "東京都", 
      "street-address": "永光ビル B1", 
      "tellMain": "none", 
      "tellSub": "none"
    }, 
    "http://tabelog.com/tokyo/A1326/A132603/13120694/": {
      "Category": [
        "ホルモン", 
        "焼肉"
      ], 
      "Homepage": "none", 
      "Lat": "35.6328888773782", 
      "Lon": "139.585487168046", 
      "Region": [
        "東京都", 
        "狛江市岩戸北3-14-21", 
        ""
      ], 
      "Reserve": "予約可", 
      "RestName": "炭火ホルモン焼肉ばりき屋（ばりきや）", 
      "Tell": "03-6319-4717", 
      "locality": "狛江市岩戸北3-14-21", 
      "region": "東京都", 
      "street-address": "", 
      "tellMain": "none", 
      "tellSub": "none"
    }, 
    "http://tabelog.com/tokyo/A1326/A132603/13124506/": {
      "Category": [
        "レストラン（その他）"
      ], 
      "Homepage": "none", 
      "Lat": "35.6331309386872", 
      "Lon": "139.580137884029", 
      "Region": [
        "東京都", 
        "狛江市東和泉1-2-16", 
        ""
      ], 
      "Reserve": "none", 
      "RestName": "ジョナサン 狛江店", 
      "Tell": "03-5497-7143", 
      "locality": "狛江市東和泉1-2-16", 
      "region": "東京都", 
      "street-address": "", 
      "tellMain": "none", 
      "tellSub": "none"
    }, 
    "http://tabelog.com/tokyo/A1326/A132603/13124792/": {
      "Category": [
        "そば"
      ], 
      "Homepage": "none", 
      "Lat": "35.6320507812", 
      "Lon": "139.577896296223", 
      "Region": [
        "東京都", 
        "狛江市東和泉1-19-1", 
        ""
      ], 
      "Reserve": "予約不可", 
      "RestName": "扇屋", 
      "Tell": "03-3480-0111", 
      "locality": "狛江市東和泉1-19-1", 
      "region": "東京都", 
      "street-address": "", 
      "tellMain": "none", 
      "tellSub": "none"
    }, 
    "http://tabelog.com/tokyo/A1326/A132603/13124911/": {
      "Category": [
        "ケーキ", 
        "デリカテッセン"
      ], 
      "Homepage": "none", 
      "Lat": "35.6332055773731", 
      "Lon": "139.578032468063", 
      "Region": [
        "東京都", 
        "狛江市元和泉1-2-1", 
        "小田急OX狛江店　１Ｆ"
      ], 
      "Reserve": "none", 
      "RestName": "フロプレステージュ 狛江小田急OX店", 
      "Tell": "03-3489-2629", 
      "locality": "狛江市元和泉1-2-1", 
      "region": "東京都", 
      "street-address": "小田急OX狛江店　１Ｆ", 
      "tellMain": "none", 
      "tellSub": "none"
    }, 
    "http://tabelog.com/tokyo/A1326/A132603/13126858/": {
      "Category": [
        "ハンバーガー", 
        "カフェ"
      ], 
      "Homepage": "none", 
      "Lat": "35.6325695854261", 
      "Lon": "139.577838662521", 
      "Region": [
        "東京都", 
        "狛江市元和泉1-2-2", 
        "小田急マルシェ狛江１F"
      ], 
      "Reserve": "none", 
      "RestName": "マクドナルド 　狛江マルシェ店", 
      "Tell": "03-5438-7381", 
      "locality": "狛江市元和泉1-2-2", 
      "region": "東京都", 
      "street-address": "小田急マルシェ狛江１F", 
      "tellMain": "none", 
      "tellSub": "none"
    }, 
    "http://tabelog.com/tokyo/A1326/A132603/13126860/": {
      "Category": [
        "パン", 
        "サンドイッチ"
      ], 
      "Homepage": "none", 
      "Lat": "35.6324236257535", 
      "Lon": "139.577395230381", 
      "Region": [
        "東京都", 
        "狛江市東和泉1-17-1", 
        "狛江駅改札内"
      ], 
      "Reserve": "none", 
      "RestName": "HOKUO 狛江店（ほくおう）", 
      "Tell": "03-3430-1109", 
      "locality": "狛江市東和泉1-17-1", 
      "region": "東京都", 
      "street-address": "狛江駅改札内", 
      "tellMain": "none", 
      "tellSub": "none"
    }, 
    "http://tabelog.com/tokyo/A1326/A132603/13130198/": {
      "Category": [
        "バル・バール", 
        "イタリアン", 
        "居酒屋"
      ], 
      "Homepage": "http://r.gnavi.co.jp/ga9m002/", 
      "Lat": "35.6320243958644", 
      "Lon": "139.577660026863", 
      "Region": [
        "東京都", 
        "狛江市東和泉1-18-8", 
        "タカラビル3F"
      ], 
      "Reserve": "予約可", 
      "RestName": "Italianバル×テラス HOME狛江（イタリアンバルテラスホーム）", 
      "Tell": "03-5761-8872", 
      "locality": "狛江市東和泉1-18-8", 
      "region": "東京都", 
      "street-address": "タカラビル3F", 
      "tellMain": "none", 
      "tellSub": "none"
    }, 
    "http://tabelog.com/tokyo/A1326/A132603/13132638/": {
      "Category": [
        "カフェ"
      ], 
      "Homepage": "none", 
      "Lat": "35.6352222386851", 
      "Lon": "139.577429684052", 
      "Region": [
        "東京都", 
        "狛江市和泉本町1-35-3", 
        "ル・ミリオン・イイダ1-B"
      ], 
      "Reserve": "予約可", 
      "RestName": "カフェ マメフク", 
      "Tell": "03-5761-5733", 
      "locality": "狛江市和泉本町1-35-3", 
      "region": "東京都", 
      "street-address": "ル・ミリオン・イイダ1-B", 
      "tellMain": "none", 
      "tellSub": "none"
    }, 
    "http://tabelog.com/tokyo/A1326/A132603/13133513/": {
      "Category": [
        "デリカテッセン"
      ], 
      "Homepage": "none", 
      "Lat": "35.6332059386865", 
      "Lon": "139.578032584032", 
      "Region": [
        "東京都", 
        "狛江市元和泉1-2-1", 
        "小田急OX狛江店1F"
      ], 
      "Reserve": "none", 
      "RestName": "昇龍園 小田急OX狛江店", 
      "Tell": "03-5497-9008", 
      "locality": "狛江市元和泉1-2-1", 
      "region": "東京都", 
      "street-address": "小田急OX狛江店1F", 
      "tellMain": "none", 
      "tellSub": "none"
    }, 
    "http://tabelog.com/tokyo/A1326/A132603/13136358/": {
      "Category": [
        "ハンバーガー"
      ], 
      "Homepage": "none", 
      "Lat": "35.6318458160839", 
      "Lon": "139.577417555698", 
      "Region": [
        "東京都", 
        "狛江市東和泉1-18-6", 
        "狛江ファーストビル 1F"
      ], 
      "Reserve": "none", 
      "RestName": "フレッシュネスバーガー 狛江店（FRESHESS BURGER）", 
      "Tell": "03-3488-4516", 
      "locality": "狛江市東和泉1-18-6", 
      "region": "東京都", 
      "street-address": "狛江ファーストビル 1F", 
      "tellMain": "none", 
      "tellSub": "none"
    }, 
    "http://tabelog.com/tokyo/A1326/A132603/13138434/": {
      "Category": [
        "居酒屋"
      ], 
      "Homepage": "http://www.asahibeer.co.jp/area/search/shop.psp.html/93002443.htm", 
      "Lat": "35.6316652707541", 
      "Lon": "139.577840028449", 
      "Region": [
        "東京都", 
        "狛江市東和泉1-21-1", 
        "第二セイワビル 1F"
      ], 
      "Reserve": "予約可", 
      "RestName": "もも亭", 
      "Tell": "03-3430-9118", 
      "locality": "狛江市東和泉1-21-1", 
      "region": "東京都", 
      "street-address": "第二セイワビル 1F", 
      "tellMain": "none", 
      "tellSub": "none"
    }, 
    "http://tabelog.com/tokyo/A1326/A132603/13145621/": {
      "Category": [
        "和菓子"
      ], 
      "Homepage": "none", 
      "Lat": "35.6342706461283", 
      "Lon": "139.577937762579", 
      "Region": [
        "東京都", 
        "狛江市中和泉1-2-10", 
        "シライビル 1F"
      ], 
      "Reserve": "none", 
      "RestName": "ふう月堂 市役所前店", 
      "Tell": "03-3480-3880", 
      "locality": "狛江市中和泉1-2-10", 
      "region": "東京都", 
      "street-address": "シライビル 1F", 
      "tellMain": "none", 
      "tellSub": "none"
    }, 
    "http://tabelog.com/tokyo/A1326/A132603/13146576/": {
      "Category": [
        "ホルモン"
      ], 
      "Homepage": "none", 
      "Lat": "35.6338630904255", 
      "Lon": "139.578862599875", 
      "Region": [
        "東京都", 
        "狛江市和泉本町1-2-6", 
        ""
      ], 
      "Reserve": "予約可", 
      "RestName": "玄", 
      "Tell": "03-3430-6000", 
      "locality": "狛江市和泉本町1-2-6", 
      "region": "東京都", 
      "street-address": "", 
      "tellMain": "none", 
      "tellSub": "none"
    }, 
    "http://tabelog.com/tokyo/A1326/A132603/13147957/": {
      "Category": [
        "スイーツ（その他）"
      ], 
      "Homepage": "none", 
      "Lat": "35.6332059386865", 
      "Lon": "139.578032584032", 
      "Region": [
        "東京都", 
        "狛江市元和泉1-2-1", 
        "odakyu-ox狛江"
      ], 
      "Reserve": "none", 
      "RestName": "田村米菓 狛江店", 
      "Tell": "03-5438-5561", 
      "locality": "狛江市元和泉1-2-1", 
      "region": "東京都", 
      "street-address": "odakyu-ox狛江", 
      "tellMain": "none", 
      "tellSub": "none"
    }, 
    "http://tabelog.com/tokyo/A1326/A132603/13149497/": {
      "Category": [
        "焼鳥", 
        "コロッケ・フライ"
      ], 
      "Homepage": "none", 
      "Lat": "35.6320755386872", 
      "Lon": "139.57770218402", 
      "Region": [
        "東京都", 
        "狛江市東和泉1-18-9", 
        ""
      ], 
      "Reserve": "none", 
      "RestName": "藤木商店", 
      "Tell": "03-3480-0871", 
      "locality": "狛江市東和泉1-18-9", 
      "region": "東京都", 
      "street-address": "", 
      "tellMain": "none", 
      "tellSub": "none"
    }, 
    "http://tabelog.com/tokyo/A1326/A132603/13154657/": {
      "Category": [
        "カフェ"
      ], 
      "Homepage": "none", 
      "Lat": "35.6332059386865", 
      "Lon": "139.578032584032", 
      "Region": [
        "東京都", 
        "狛江市元和泉1-2-1", 
        "OdakyuOX 1F"
      ], 
      "Reserve": "none", 
      "RestName": "ドトールコーヒーショップ 狛江店", 
      "Tell": "03-3488-3131", 
      "locality": "狛江市元和泉1-2-1", 
      "region": "東京都", 
      "street-address": "OdakyuOX 1F", 
      "tellMain": "none", 
      "tellSub": "none"
    }, 
    "http://tabelog.com/tokyo/A1326/A132603/13155896/": {
      "Category": [
        "インド料理", 
        "インドカレー", 
        "カレーライス"
      ], 
      "Homepage": "http://www.spicekitchen.co.jp/", 
      "Lat": "35.6329392386867", 
      "Lon": "139.578099284029", 
      "Region": [
        "東京都", 
        "狛江市元和泉1-2-2", 
        "小田急マルシェ狛江 1F"
      ], 
      "Reserve": "予約不可", 
      "RestName": "スパイスキッチン 狛江店（Spice Kitchen）", 
      "Tell": "050-5890-3150", 
      "locality": "狛江市元和泉1-2-2", 
      "region": "東京都", 
      "street-address": "小田急マルシェ狛江 1F", 
      "tellMain": "050-5890-3150（予約専用番号）", 
      "tellSub": "03-5761-4848（お問い合わせ専用番号）"
    }, 
    "http://tabelog.com/tokyo/A1326/A132603/13156954/": {
      "Category": [
        "韓国料理"
      ], 
      "Homepage": "none", 
      "Lat": "35.633171802287", 
      "Lon": "139.57793359567", 
      "Region": [
        "東京都", 
        "狛江市元和泉1-2-1", 
        "小田急ＯＸ狛江店 1F"
      ], 
      "Reserve": "none", 
      "RestName": "マダン", 
      "Tell": "03-3430-5227", 
      "locality": "狛江市元和泉1-2-1", 
      "region": "東京都", 
      "street-address": "小田急ＯＸ狛江店 1F", 
      "tellMain": "none", 
      "tellSub": "none"
    }, 
    "http://tabelog.com/tokyo/A1326/A132603/13158099/": {
      "Category": [
        "バー"
      ], 
      "Homepage": "http://www.benten-st.com/", 
      "Lat": "35.6320255386872", 
      "Lon": "139.577660484019", 
      "Region": [
        "東京都", 
        "狛江市東和泉1-18-8", 
        "狛江タカラビル B1F"
      ], 
      "Reserve": "予約不可", 
      "RestName": "BEN辿（ベンテン）", 
      "Tell": "03-5438-2302", 
      "locality": "狛江市東和泉1-18-8", 
      "region": "東京都", 
      "street-address": "狛江タカラビル B1F", 
      "tellMain": "none", 
      "tellSub": "none"
    }, 
    "http://tabelog.com/tokyo/A1326/A132603/13160870/": {
      "Category": [
        "バル・バール", 
        "ビアバー", 
        "ダイニングバー"
      ], 
      "Homepage": "http://ameblo.jp/spicarbo/", 
      "Lat": "35.6341696386859", 
      "Lon": "139.577835284041", 
      "Region": [
        "東京都", 
        "狛江市中和泉1-2-10", 
        ""
      ], 
      "Reserve": "予約可", 
      "RestName": "スピカルボ（Spicarbo）", 
      "Tell": "03-5497-1677", 
      "locality": "狛江市中和泉1-2-10", 
      "region": "東京都", 
      "street-address": "", 
      "tellMain": "none", 
      "tellSub": "none"
    }, 
    "http://tabelog.com/tokyo/A1326/A132603/13161731/": {
      "Category": [
        "デリカテッセン"
      ], 
      "Homepage": "none", 
      "Lat": "35.6342064127528", 
      "Lon": "139.577997741829", 
      "Region": [
        "東京都", 
        "狛江市中和泉1-2-10", 
        ""
      ], 
      "Reserve": "none", 
      "RestName": "白井", 
      "Tell": "03-3489-0674", 
      "locality": "狛江市中和泉1-2-10", 
      "region": "東京都", 
      "street-address": "", 
      "tellMain": "none", 
      "tellSub": "none"
    }, 
    "http://tabelog.com/tokyo/A1326/A132603/13163274/": {
      "Category": [
        "パン"
      ], 
      "Homepage": "none", 
      "Lat": "35.6332103867621", 
      "Lon": "139.57804021846", 
      "Region": [
        "東京都", 
        "狛江市元和泉1-2-1", 
        "B1F"
      ], 
      "Reserve": "none", 
      "RestName": "ティーモ Odakyu OX 狛江店", 
      "Tell": "03-3488-1811", 
      "locality": "狛江市元和泉1-2-1", 
      "region": "東京都", 
      "street-address": "B1F", 
      "tellMain": "none", 
      "tellSub": "none"
    }, 
    "http://tabelog.com/tokyo/A1326/A132603/13163290/": {
      "Category": [
        "喫茶店"
      ], 
      "Homepage": "none", 
      "Lat": "35.6332114386865", 
      "Lon": "139.578040884031", 
      "Region": [
        "東京都", 
        "狛江市元和泉1-2-1", 
        "エコルマ 1F"
      ], 
      "Reserve": "none", 
      "RestName": "ノタリーノ（NOTALINO）", 
      "Tell": "03-3480-6940", 
      "locality": "狛江市元和泉1-2-1", 
      "region": "東京都", 
      "street-address": "エコルマ 1F", 
      "tellMain": "none", 
      "tellSub": "none"
    }, 
    "http://tabelog.com/tokyo/A1326/A132603/13163975/": {
      "Category": [
        "パンケーキ", 
        "バー", 
        "カフェ"
      ], 
      "Homepage": "none", 
      "Lat": "35.6328059386873", 
      "Lon": "139.579801884026", 
      "Region": [
        "東京都", 
        "狛江市東和泉1-11-6", 
        "メゾン・デュ倉橋 1F"
      ], 
      "Reserve": "none", 
      "RestName": "OHANA（オハナ）", 
      "Tell": "03-5497-1618", 
      "locality": "狛江市東和泉1-11-6", 
      "region": "東京都", 
      "street-address": "メゾン・デュ倉橋 1F", 
      "tellMain": "none", 
      "tellSub": "none"
    }, 
    "http://tabelog.com/tokyo/A1326/A132603/13166113/": {
      "Category": [
        "弁当", 
        "デリカテッセン"
      ], 
      "Homepage": "none", 
      "Lat": "35.6312822373717", 
      "Lon": "139.577876812848", 
      "Region": [
        "東京都", 
        "狛江市東和泉1-21-5", 
        ""
      ], 
      "Reserve": "none", 
      "RestName": "オリジン弁当 狛江南口店", 
      "Tell": "03-5438-5230", 
      "locality": "狛江市東和泉1-21-5", 
      "region": "東京都", 
      "street-address": "", 
      "tellMain": "none", 
      "tellSub": "none"
    }, 
    "http://tabelog.com/tokyo/A1326/A132603/13166900/": {
      "Category": [
        "弁当"
      ], 
      "Homepage": "none", 
      "Lat": "35.6332114386865", 
      "Lon": "139.578040884031", 
      "Region": [
        "東京都", 
        "狛江市元和泉1-2-1", 
        "OdakyuOX狛江店 1F"
      ], 
      "Reserve": "none", 
      "RestName": "おこわ米八 Odakyu OX 狛江店", 
      "Tell": "03-3488-0691", 
      "locality": "狛江市元和泉1-2-1", 
      "region": "東京都", 
      "street-address": "OdakyuOX狛江店 1F", 
      "tellMain": "none", 
      "tellSub": "none"
    }, 
    "http://tabelog.com/tokyo/A1326/A132603/13166901/": {
      "Category": [
        "デリカテッセン"
      ], 
      "Homepage": "none", 
      "Lat": "35.6332114386865", 
      "Lon": "139.578040884031", 
      "Region": [
        "東京都", 
        "狛江市元和泉1-2-1", 
        "OdakyuOX狛江店 1F"
      ], 
      "Reserve": "none", 
      "RestName": "地鶏屋 Odakyu OX 狛江店", 
      "Tell": "03-3488-8877", 
      "locality": "狛江市元和泉1-2-1", 
      "region": "東京都", 
      "street-address": "OdakyuOX狛江店 1F", 
      "tellMain": "none", 
      "tellSub": "none"
    }, 
    "http://tabelog.com/tokyo/A1326/A132603/13167117/": {
      "Category": [
        "洋食", 
        "オイスターバー", 
        "イタリアン"
      ], 
      "Homepage": "https://rsv.ebica.jp/ebica2/webrsv/reserve_vacants/vacant/e014001001/2090/?show=3", 
      "Lat": "35.6346130198975", 
      "Lon": "139.578348461615", 
      "Region": [
        "東京都", 
        "狛江市和泉本町1-1-5", 
        "狛江市役所内 1F"
      ], 
      "Reserve": "予約可", 
      "RestName": "ジャックポット 狛江", 
      "Tell": "050-5890-8443", 
      "locality": "狛江市和泉本町1-1-5", 
      "region": "東京都", 
      "street-address": "狛江市役所内 1F", 
      "tellMain": "050-5890-8443（予約専用番号）", 
      "tellSub": "03-5761-7180（お問い合わせ専用番号）"
    }, 
    "http://tabelog.com/tokyo/A1326/A132603/13167929/": {
      "Category": [
        "中華料理", 
        "餃子"
      ], 
      "Homepage": "none", 
      "Lat": "35.6347552111479", 
      "Lon": "139.577446030015", 
      "Region": [
        "東京都", 
        "狛江市中和泉1-2-1", 
        ""
      ], 
      "Reserve": "none", 
      "RestName": "餃子の軒々", 
      "Tell": "不明の為情報お待ちしております", 
      "locality": "狛江市中和泉1-2-1", 
      "region": "東京都", 
      "street-address": "", 
      "tellMain": "none", 
      "tellSub": "none"
    }, 
    "http://tabelog.com/tokyo/A1326/A132603/13168445/": {
      "Category": [
        "カフェ"
      ], 
      "Homepage": "none", 
      "Lat": "35.6338974386864", 
      "Lon": "139.578912984038", 
      "Region": [
        "東京都", 
        "狛江市和泉本町1-2-6", 
        "2F"
      ], 
      "Reserve": "none", 
      "RestName": "スノウドロップ", 
      "Tell": "080-4458-4396", 
      "locality": "狛江市和泉本町1-2-6", 
      "region": "東京都", 
      "street-address": "2F", 
      "tellMain": "none", 
      "tellSub": "none"
    }, 
    "http://tabelog.com/tokyo/A1326/A132603/13169530/": {
      "Category": [
        "その他"
      ], 
      "Homepage": "none", 
      "Lat": "35.6332114386865", 
      "Lon": "139.578040884031", 
      "Region": [
        "東京都", 
        "狛江市元和泉1-2-1", 
        ""
      ], 
      "Reserve": "none", 
      "RestName": "オダキュウ OX お惣菜コーナー 狛江店（Odakyu OX オソウザイコーナー）", 
      "Tell": "03-3488-1811", 
      "locality": "狛江市元和泉1-2-1", 
      "region": "東京都", 
      "street-address": "", 
      "tellMain": "none", 
      "tellSub": "none"
    }, 
    "http://tabelog.com/tokyo/A1326/A132603/13169557/": {
      "Category": [
        "カフェ", 
        "洋食", 
        "ハンバーグ"
      ], 
      "Homepage": "https://twitter.com/looptamagawa", 
      "Lat": "35.6258322386902", 
      "Lon": "139.575019683959", 
      "Region": [
        "東京都", 
        "狛江市東和泉3-7-4", 
        ""
      ], 
      "Reserve": "予約可", 
      "RestName": "Loop", 
      "Tell": "050-5570-2152", 
      "locality": "狛江市東和泉3-7-4", 
      "region": "東京都", 
      "street-address": "", 
      "tellMain": "050-5570-2152（予約専用番号）", 
      "tellSub": "03-5761-7992（お問い合わせ専用番号）"
    }, 
    "http://tabelog.com/tokyo/A1326/A132603/13171836/": {
      "Category": [
        "寿司", 
        "弁当"
      ], 
      "Homepage": "none", 
      "Lat": "35.6332114386865", 
      "Lon": "139.578040884031", 
      "Region": [
        "東京都", 
        "狛江市元和泉1-2-1", 
        "Odakyu OX 狛江店 1F"
      ], 
      "Reserve": "none", 
      "RestName": "京樽 狛江小田急OX", 
      "Tell": "03-3488-9771", 
      "locality": "狛江市元和泉1-2-1", 
      "region": "東京都", 
      "street-address": "Odakyu OX 狛江店 1F", 
      "tellMain": "none", 
      "tellSub": "none"
    }, 
    "http://tabelog.com/tokyo/A1326/A132603/13172321/": {
      "Category": [
        "とんかつ", 
        "弁当"
      ], 
      "Homepage": "none", 
      "Lat": "35.6332114386865", 
      "Lon": "139.578040884031", 
      "Region": [
        "東京都", 
        "狛江市元和泉1-2-1", 
        "Odakyu OX 狛江店 1F"
      ], 
      "Reserve": "none", 
      "RestName": "和幸 小田急OX狛江売店", 
      "Tell": "03-5438-5360", 
      "locality": "狛江市元和泉1-2-1", 
      "region": "東京都", 
      "street-address": "Odakyu OX 狛江店 1F", 
      "tellMain": "none", 
      "tellSub": "none"
    }
  }
}